<?xml version="1.0" encoding="UTF-8" standalone="no"?>
<!-- Created with Inkscape (http://www.inkscape.org/) -->

<svg
   xmlns:dc="http://purl.org/dc/elements/1.1/"
   xmlns:cc="http://creativecommons.org/ns#"
   xmlns:rdf="http://www.w3.org/1999/02/22-rdf-syntax-ns#"
   xmlns:svg="http://www.w3.org/2000/svg"
   xmlns="http://www.w3.org/2000/svg"
   xmlns:sodipodi="http://sodipodi.sourceforge.net/DTD/sodipodi-0.dtd"
   xmlns:inkscape="http://www.inkscape.org/namespaces/inkscape"
   version="1.1"
   id="svg4505"
   xml:space="preserve"
   width="636.84747"
   height="411.59052"
   viewBox="0 0 636.84747 411.59051"
   sodipodi:docname="sprites.svg"
   inkscape:version="0.92.4 (5da689c313, 2019-01-14)"><metadata
     id="metadata4511"><rdf:RDF><cc:Work
         rdf:about=""><dc:format>image/svg+xml</dc:format><dc:type
           rdf:resource="http://purl.org/dc/dcmitype/StillImage" /><dc:title></dc:title></cc:Work></rdf:RDF></metadata><defs
     id="defs4509"><linearGradient
       x1="0"
       y1="0"
       x2="1"
       y2="0"
       gradientUnits="userSpaceOnUse"
       gradientTransform="matrix(737.436,1085.66,1085.66,-737.436,4416.4,2946.93)"
       spreadMethod="pad"
       id="linearGradient4537"><stop
         style="stop-opacity:1;stop-color:#f04338"
         offset="0"
         id="stop4533" /><stop
         style="stop-opacity:1;stop-color:#ef5e4a"
         offset="1"
         id="stop4535" /></linearGradient><linearGradient
       x1="0"
       y1="0"
       x2="1"
       y2="0"
       gradientUnits="userSpaceOnUse"
       gradientTransform="matrix(-553.085,1024.24,1024.24,553.085,1706.01,2893.03)"
       spreadMethod="pad"
       id="linearGradient4547"><stop
         style="stop-opacity:1;stop-color:#f04338"
         offset="0"
         id="stop4543" /><stop
         style="stop-opacity:1;stop-color:#ef5e4a"
         offset="1"
         id="stop4545" /></linearGradient><linearGradient
       x1="0"
       y1="0"
       x2="1"
       y2="0"
       gradientUnits="userSpaceOnUse"
       gradientTransform="matrix(-8.17e-5,1869.15,1869.15,8.17e-5,3077.34,1640.58)"
       spreadMethod="pad"
       id="linearGradient4573"><stop
         style="stop-opacity:1;stop-color:#f04338"
         offset="0"
         id="stop4569" /><stop
         style="stop-opacity:1;stop-color:#ef5e4a"
         offset="1"
         id="stop4571" /></linearGradient></defs><sodipodi:namedview
     pagecolor="#ffffff"
     bordercolor="#666666"
     borderopacity="1"
     objecttolerance="10"
     gridtolerance="10"
     guidetolerance="10"
     inkscape:pageopacity="0"
     inkscape:pageshadow="2"
     inkscape:window-width="1920"
     inkscape:window-height="1136"
     id="namedview4507"
     showgrid="false"
     inkscape:zoom="1.0799673"
     inkscape:cx="319.77736"
     inkscape:cy="226.60864"
     inkscape:window-x="0"
     inkscape:window-y="36"
     inkscape:window-maximized="1"
     inkscape:current-layer="g4513" /><g
     id="g4513"
     inkscape:groupmode="layer"
     inkscape:label="ink_ext_XXXXXX"
     transform="matrix(1.3333333,0,0,-1.3333333,-95.975967,600.7352)"><g
       id="g4515"
       transform="scale(0.1)"><path
         d="m 2913.38,4072.33 c 0,-215.08 -174.17,-389.25 -389.04,-389.25 -215.09,0 -389.33,174.17 -389.33,389.25 0,214.88 174.24,389.11 389.33,389.11 214.87,0 389.04,-174.23 389.04,-389.11"
         style="fill:#ffffff;fill-opacity:1;fill-rule:evenodd;stroke:none"
         id="path4517"
         inkscape:connector-curvature="0" /><path
         d="m 2869.85,4072.33 c -23.9,-445.71 -667.4,-445.57 -691.31,0 -10.54,195.54 165.59,335.88 345.8,345.59 195.46,10.55 335.88,-165.38 345.51,-345.59 3.1,-55.76 90,-56.04 87.05,0 -30.09,557.23 -835.31,557.15 -865.41,0 -13.08,-244.62 207.64,-420.68 432.85,-432.77 244.48,-13.08 420.46,207.7 432.56,432.77 2.95,56.04 -83.95,55.76 -87.05,0"
         style="fill:#351f17;fill-opacity:1;fill-rule:nonzero;stroke:none"
         id="path4519"
         inkscape:connector-curvature="0" /><path
         d="m 2721.77,4072.33 c 0,-109.26 -88.38,-197.65 -197.43,-197.65 -109.27,0 -197.79,88.39 -197.79,197.65 0,109.06 88.52,197.58 197.79,197.58 109.05,0 197.43,-88.52 197.43,-197.58"
         style="fill:#351f17;fill-opacity:1;fill-rule:evenodd;stroke:none"
         id="path4521"
         inkscape:connector-curvature="0" /><path
         d="m 2542.13,3683.08 c 6.88,-116.09 13.7,-232.1 20.46,-348.26 3.38,-55.69 90.27,-56.04 87.05,0 -6.9,116.16 -13.71,232.17 -20.47,348.26 -3.38,55.69 -90.27,56.04 -87.04,0"
         style="fill:#351f17;fill-opacity:1;fill-rule:nonzero;stroke:none"
         id="path4523"
         inkscape:connector-curvature="0" /><path
         d="m 3241.24,4072.33 c 0,-215.08 174.24,-389.25 389.18,-389.25 214.88,0 389.04,174.17 389.04,389.25 0,214.88 -174.16,389.11 -389.04,389.11 -214.94,0 -389.18,-174.23 -389.18,-389.11"
         style="fill:#ffffff;fill-opacity:1;fill-rule:evenodd;stroke:none"
         id="path4525"
         inkscape:connector-curvature="0" /><path
         d="m 3197.72,4072.33 c 30.02,-557.37 835.24,-557.37 865.26,0 13.15,244.41 -207.48,420.47 -432.56,432.63 -244.47,13.08 -420.54,-207.56 -432.7,-432.63 -3.02,-56.04 83.95,-55.76 86.98,0 24.04,445.43 667.26,445.43 691.32,0 10.53,-195.54 -165.39,-336.09 -345.6,-345.73 -195.54,-10.54 -336.02,165.52 -345.72,345.73 -3.03,55.76 -90,56.04 -86.98,0"
         style="fill:#351f17;fill-opacity:1;fill-rule:nonzero;stroke:none"
         id="path4527"
         inkscape:connector-curvature="0" /><path
         d="m 3432.77,4072.33 c 0,-109.26 88.61,-197.65 197.65,-197.65 109.12,0 197.58,88.39 197.58,197.65 0,109.06 -88.46,197.58 -197.58,197.58 -109.04,0 -197.65,-88.52 -197.65,-197.58"
         style="fill:#351f17;fill-opacity:1;fill-rule:evenodd;stroke:none"
         id="path4529"
         inkscape:connector-curvature="0" /><path
         d="m 3525.38,3683.08 c -6.83,-116.09 -13.71,-232.1 -20.59,-348.26 -3.25,-55.96 83.66,-55.69 87.04,0 6.88,116.16 13.71,232.17 20.52,348.26 3.3,55.97 -83.67,55.69 -86.97,0"
         style="fill:#351f17;fill-opacity:1;fill-rule:nonzero;stroke:none"
         id="path4531"
         inkscape:connector-curvature="0" /><path
         d="m 4162.9,2945.58 c 0,0 -225.2,880.87 983.24,1229.06 l -61.44,-409.57 h 368.71 c 0,0 -163.68,-962.79 -1290.51,-819.49"
         style="fill:url(#linearGradient4537);fill-opacity:1;fill-rule:evenodd;stroke:none"
         id="path4539"
         inkscape:connector-curvature="0" /><path
         d="m 4204.88,2957.18 c -149.77,609.18 453.66,1023.82 952.82,1175.55 -17.74,17.86 -35.59,35.65 -53.45,53.51 -20.46,-136.62 -40.93,-273.1 -61.46,-409.57 -4.08,-27.5 11.11,-55.13 41.91,-55.13 122.91,0 245.88,0 368.71,0 -13.92,18.42 -27.91,36.77 -41.9,55.13 -106.87,-600.19 -692.44,-848.6 -1248.61,-787.58 -55.68,6.06 -55.06,-80.93 0,-87.04 591.89,-64.84 1218.8,213.82 1332.42,851.41 4.92,27.5 -11.68,55.12 -41.91,55.12 -122.83,0 -245.8,0 -368.71,0 13.98,-18.41 28,-36.76 41.97,-55.12 20.47,136.55 40.92,273.09 61.39,409.58 4.7,30.86 -18.57,64.05 -53.43,53.5 C 4586.4,4049.9 3958.92,3593.51 4120.99,2933.98 c 13.37,-54.43 97.24,-31.29 83.89,23.2"
         style="fill:#351f17;fill-opacity:1;fill-rule:nonzero;stroke:none"
         id="path4541"
         inkscape:connector-curvature="0" /><path
         d="m 2053.11,2863.73 c 0,0 225.28,880.73 -983.32,1229.06 l 61.51,-409.71 H 762.59 c 0,0 163.828,-962.79 1290.52,-819.35"
         style="fill:url(#linearGradient4547);fill-opacity:1;fill-rule:evenodd;stroke:none"
         id="path4549"
         inkscape:connector-curvature="0" /><path
         d="m 2095.01,2852.2 c 162.14,659.46 -465.55,1115.86 -1013.69,1282.5 -34.81,10.54 -58.09,-22.64 -53.44,-53.44 20.45,-136.55 41.07,-273.1 61.52,-409.71 13.99,18.28 27.98,36.63 41.9,55.05 -122.83,0 -245.8,0 -368.71,0 -30.231,0 -46.836,-27.62 -41.914,-55.05 113.633,-637.66 740.614,-916.25 1332.434,-851.28 55.12,6.05 55.75,93.03 0,86.99 -556.19,-61.11 -1141.594,187.23 -1248.544,787.28 -13.988,-18.28 -27.992,-36.63 -41.976,-54.98 122.91,0 245.88,0 368.71,0 30.88,0 46.06,27.56 41.91,54.98 -20.47,136.62 -40.99,273.23 -61.45,409.79 -17.86,-17.73 -35.72,-35.59 -53.44,-53.44 499.07,-151.81 1102.65,-566.37 952.88,-1175.63 -13.36,-54.42 70.45,-77.49 83.81,-23.06"
         style="fill:#351f17;fill-opacity:1;fill-rule:nonzero;stroke:none"
         id="path4551"
         inkscape:connector-curvature="0" /><path
         d="m 4107.92,2481.37 c 289.96,176.2 628.24,43.1 847.97,-178.53 39.51,-39.86 100.97,21.59 61.52,61.53 -247.09,249.19 -628.81,389.39 -953.44,192.03 -47.81,-29.11 -4.16,-104.28 43.95,-75.03"
         style="fill:#351f17;fill-opacity:1;fill-rule:nonzero;stroke:none"
         id="path4553"
         inkscape:connector-curvature="0" /><path
         d="m 4090.97,2291.1 c 304.1,134.72 625.78,-43.02 809.02,-286.17 33.32,-44.08 108.78,-0.84 75.03,44.02 -214.95,285.18 -575.87,473.2 -928,317.25 -51.19,-22.64 -6.89,-97.6 43.95,-75.1"
         style="fill:#351f17;fill-opacity:1;fill-rule:nonzero;stroke:none"
         id="path4555"
         inkscape:connector-curvature="0" /><path
         d="m 3996.96,2076.93 c 328.5,81.57 614.25,-151.52 753.97,-428.2 25.31,-49.99 100.25,-5.98 75.02,43.95 -157.99,312.82 -485.65,559.05 -852.19,468.13 -54.28,-13.56 -31.22,-97.38 23.2,-83.88"
         style="fill:#351f17;fill-opacity:1;fill-rule:nonzero;stroke:none"
         id="path4557"
         inkscape:connector-curvature="0" /><path
         d="m 3710.51,1822.26 c 323.5,99.63 621.71,-113.21 777.8,-382.64 28.14,-48.38 103.28,-4.64 75.09,44.01 -175.27,302.42 -514.54,533.82 -875.95,422.44 -53.44,-16.45 -30.66,-100.34 23.06,-83.81"
         style="fill:#351f17;fill-opacity:1;fill-rule:nonzero;stroke:none"
         id="path4559"
         inkscape:connector-curvature="0" /><path
         d="m 2090.65,2556.4 c -324.77,197.36 -706.5,57.16 -953.58,-192.03 -39.52,-39.8 21.94,-101.39 61.47,-61.53 219.78,221.56 558.19,354.81 848.17,178.53 48.08,-29.25 91.76,45.92 43.94,75.03"
         style="fill:#351f17;fill-opacity:1;fill-rule:nonzero;stroke:none"
         id="path4561"
         inkscape:connector-curvature="0" /><path
         d="m 2107.59,2366.2 c -352.27,155.81 -713.11,-32.07 -928.13,-317.25 -33.75,-44.86 41.78,-88.1 75.1,-44.02 187.73,249.19 520.32,414.01 809.08,286.17 50.84,-22.5 95.15,52.46 43.95,75.1"
         style="fill:#351f17;fill-opacity:1;fill-rule:nonzero;stroke:none"
         id="path4563"
         inkscape:connector-curvature="0" /><path
         d="m 2180.65,2160.81 c -366.4,90.92 -694.06,-155.39 -852.18,-468.13 -25.26,-49.93 49.77,-93.94 75.08,-43.95 139.78,276.61 425.46,509.77 754.04,428.2 54.41,-13.5 77.48,70.32 23.06,83.88"
         style="fill:#351f17;fill-opacity:1;fill-rule:nonzero;stroke:none"
         id="path4565"
         inkscape:connector-curvature="0" /><path
         d="m 2467.38,1906.07 c -361.61,111.3 -700.93,-119.95 -876.24,-422.44 -28.12,-48.65 47.06,-92.39 75.1,-44.01 156.17,269.58 454.37,482.27 777.94,382.64 53.72,-16.53 76.49,67.36 23.2,83.81"
         style="fill:#351f17;fill-opacity:1;fill-rule:nonzero;stroke:none"
         id="path4567"
         inkscape:connector-curvature="0" /><path
         d="m 4312.11,2725.21 c 0,-543.66 -552.88,-1084.63 -1234.82,-1084.63 -681.91,0 -1234.7,540.97 -1234.7,1084.63 0,543.66 552.79,767.53 1234.7,767.53 681.94,0 1234.82,-223.87 1234.82,-767.53"
         style="fill:url(#linearGradient4573);fill-opacity:1;fill-rule:evenodd;stroke:none"
         id="path4575"
         inkscape:connector-curvature="0" /><path
         d="m 4268.58,2725.21 c -20.74,-617.06 -614.82,-1026 -1191.29,-1041.12 -576.09,-15.25 -1171.21,446.21 -1191.18,1041.12 -20.4,606.24 740.75,719.16 1191.18,724.08 482.54,5.35 1170.84,-125.43 1191.29,-724.08 1.9,-55.89 88.87,-56.04 86.98,0 -22.64,659.82 -740.52,805.08 -1278.27,811.06 -537.68,5.91 -1255.8,-159.54 -1278.16,-811.06 -22.77,-664.03 687.52,-1112.62 1278.16,-1128.16 624.85,-16.39 1256.68,486.91 1278.27,1128.16 1.89,56.11 -85.08,55.9 -86.98,0"
         style="fill:#351f17;fill-opacity:1;fill-rule:nonzero;stroke:none"
         id="path4577"
         inkscape:connector-curvature="0" /><path
         d="m 2650.48,3046.54 c 78.61,-119.53 190.06,-228.38 322.6,-284.83 268.59,-114.34 463,134.01 571.91,346.29 25.6,49.84 -49.49,93.79 -75.1,43.94 -106.93,-208.62 -275.19,-421.67 -522.56,-280.54 -87.88,50.19 -166.29,134.71 -221.75,219.09 -30.67,46.61 -106.04,3.09 -75.1,-43.95"
         style="fill:#351f17;fill-opacity:1;fill-rule:nonzero;stroke:none"
         id="path4579"
         inkscape:connector-curvature="0" /><path
         d="m 2426.88,2965.19 c 0,-128.04 -103.77,-231.82 -231.81,-231.82 -127.96,0 -231.96,103.78 -231.96,231.82 0,128.04 104,231.96 231.96,231.96 128.04,0 231.81,-103.92 231.81,-231.96"
         style="fill:#ed1c24;fill-opacity:1;fill-rule:evenodd;stroke:none"
         id="path4581"
         inkscape:connector-curvature="0" /><path
         d="m 4136.81,2965.19 c 0,-128.04 -103.77,-231.82 -231.96,-231.82 -128.04,0 -231.74,103.78 -231.74,231.82 0,128.04 103.7,231.96 231.74,231.96 128.19,0 231.96,-103.92 231.96,-231.96"
         style="fill:#ed1c24;fill-opacity:1;fill-rule:evenodd;stroke:none"
         id="path4583"
         inkscape:connector-curvature="0" /></g></g></svg>