<?xml version="1.0" encoding="UTF-8" standalone="no"?>
<svg
   xmlns:dc="http://purl.org/dc/elements/1.1/"
   xmlns:cc="http://creativecommons.org/ns#"
   xmlns:rdf="http://www.w3.org/1999/02/22-rdf-syntax-ns#"
   xmlns:svg="http://www.w3.org/2000/svg"
   xmlns="http://www.w3.org/2000/svg"
   xmlns:sodipodi="http://sodipodi.sourceforge.net/DTD/sodipodi-0.dtd"
   xmlns:inkscape="http://www.inkscape.org/namespaces/inkscape"
   id="svg2"
   height="406.32181"
   width="279.7514"
   version="1"
   sodipodi:docname="ISFJ-girl.svg"
   inkscape:version="1.0.2 (e86c870879, 2021-01-15)">
  <defs
     id="defs181" />
  <sodipodi:namedview
     pagecolor="#ffffff"
     bordercolor="#666666"
     borderopacity="1"
     objecttolerance="10"
     gridtolerance="10"
     guidetolerance="10"
     inkscape:pageopacity="0"
     inkscape:pageshadow="2"
     inkscape:window-width="1655"
     inkscape:window-height="1066"
     id="namedview179"
     showgrid="false"
     inkscape:zoom="1.3067132"
     inkscape:cx="-32.976625"
     inkscape:cy="151.43881"
     inkscape:window-x="0"
     inkscape:window-y="36"
     inkscape:window-maximized="0"
     inkscape:current-layer="svg2" />
  <metadata
     id="metadata521">
    <rdf:RDF>
      <cc:Work
         rdf:about="">
        <dc:format>image/svg+xml</dc:format>
        <dc:type
           rdf:resource="http://purl.org/dc/dcmitype/StillImage" />
        <dc:title>Inkscape Logo</dc:title>
      </cc:Work>
    </rdf:RDF>
  </metadata>
  <title
     id="title7387">Inkscape Logo</title>
  <style
     id="style26">.specularity{opacity:.5}.low-specularity{opacity:.25}.full-specularity{opacity:1}.black{fill:#000}.white{fill:#fff}.outline-big{stroke-width:16;stroke:none;opacity:.1;fill:none}.outline-small{stroke-width:8}.outline-small,.stroke-highlight{fill:none;stroke:none;opacity:.2}.base-shadow{fill:#000;opacity:75}</style>
  <g
     word-spacing="0"
     letter-spacing="0"
     font-family="Sans"
     font-weight="400"
     id="g16"
     transform="matrix(-1,0,0,1,659.74802,-129.80118)">
    <text
       id="text7291"
       font-size="40px"
       line-height="125%"
       y="5958.8462"
       x="1563.6021" />
    <text
       id="text3990"
       font-size="21.941px"
       line-height="125%"
       y="535.28699"
       x="112.047"
       fill="#c6ae8b" />
    <text
       id="text4030"
       font-size="21.941px"
       line-height="125%"
       y="567.06897"
       x="460.207"
       fill="#c6ae8b" />
  </g>
  <ellipse
     id="ellipse5578"
     style="isolation:auto;mix-blend-mode:normal"
     stroke-linecap="round"
     stroke-opacity="0"
     fill-opacity="0.104"
     rx="99.858002"
     ry="16.643"
     cy="389.6788"
     cx="-99.858002"
     overflow="visible"
     stroke-width="10"
     transform="scale(-1,1)" />
  <style
     id="style26-0">.specularity{opacity:.5}.low-specularity{opacity:.25}.full-specularity{opacity:1}.black{fill:#000}.white{fill:#fff}.outline-big{stroke-width:16;stroke:none;opacity:.1;fill:none}.outline-small{stroke-width:8}.outline-small,.stroke-highlight{fill:none;stroke:none;opacity:.2}.base-shadow{fill:#000;opacity:75}</style>
  <style
     id="style26-1">.specularity{opacity:.5}.low-specularity{opacity:.25}.full-specularity{opacity:1}.black{fill:#000}.white{fill:#fff}.outline-big{stroke-width:16;stroke:none;opacity:.1;fill:none}.outline-small{stroke-width:8}.outline-small,.stroke-highlight{fill:none;stroke:none;opacity:.2}.base-shadow{fill:#000;opacity:75}</style>
  <style
     id="style26-8">.specularity{opacity:.5}.low-specularity{opacity:.25}.full-specularity{opacity:1}.black{fill:#000}.white{fill:#fff}.outline-big{stroke-width:16;stroke:none;opacity:.1;fill:none}.outline-small{stroke-width:8}.outline-small,.stroke-highlight{fill:none;stroke:none;opacity:.2}.base-shadow{fill:#000;opacity:75}</style>
  <style
     id="style26-2">.specularity{opacity:.5}.low-specularity{opacity:.25}.full-specularity{opacity:1}.black{fill:#000}.white{fill:#fff}.outline-big{stroke-width:16;stroke:none;opacity:.1;fill:none}.outline-small{stroke-width:8}.outline-small,.stroke-highlight{fill:none;stroke:none;opacity:.2}.base-shadow{fill:#000;opacity:75}</style>
  <g
     word-spacing="0"
     letter-spacing="0"
     font-family="Sans"
     font-weight="400"
     id="g38"
     transform="matrix(-1,0,0,1,659.74802,-129.80118)">
    <text
       id="text7291-3"
       font-size="40px"
       line-height="125%"
       y="5955.3608"
       x="2306.093" />
    <text
       id="text3990-5"
       font-size="21.941px"
       line-height="125%"
       y="531.802"
       x="854.53802"
       fill="#c6ae8b" />
    <text
       id="text4030-22"
       font-size="21.941px"
       line-height="125%"
       y="563.58398"
       x="1202.698"
       fill="#c6ae8b" />
    <text
       id="text7291-7"
       font-size="40px"
       line-height="125%"
       y="5960.627"
       x="3129.5339" />
    <text
       id="text3990-2"
       font-size="21.941px"
       line-height="125%"
       y="537.06799"
       x="1677.979"
       fill="#c6ae8b" />
    <text
       id="text4030-2"
       font-size="21.941px"
       line-height="125%"
       y="568.84998"
       x="2026.139"
       fill="#c6ae8b" />
    <text
       id="text7291-9"
       font-size="40px"
       line-height="125%"
       y="5946.5991"
       x="3173.075" />
    <text
       id="text3990-0"
       font-size="21.941px"
       line-height="125%"
       y="523.039"
       x="1721.52"
       fill="#c6ae8b" />
    <text
       id="text4030-3"
       font-size="21.941px"
       line-height="125%"
       y="554.82202"
       x="2069.6799"
       fill="#c6ae8b" />
    <text
       id="text7291-6"
       font-size="40px"
       line-height="125%"
       y="5948.5991"
       x="3231.075" />
    <text
       id="text3990-9"
       font-size="21.941px"
       line-height="125%"
       y="525.039"
       x="1779.52"
       fill="#c6ae8b" />
    <text
       id="text4030-6"
       font-size="21.941px"
       line-height="125%"
       y="556.82202"
       x="2127.6799"
       fill="#c6ae8b" />
  </g>
  <style
     id="style26-28">.specularity{opacity:.5}.low-specularity{opacity:.25}.full-specularity{opacity:1}.black{fill:#000}.white{fill:#fff}.outline-big{stroke-width:16;stroke:none;opacity:.1;fill:none}.outline-small{stroke-width:8}.outline-small,.stroke-highlight{fill:none;stroke:none;opacity:.2}.base-shadow{fill:#000;opacity:75}</style>
  <style
     id="style26-1-5">.specularity{opacity:.5}.low-specularity{opacity:.25}.full-specularity{opacity:1}.black{fill:#000}.white{fill:#fff}.outline-big{stroke-width:16;stroke:none;opacity:.1;fill:none}.outline-small{stroke-width:8}.outline-small,.stroke-highlight{fill:none;stroke:none;opacity:.2}.base-shadow{fill:#000;opacity:75}</style>
  <g
     word-spacing="0"
     letter-spacing="0"
     font-family="Sans"
     font-weight="400"
     id="g48"
     transform="matrix(-1,0,0,1,659.74802,-129.80118)">
    <text
       id="text7291-73"
       font-size="40px"
       line-height="125%"
       y="5961.0659"
       x="2296.708" />
    <text
       id="text3990-1"
       font-size="21.941px"
       line-height="125%"
       y="537.50702"
       x="845.15302"
       fill="#c6ae8b" />
    <text
       id="text4030-31"
       font-size="21.941px"
       line-height="125%"
       y="569.289"
       x="1193.313"
       fill="#c6ae8b" />
    <text
       id="text7291-7-0"
       font-size="40px"
       line-height="125%"
       y="5966.333"
       x="3120.1489" />
    <text
       id="text3990-2-6"
       font-size="21.941px"
       line-height="125%"
       y="542.77301"
       x="1668.594"
       fill="#c6ae8b" />
    <text
       id="text4030-2-0"
       font-size="21.941px"
       line-height="125%"
       y="574.55603"
       x="2016.754"
       fill="#c6ae8b" />
  </g>
  <style
     id="style26-3">.specularity{opacity:.5}.low-specularity{opacity:.25}.full-specularity{opacity:1}.black{fill:#000}.white{fill:#fff}.outline-big{stroke-width:16;stroke:none;opacity:.1;fill:none}.outline-small{stroke-width:8}.outline-small,.stroke-highlight{fill:none;stroke:none;opacity:.2}.base-shadow{fill:#000;opacity:75}</style>
  <style
     id="style26-0-6">.specularity{opacity:.5}.low-specularity{opacity:.25}.full-specularity{opacity:1}.black{fill:#000}.white{fill:#fff}.outline-big{stroke-width:16;stroke:none;opacity:.1;fill:none}.outline-small{stroke-width:8}.outline-small,.stroke-highlight{fill:none;stroke:none;opacity:.2}.base-shadow{fill:#000;opacity:75}</style>
  <style
     id="style26-1-56">.specularity{opacity:.5}.low-specularity{opacity:.25}.full-specularity{opacity:1}.black{fill:#000}.white{fill:#fff}.outline-big{stroke-width:16;stroke:none;opacity:.1;fill:none}.outline-small{stroke-width:8}.outline-small,.stroke-highlight{fill:none;stroke:none;opacity:.2}.base-shadow{fill:#000;opacity:75}</style>
  <style
     id="style26-8-9">.specularity{opacity:.5}.low-specularity{opacity:.25}.full-specularity{opacity:1}.black{fill:#000}.white{fill:#fff}.outline-big{stroke-width:16;stroke:none;opacity:.1;fill:none}.outline-small{stroke-width:8}.outline-small,.stroke-highlight{fill:none;stroke:none;opacity:.2}.base-shadow{fill:#000;opacity:75}</style>
  <style
     id="style26-2-3">.specularity{opacity:.5}.low-specularity{opacity:.25}.full-specularity{opacity:1}.black{fill:#000}.white{fill:#fff}.outline-big{stroke-width:16;stroke:none;opacity:.1;fill:none}.outline-small{stroke-width:8}.outline-small,.stroke-highlight{fill:none;stroke:none;opacity:.2}.base-shadow{fill:#000;opacity:75}</style>
  <g
     word-spacing="0"
     letter-spacing="0"
     font-family="Sans"
     font-weight="400"
     id="g70"
     transform="matrix(-1,0,0,1,659.74802,-129.80118)">
    <text
       id="text7291-1"
       font-size="40px"
       line-height="125%"
       y="5974.2119"
       x="2414.4221" />
    <text
       id="text3990-6"
       font-size="21.941px"
       line-height="125%"
       y="550.65302"
       x="962.867"
       fill="#c6ae8b" />
    <text
       id="text4030-20"
       font-size="21.941px"
       line-height="125%"
       y="582.435"
       x="1311.027"
       fill="#c6ae8b" />
    <text
       id="text7291-3-7"
       font-size="40px"
       line-height="125%"
       y="5970.7271"
       x="3156.9131" />
    <text
       id="text3990-5-5"
       font-size="21.941px"
       line-height="125%"
       y="547.16699"
       x="1705.359"
       fill="#c6ae8b" />
    <text
       id="text4030-22-5"
       font-size="21.941px"
       line-height="125%"
       y="578.95001"
       x="2053.5181"
       fill="#c6ae8b" />
    <text
       id="text7291-7-7"
       font-size="40px"
       line-height="125%"
       y="5975.9932"
       x="3980.354" />
    <text
       id="text3990-2-4"
       font-size="21.941px"
       line-height="125%"
       y="552.43402"
       x="2528.7991"
       fill="#c6ae8b" />
    <text
       id="text4030-2-07"
       font-size="21.941px"
       line-height="125%"
       y="584.216"
       x="2876.959"
       fill="#c6ae8b" />
    <text
       id="text7291-9-6"
       font-size="40px"
       line-height="125%"
       y="5961.9639"
       x="4023.895" />
    <text
       id="text3990-0-8"
       font-size="21.941px"
       line-height="125%"
       y="538.40503"
       x="2572.3411"
       fill="#c6ae8b" />
    <text
       id="text4030-3-3"
       font-size="21.941px"
       line-height="125%"
       y="570.18799"
       x="2920.5"
       fill="#c6ae8b" />
    <text
       id="text7291-6-4"
       font-size="40px"
       line-height="125%"
       y="5963.9639"
       x="4081.895" />
    <text
       id="text3990-9-2"
       font-size="21.941px"
       line-height="125%"
       y="540.40503"
       x="2630.3411"
       fill="#c6ae8b" />
    <text
       id="text4030-6-6"
       font-size="21.941px"
       line-height="125%"
       y="572.18799"
       x="2978.5"
       fill="#c6ae8b" />
  </g>
  <style
     id="style26-81">.specularity{opacity:.5}.low-specularity{opacity:.25}.full-specularity{opacity:1}.black{fill:#000}.white{fill:#fff}.outline-big{stroke-width:16;stroke:none;opacity:.1;fill:none}.outline-small{stroke-width:8}.outline-small,.stroke-highlight{fill:none;stroke:none;opacity:.2}.base-shadow{fill:#000;opacity:75}</style>
  <style
     id="style26-1-561">.specularity{opacity:.5}.low-specularity{opacity:.25}.full-specularity{opacity:1}.black{fill:#000}.white{fill:#fff}.outline-big{stroke-width:16;stroke:none;opacity:.1;fill:none}.outline-small{stroke-width:8}.outline-small,.stroke-highlight{fill:none;stroke:none;opacity:.2}.base-shadow{fill:#000;opacity:75}</style>
  <g
     word-spacing="0"
     letter-spacing="0"
     font-family="Sans"
     font-weight="400"
     id="g80"
     transform="matrix(-1,0,0,1,659.74802,-129.80118)">
    <text
       id="text7291-93"
       font-size="40px"
       line-height="125%"
       y="5974.084"
       x="3126.583" />
    <text
       id="text3990-8"
       font-size="21.941px"
       line-height="125%"
       y="550.52502"
       x="1675.028"
       fill="#c6ae8b" />
    <text
       id="text4030-5"
       font-size="21.941px"
       line-height="125%"
       y="582.30701"
       x="2023.188"
       fill="#c6ae8b" />
    <text
       id="text7291-7-1"
       font-size="40px"
       line-height="125%"
       y="5979.3501"
       x="3950.0239" />
    <text
       id="text3990-2-9"
       font-size="21.941px"
       line-height="125%"
       y="555.79102"
       x="2498.469"
       fill="#c6ae8b" />
    <text
       id="text4030-2-4"
       font-size="21.941px"
       line-height="125%"
       y="587.57397"
       x="2846.6289"
       fill="#c6ae8b" />
  </g>
  <g
     id="g6320"
     stroke-opacity="0"
     transform="matrix(-1,0,0,1,659.74802,-129.80118)">
    <g
       fill-rule="evenodd"
       id="g145">
      <path
         id="path6118"
         stroke="#000000"
         fill="#3d4c4f"
         d="m 403.77,267.07 c -3.987,34.07 -0.263,62.318 10.464,95.267 l -2.536,-47.517 c 5.512,25.004 15.98,44.02 27.781,66.27 l -8.762,-48.539 c 5.994,26.917 13.1,40.575 27.49,62.61 l 3.997,-28.851 c 4.082,7.28 4.83,31.238 7.133,47.417 2.821,-19.69 1.544,-33.947 -1.051,-61.269 l 11.257,33.25 c 7.914,-13.844 7.691,-30.082 9.712,-45.578 1.311,17.141 3.015,34.113 1.792,51.251 7.88,-12.251 10.544,-26.048 14.14,-39.937 l -4.258,30.368 c 5.807,-10.401 6.325,-21.258 7.559,-32.83 l 11.955,11.78 -11.667,-23.689 3.424,39.8 16.728,-47.578 12.324,-24.066 1.465,-77.404 -40.305,-43.487 -97.935,61.518 z" />
      <path
         id="path5237-9-7"
         stroke-width="2.905"
         fill="#fff9e9"
         d="m 609.54,369.62 -8.3,61.415 c 6.774,19.756 -1.006,53.956 -2.605,81.911 -1.755,9.086 -15.456,9.512 -16.025,-3.294 1.121,-16.337 3.792,-49.174 -3.259,-76.364 l -2.64,-60.496 c 1.428,-19.025 34.335,-23.242 32.829,-3.172 z" />
      <path
         id="path6240"
         stroke="#000000"
         fill="#f8e0d9"
         d="m 583.9,486.41 a 370.08,370.08 0 0 1 -0.207,5.47 l 16.813,0.735 c 0.195,-1.73 0.39,-3.461 0.59,-5.197 l -9.235,-0.928 -7.96,-0.08 z" />
      <path
         id="path6166"
         stroke="#000000"
         fill="#ffffff"
         d="m 582.58,510.14 -1.414,-3.624 1.59,-5.922 -0.971,-13.612 c 7.559,-1.18 13.776,1.281 20.86,3.535 0.105,4.323 -0.754,8.5 -1.503,12.728 l 1.237,3.27 -3.27,5.127 -7.867,4.42 -8.043,-1.68 z" />
      <path
         id="path5183-3-4"
         stroke-width="2.905"
         fill="#fff9e9"
         d="m 541.4,361.39 7.627,65.804 c -11.257,18.967 0.497,47.444 -1.711,77.768 1.532,9.126 15.219,9.887 16.1,-2.901 -1.856,-33.115 0.61,-54.654 7.73,-70.211 l 4.956,-61.391 c -0.961,-19.054 -35.717,-29.17 -34.702,-9.069 z" />
      <path
         id="path6225"
         stroke="#000000"
         fill="#f8e0d9"
         d="m 571.6,426.34 -22.608,0.514 0.041,0.347 c -1.65,2.782 -2.794,5.775 -3.572,8.942 10.123,-1.2 14.709,-0.14 22.818,3.142 0.859,-2.616 1.81,-5.098 2.875,-7.427 z" />
      <path
         id="path5179-7-0"
         stroke-width="2.478"
         fill="#f8e0d9"
         d="m 520.62,329.01 12.953,41.749 3.525,9.29 c 4.45,11.493 -12.186,16.862 -13.787,9.812 l -18.364,-46.174 c -3.655,-7.861 10.139,-26.461 15.673,-14.677 z" />
      <path
         id="path4304-3-8"
         stroke-width="3.069"
         fill="#fff9e9"
         d="m 525.43,305.67 8.03,-3.467 c 17.792,18.646 28.913,37.152 43.946,40.794 10.216,1.581 28.055,10.312 31.918,22.473 l -9.29,31.335 -38.2,16.025 c -4.344,-1.906 -11.435,-8.514 -15.303,-15.713 -4.006,-7.457 -1.117,-13.893 -6.617,-20.271 l -9.53,-13.511 -18.882,-4.414 -5.54,-21.448 2.197,-8.771 z" />
      <path
         id="path6230"
         stroke="#000000"
         fill="#f8e0d9"
         d="m 601.76,427.21 -22.578,2.128 0.172,3.95 c 0.46,1.771 0.875,3.57 1.255,5.384 7.492,-0.562 14.371,-2.797 21.338,-5.313 a 38.472,38.472 0 0 0 -0.705,-2.324 l 0.518,-3.824 z" />
      <path
         id="path6139"
         stroke="#000000"
         fill="#506567"
         d="m 612.36,373.49 4.998,51.29 c -24.731,13.51 -58.642,8.755 -78.35,4.523 l 4.586,-44.853 v -5.833 l 13.612,8.308 37.476,-2.475 z" />
      <path
         id="path4363-7-6"
         stroke-width="3.391"
         fill="#f8ded8"
         d="m 514.11,320.69 c 0.777,1.285 1.248,2.752 3.208,3.326 8.908,-1.91 12.46,-8.129 17.698,-13.148 l -10.71,-1.824 -3.136,-1.704 -7.124,9.667 z" />
      <g
         stroke="#000000"
         id="g143">
        <path
           id="path6122-1"
           fill="#cccccc"
           d="m 509.05,363.66 11.827,-1.887 13.798,-4.988 -10.625,-21.375 -7,-5.625 -7.75,0.25 -3,1.625 c -5.561,10.197 0.266,21.485 2.75,32 z" />
        <path
           id="path6110"
           fill="#3d757a"
           d="m 512.12,322.6 -5.12,6.94 -1.75,8.687 5.5,21.563 c 6.103,4.264 12.872,4.204 19.625,4.25 l 11.721,16.695 -1.452,13.382 c 11.092,6.623 19.78,6.849 33.305,6.402 14.358,-8.103 28.341,-16.79 42.244,-25.638 -8.316,-16.92 -8.95,-19.862 -26.668,-29.54 -12.82,-2.499 -18.626,-5.933 -29.132,-14.015 l -11.756,-21.832 -3.182,-0.442 -4.685,0.707 -8.33,2.32 c -2.254,7.738 -7.273,10.77 -13.413,15.446 -2.322,-1.612 -4.649,-3.216 -6.902,-4.923 z" />
        <path
           id="path6245"
           fill="#3f6b6f"
           d="m 554.88,321.08 -21.252,4.897 3.125,17.375 c 6.149,1.744 6.713,3.429 8.5,9.125 H 532.69 c -6.831,4.52 -14.08,6.65 -21.99,7.103 l 0.053,0.21 c 6.103,4.264 12.872,4.203 19.625,4.25 l 11.72,16.694 c 3.616,-0.29 6.117,-2.493 8.28,-4.132 -1.401,2.68 -5.535,5.642 -8.73,8.289 l -0.952,8.779 11.557,-6.443 -1.25,5.375 15.875,-13.375 7.75,-15.375 1.625,12.125 c 4.625,-13.05 3.958,-20.404 2.44,-33.563 -6.333,-2.358 -11.266,-5.68 -18.297,-11.09 z" />
        <path
           id="path6275"
           fill="#ffffff"
           d="m 614.84,372.11 -36.59,22.942 -11.808,3.361 c -9.52,0.596 -17.016,-2.581 -25.604,-6.043 l -0.19,1.744 c 11.092,6.624 19.78,6.85 33.305,6.403 14.358,-8.104 28.341,-16.79 42.244,-25.637 a 1237,1237 0 0 1 -1.357,-2.77 z" />
      </g>
    </g>
    <g
       fill-rule="evenodd"
       fill="#fff9e9"
       id="g151">
      <path
         id="path5175-6-4"
         stroke-width="3.408"
         d="m 521.77,386.36 15.856,36.132 2.96,8.381 c 4.226,8.97 14.966,0.463 11.533,-6.809 l -14.78,-43.892 c -2.434,-10.456 -19.743,-3.37 -15.569,6.188 z" />
      <path
         id="path5181-4-7"
         stroke-width="2.476"
         d="m 574.19,375.34 c -3.584,-8.528 -19.571,-4.79 -14.368,8.28 l 17.279,41.03 c 3.068,10.119 18.037,6.568 11.875,-5.133 z" />
      <path
         id="path5201-5-6"
         stroke-width="3.42"
         d="m 535.2,320.17 c -2.55,-7.342 13.279,-18.835 20.764,-0.903 l 17.002,55.392 c 6.743,12.956 -9.427,21.825 -14.644,4.317 z" />
      <path
         id="path4284-3-6-8"
         stroke-width="3.125"
         d="m 472.8,331.8 c -22.685,-3.095 -44.444,-10.792 -50.147,-21.846 l -2.058,-10.844 c -8.921,-14.232 -14.908,-29.38 -20.297,-44.97 -12.125,-42.631 1.882,-78.447 23.08,-94.6 44.496,-40.014 126.25,-39.748 156.16,17.09 13.13,28.655 14.185,58.435 -6.401,101.73 -28.118,30.586 -59.305,47.809 -100.34,53.436 z" />
    </g>
    <path
       id="path6218"
       fill-rule="evenodd"
       stroke="#000000"
       fill="#f8ded8"
       d="m 412.25,282.66 2.875,-4.313 2.938,-11.687 c 7.565,-12.782 14.772,-25.505 20,-39.372 -1.678,18.18 1.33,25.249 7.071,41.896 l 3.359,-3.005 4.066,18.915 19.799,-23.688 9.546,-12.375 12.374,-37.83 c 17.518,18.446 29.753,22.954 52.326,32.88 3.671,16.333 0.59,33.595 -0.177,50.205 l 16.44,-0.707 5.657,-73.54 -45.255,-36.062 -113.14,23.335 z" />
    <path
       id="path4305-64-5"
       stroke-width="10"
       fill="#506567"
       stroke-linecap="round"
       d="m 504.92,266.63 c 2.389,10.794 9.002,18.574 16.935,16.982 7.934,-1.592 13.715,-11.858 11.795,-22.746 -2.573,-14.599 -9.04,-15.595 -18.125,-13.916 -6.162,1.138 -13.409,7.007 -10.605,19.68 z" />
    <path
       id="path4305-6-9-9"
       style="isolation:auto;mix-blend-mode:normal"
       d="m 430.62,286.12 c 2.45,8.4 5.483,15.055 8.424,14.462 2.941,-0.594 3.938,-8.03 2.227,-16.611 -1.827,-9.161 -5.006,-13.548 -8.247,-13.048 -3.172,0.49 -6.788,0.154 -2.403,15.197 z"
       stroke-linecap="round"
       overflow="visible"
       stroke-width="10"
       fill="#506567" />
    <g
       fill-rule="evenodd"
       id="g175">
      <path
         id="path4356-75"
         stroke-width="3.125"
         fill="#e59886"
         d="m 493.56,306.94 -14.279,5.287 c 4.374,13.534 22.699,7.542 14.279,-5.287 z" />
      <path
         id="path4359-5-3"
         stroke-width="2.295"
         fill="#506567"
         d="m 418.67,288.38 c 2.11,-13.261 10.676,-18.613 23.195,-13.471 -10.773,-10.831 -24.977,-7.34 -23.195,13.47 z" />
      <path
         id="path4303-2-3"
         stroke-width="3.125"
         fill="#506567"
         d="m 547.54,256.3 c -18.12,-10.633 -41.68,-9.082 -56.668,-0.384 9.032,-20.1 45.108,-19.679 56.668,0.384 z" />
      <g
         stroke="#000000"
         id="g173">
        <path
           id="path6168"
           fill="#3d757a"
           d="m 425.19,306.12 31.377,-6.445 3.284,-10.63 c 6.527,-2.504 13.054,-3.239 19.58,-3.951 l 8.206,7.846 54.822,-6.04 3.264,-18.6 8.485,-0.177 0.177,3.182 -4.95,-0.177 -4.148,20.367 -58.534,5.864 -8.382,-9.348 c -4.344,-0.326 -10.077,-0.1 -16.44,3.27 l -3.618,11.15 -33.78,6.757 -4.075,-8.702 -2.721,0.34 -0.31,-1.678 3.782,-0.53 z" />
        <path
           id="path6280"
           fill="#3f6b6f"
           d="m 537.63,311.13 -1.906,0.033 -3.288,0.916 c -2.253,7.738 -7.271,10.77 -13.412,15.445 -2.322,-1.612 -4.649,-3.214 -6.902,-4.921 l -1.965,2.658 1.871,6.56 7.469,-2.343 7.094,3.656 1.281,-1.75 3.658,-7.438 z" />
        <path
           id="path6270"
           fill="#ffffff"
           d="m 535.05,311.35 -3.232,0.993 c -2.254,7.738 -6.653,10.411 -12.794,15.087 -2.322,-1.613 -4.582,-3.387 -6.836,-5.094 l -1.831,1.068 2.164,9.083 5.54,-5.005 0.561,2.12 0.876,-1.736 8.371,5.048 z" />
        <path
           id="path6114"
           fill="#506567"
           d="m 492.5,205.68 c -1.94,28.736 -7.85,39.78 -20.503,64.297 l 3.44,-16.411 -19.94,37.411 -7.325,-29.896 -1.425,15.146 c -7.496,-23.873 -7.044,-39.747 -6.214,-63.942 -6.616,21.057 -11.792,39.589 -22.621,58.556 l 2.284,24.227 -7.449,-20.091 15,60 c -10.108,-21.814 -19.551,-38.884 -23.533,-62.243 l -6.092,36.668 c -9.044,-24.327 -16.876,-50.43 -17.625,-74.925 2.37,-46.866 17.327,-69.888 42.809,-83.658 55.628,-28.096 113.39,-27.863 148.56,3.961 15.157,14.504 22.709,34.404 26.817,56.052 5.22,51.509 9.095,95.624 15.496,147.72 l -10.14,-49.839 c -1.872,15.997 1.533,31.593 1.732,47.57 -6.295,-18.917 -10.062,-38.323 -13.764,-57.85 0.849,24.434 -4.431,36.823 7.397,57.397 l -9.399,-2.51 -9.213,-35.503 c 0.002,13.154 2.427,25.886 4.781,38.752 -9.174,-13.554 -11.802,-21.21 -5.684,-1.244 -13.426,-1.086 -10.397,-1.596 -16.862,-13.423 l -8.435,-25.824 c -7.866,-9.393 -14.24,-2.558 -19.262,6.106 l -0.617,25.653 c -2.046,-11.648 -3.313,-19.935 -2.54,-29.923 0.027,-11.388 9.563,-18.308 16.876,-26.943 1.157,-14.477 1.67,-28.992 2.344,-43.497 C 524.831,236.11 512.605,224.875 492.5,205.68 Z" />
        <path
           id="path6220"
           fill="#f8e0d9"
           d="m 561.06,335.85 -16.877,7.146 1.884,4.793 c 6.478,-0.677 11.006,-3.563 16.458,-7.166 z" />
        <path
           id="path6122"
           fill="#ffffff"
           d="m 540.75,343.73 c 14.53,1.364 13.915,0.635 25.625,-6.875 -5.24,-9.37 -9.464,-28.834 -23.362,-26.91 -13.933,4.295 -4.727,23.354 -2.263,33.785 z" />
        <path
           id="path6265"
           fill="#cccccc"
           d="m 602.36,506.53 -7.054,1.26 c -4.712,-0.401 -9.421,-0.827 -14.131,-1.25 l 1.402,3.592 0.049,0.334 12.812,-0.246 3.922,1.015 z" />
        <path
           id="path6141"
           fill="#506567"
           d="m 595.62,508.23 -2.553,1.734 c -3.051,-0.796 -6.074,-0.621 -9.185,-0.527 l 0.113,-0.707 -2.125,1 c -4.344,5.515 -5.461,9.667 -3.875,11.625 9.6,3.698 14.789,0.634 20.5,-2 1.147,-2.607 0.98,-5.774 1.375,-8.75 z m -4.064,4.253 c -0.877,3.24 -3.94,2.501 -6.874,2.872 -1.148,-1.309 -1.545,-1.855 -1.199,-3.45 2.819,-0.453 5.503,-0.56 8.073,0.578 z" />
        <path
           id="path6235"
           fill="#f8e0d9"
           d="m 562.84,485.11 -9.436,0.52 -6.2,0.78 c 0.053,0.787 0.113,1.57 0.157,2.362 l 15.526,-0.923 c -0.017,-0.917 -0.039,-1.843 -0.047,-2.739 z" />
        <path
           id="path6164"
           fill="#ffffff"
           d="m 547.13,503.86 -1.502,-4.331 1.414,-3.8 -1.768,-7.602 c 5.935,-2.48 11.687,-1.722 17.943,-1.414 l 0.619,3.889 -0.636,6.92 0.99,4.04 -1.415,1.856 -3.712,5.657 -7.602,-0.796 z" />
        <path
           id="path6250"
           fill="#cccccc"
           d="m 545.67,499.63 1.469,4.23 0.297,0.303 6.685,-0.215 c 1.395,-2.319 4.299,-2.565 6.717,-3.402 -5.187,0.95 -10.07,-0.101 -15.168,-0.916 z" />
        <path
           id="path6143"
           fill="#506567"
           d="m 561.81,501.38 -1.68,1.502 0.02,0.363 c -2.997,-0.386 -5.834,0.037 -8.776,0.506 l -0.082,-0.25 -3.182,-1.326 -1.15,0.882 c -0.173,2.447 -0.351,4.893 -0.53,7.338 6.05,6.145 7.106,5.546 15.292,5.215 1.972,-1.414 2.023,-2.83 2.562,-4.244 -0.421,-2.858 -0.425,-5.699 -0.353,-8.572 z m -1.532,4.318 0.03,0.543 c -0.012,3.565 -4.236,2.934 -7.514,1.856 l -0.557,-1.702 c 2.691,-0.92 5.262,-0.811 8.041,-0.697 z" />
        <path
           id="path6255"
           fill="#cccccc"
           d="m 546.49,493.33 0.555,2.38 7.428,-0.782 z" />
        <path
           id="path6260"
           fill="#cccccc"
           d="m 582.65,499.16 0.1,1.41 8.797,0.463 3.492,0.662 c -4.125,-2.347 -7.822,-2.49 -12.389,-2.535 z" />
      </g>
    </g>
  </g>
</svg>
