<?xml version="1.0" encoding="UTF-8" standalone="no"?>
<svg xmlns:dc="http://purl.org/dc/elements/1.1/" xmlns:cc="http://creativecommons.org/ns#" xmlns:rdf="http://www.w3.org/1999/02/22-rdf-syntax-ns#" xmlns:svg="http://www.w3.org/2000/svg" xmlns="http://www.w3.org/2000/svg" xmlns:xlink="http://www.w3.org/1999/xlink" xmlns:sodipodi="http://sodipodi.sourceforge.net/DTD/sodipodi-0.dtd" xmlns:inkscape="http://www.inkscape.org/namespaces/inkscape" version="1.0" width="694.03699" height="562.47601" id="svg2" sodipodi:version="0.32" inkscape:version="0.91 r13725" sodipodi:docname="ISFP.svg" inkscape:output_extension="org.inkscape.output.svg.inkscape" inkscape:export-filename="./ISFP.png" inkscape:export-xdpi="90" inkscape:export-ydpi="90">
  <title id="title7387">Inkscape Logo</title>
  <sodipodi:namedview bordercohor="#666666" inkscape:window-height="712" inkscape:window-width="1366" inkscape:pageshadow="2" inkscape:pageopacity="0.0" guidetolerance="10.0" gridtolerance="10.0" objecttolerance="10.0" borderopacity="1.0" bordercolor="#666666" pagecolor="#ffffff" id="base" inkscape:zoom="0.8261719" inkscape:cx="359.9209" inkscape:cy="294.62816" inkscape:window-x="0" inkscape:window-y="28" inkscape:current-layer="svg2" showgrid="false" inkscape:window-maximized="1" showguides="true" fit-margin-top="0" fit-margin-left="0" fit-margin-right="0" fit-margin-bottom="0"/>
  <defs id="defs4">
    <linearGradient id="WhiteTransparent" gradientUnits="userSpaceOnUse">
      <stop style="stop-color:white;stop-opacity:1" offset="0" id="stop7"/>
      <stop style="stop-color:white;stop-opacity:0" offset="1" id="stop9"/>
    </linearGradient>
    <linearGradient id="BlackTransparent" gradientUnits="userSpaceOnUse">
      <stop style="stop-color:black;stop-opacity:1" offset="0" id="stop12"/>
      <stop style="stop-color:black;stop-opacity:0" offset="1" id="stop14"/>
    </linearGradient>
    <linearGradient id="liquidShade" xlink:href="#BlackTransparent" x1="0" y1="128" x2="0" y2="64" gradientUnits="userSpaceOnUse"/>
    <linearGradient id="liquidSpecular" xlink:href="#WhiteTransparent" x1="0" y1="128" x2="0" y2="76" gradientUnits="userSpaceOnUse"/>
    <linearGradient id="sideSpecular" xlink:href="#WhiteTransparent" x1="80" y1="20" x2="60" y2="40" gradientUnits="userSpaceOnUse"/>
    <linearGradient id="IcecapTip" xlink:href="#WhiteTransparent" x1="60" y1="20" x2="90" y2="50" gradientUnits="userSpaceOnUse"/>
    <linearGradient id="shinySpecular" xlink:href="#WhiteTransparent" x1="33" y1="35" x2="58" y2="60" gradientUnits="userSpaceOnUse"/>
    <clipPath clipPathUnits="userSpaceOnUse" id="clipoutline1">
      <path id="outline1" d="M 54.1,12.5 12.9,54.7 C -2.7,70.3 23,69 32.3,74.9 36.6,77.7 18.5,81.3 22.2,85 c 3.6,3.7 21.7,7.1 25.3,10.7 3.6,3.7 -7.3,7.6 -3.7,11.3 3.5,3.7 11.9,0.2 13.4,8.6 1.1,6.2 15.4,3.1 21.8,-2.2 4,-3.4 -6.9,-3.4 -3.3,-7.1 9,-9.1 17,-4.1 20.3,-12.5 1.8,-4.5 -13.6,-7.7 -9.5,-10.6 9.8,-6.9 45.8,-10.4 29.2,-27 L 73,12.5 c -5.3,-5 -14,-5 -18.9,0 z m -9.9,64.7 c 0.9,0 30.8,4 19.3,7.1 -4.4,1.2 -24.6,-7.1 -19.3,-7.1 z m 57.2,16.6 c 0,2.1 16.3,3.3 15.4,-0.5 -1.3,-6.4 -13.6,-5.9 -15.4,0.5 z m -69.5,11.1 c 3.7,3.2 9.3,-0.7 11.1,-5.2 -3.6,-4.7 -16.9,0.3 -11.1,5.2 z m 67.5,-6.7 c -4.6,4.2 0.8,8.6 5.3,5.7 1.2,-0.8 -0.1,-4.7 -5.3,-5.7 z" inkscape:connector-curvature="0"/>
    </clipPath>
    <filter id="ShadowBlur" filterUnits="userSpaceOnUse" x="0" y="0">
      <feGaussianBlur in="SourceAlpha" stdDeviation="3" result="blur" id="feGaussianBlur24"/>
    </filter>
    <linearGradient gradientUnits="userSpaceOnUse" id="linearGradient5785">
      <stop id="stop5787" offset="0" style="stop-color:#c0cdf9;stop-opacity:1"/>
      <stop id="stop5789" offset="1" style="stop-color:#07092d;stop-opacity:0.28804347"/>
    </linearGradient>
    <clipPath clipPathUnits="userSpaceOnUse" id="clipPath9086">
      <use id="use9088" xlink:href="#outline1" class="low-specularity" style="fill:#ffffff;fill-opacity:1" x="0" y="0" width="400" height="300" transform="translate(1.009546e-6,0)"/>
    </clipPath>
    <linearGradient gradientUnits="userSpaceOnUse" y2="60" x2="58" y1="35" x1="33" xlink:href="#WhiteTransparent-4" id="shinySpecular-4" gradientTransform="matrix(1.009184,0,0,1.009184,-0.3890738,-0.3831933)"/>
    <linearGradient gradientUnits="userSpaceOnUse" id="WhiteTransparent-4">
      <stop id="stop7606-4" offset="0" style="stop-color:white;stop-opacity:1"/>
      <stop id="stop7608-7" offset="1" style="stop-color:white;stop-opacity:0"/>
    </linearGradient>
    <linearGradient gradientUnits="userSpaceOnUse" y2="50" x2="90" y1="20" x1="60" xlink:href="#WhiteTransparent-4" id="IcecapTip-6"/>
    <linearGradient id="linearGradient4337">
      <stop id="stop4339" offset="0" style="stop-color:#ebd195;stop-opacity:1;"/>
      <stop id="stop4341" offset="1" style="stop-color:#6f6733;stop-opacity:1;"/>
    </linearGradient>
    <linearGradient gradientTransform="matrix(0.86343869,0,0,0.86343869,48.29496,615.64326)" gradientUnits="userSpaceOnUse" y2="4107.3623" x2="1460" y1="4073.2341" x1="1508.9897" id="linearGradient4159-2" xlink:href="#BlackTransparent" inkscape:collect="always"/>
    <linearGradient inkscape:collect="always" xlink:href="#BlackTransparent" id="linearGradient4439" gradientUnits="userSpaceOnUse" gradientTransform="matrix(0.86343869,0,0,0.86343869,48.29496,615.64326)" x1="1508.9897" y1="4073.2341" x2="1460" y2="4107.3623"/>
    <linearGradient y2="6224.2373" x2="1661.2556" y1="6224.2373" x1="1648.625" gradientUnits="userSpaceOnUse" id="linearGradient5828-3" xlink:href="#BlackTransparent" inkscape:collect="always"/>
    <linearGradient y2="4107.3623" x2="1460" y1="4073.2341" x1="1508.9897" gradientTransform="matrix(0.86343869,0,0,0.86343869,48.29496,615.64326)" gradientUnits="userSpaceOnUse" id="linearGradient7665" xlink:href="#BlackTransparent" inkscape:collect="always"/>
    <linearGradient y2="4107.3623" x2="1460" y1="4073.2341" x1="1508.9897" gradientTransform="matrix(0.86343869,0,0,0.86343869,48.29496,615.64326)" gradientUnits="userSpaceOnUse" id="linearGradient6782" xlink:href="#BlackTransparent" inkscape:collect="always"/>
    <linearGradient y2="4107.3623" x2="1460" y1="4073.2341" x1="1508.9897" gradientTransform="matrix(0.86343869,0,0,0.4047624,2551.8479,8716.2878)" gradientUnits="userSpaceOnUse" id="linearGradient6785" xlink:href="#BlackTransparent" inkscape:collect="always"/>
    <linearGradient y2="4107.3623" x2="1460" y1="4073.2341" x1="1508.9897" gradientTransform="matrix(0.86343869,0,0,0.86343869,48.29496,615.64326)" gradientUnits="userSpaceOnUse" id="linearGradient6913" xlink:href="#BlackTransparent" inkscape:collect="always"/>
    <linearGradient y2="4107.3623" x2="1460" y1="4073.2341" x1="1508.9897" gradientTransform="matrix(0.86343869,0,0,0.52971731,2957.8479,8582.6129)" gradientUnits="userSpaceOnUse" id="linearGradient6916" xlink:href="#BlackTransparent" inkscape:collect="always"/>
    <linearGradient y2="4107.3623" x2="1460" y1="4073.2341" x1="1508.9897" gradientTransform="matrix(0.86343869,0,0,0.86343869,48.29496,615.64326)" gradientUnits="userSpaceOnUse" id="linearGradient7275" xlink:href="#BlackTransparent" inkscape:collect="always"/>
    <linearGradient y2="4107.3623" x2="1460" y1="4073.2341" x1="1508.9897" gradientTransform="matrix(0.86343869,0,0,0.86343869,48.29496,615.64326)" gradientUnits="userSpaceOnUse" id="linearGradient8102-08" xlink:href="#BlackTransparent" inkscape:collect="always"/>
    <linearGradient y2="4107.3623" x2="1460" y1="4073.2341" x1="1508.9897" gradientTransform="matrix(0.86343869,0,0,0.86343869,48.29496,615.64326)" gradientUnits="userSpaceOnUse" id="linearGradient5144-1" xlink:href="#BlackTransparent" inkscape:collect="always"/>
    <linearGradient y2="4107.3623" x2="1460" y1="4073.2341" x1="1508.9897" gradientTransform="matrix(0.86343869,0,0,0.86343869,48.29496,615.64326)" gradientUnits="userSpaceOnUse" id="linearGradient6899-5-3" xlink:href="#BlackTransparent" inkscape:collect="always"/>
    <linearGradient y2="6224.2373" x2="1661.2556" y1="6224.2373" x1="1648.625" gradientUnits="userSpaceOnUse" id="linearGradient5828-4" xlink:href="#BlackTransparent" inkscape:collect="always"/>
    <linearGradient y2="6224.2373" x2="1661.2556" y1="6224.2373" x1="1648.625" gradientUnits="userSpaceOnUse" id="linearGradient5828-5-2" xlink:href="#BlackTransparent" inkscape:collect="always"/>
  </defs>
  <style type="text/css" id="style26">
	.specularity {opacity:0.5;}
	.low-specularity {opacity:0.25;}
	.full-specularity {opacity:1;}
	.black {fill:#000000;}
	.white {fill:#ffffff;}
	.outline-big {stroke-width:16;stroke:none;opacity:0.1;fill:none;}
	.outline-small {stroke-width:8;stroke:none;opacity:0.2;fill:none;}
	.stroke-highlight {fill:none;stroke:none;opacity:0.2;}
       	.base-shadow 	{fill:black;opacity:75;}
	</style>
  <!-- Copyright License -->
  <metadata id="metadata49">
    <rdf:RDF>
      <cc:Work rdf:about="etiquette-icon">
        <dc:format>image/svg+xml</dc:format>
        <dc:type rdf:resource="http://purl.org/dc/dcmitype/StillImage"/>
        <dc:creator>
          <cc:Agent>
            <dc:title>Andy Fitzsimon</dc:title>
          </cc:Agent>
        </dc:creator>
        <dc:rights>
          <cc:Agent>
            <dc:title>Andrew Michael Fitzsimon</dc:title>
          </cc:Agent>
        </dc:rights>
        <dc:publisher>
          <cc:Agent>
            <dc:title>Fitzsimon IT Consulting Pty Ltd</dc:title>
          </cc:Agent>
        </dc:publisher>
        <dc:identifier>http://andy.fitzsimon.com.au</dc:identifier>
        <dc:date>2006</dc:date>
        <cc:license rdf:resource="http://creativecommons.org/licenses/by-sa/3.0/"/>
        <dc:title>Inkscape Logo</dc:title>
      </cc:Work>
      <cc:License rdf:about="http://creativecommons.org/licenses/by-sa/3.0/">
        <cc:permits rdf:resource="http://creativecommons.org/ns#Reproduction"/>
        <cc:permits rdf:resource="http://creativecommons.org/ns#Distribution"/>
        <cc:requires rdf:resource="http://creativecommons.org/ns#Notice"/>
        <cc:requires rdf:resource="http://creativecommons.org/ns#Attribution"/>
        <cc:permits rdf:resource="http://creativecommons.org/ns#DerivativeWorks"/>
        <cc:requires rdf:resource="http://creativecommons.org/ns#ShareAlike"/>
      </cc:License>
    </rdf:RDF>
  </metadata>
  <text xml:space="preserve" style="font-style:normal;font-weight:normal;font-size:40px;line-height:125%;font-family:Sans;letter-spacing:0px;word-spacing:0px;fill:#000000;fill-opacity:1;stroke:none;" x="1563.6018" y="5958.8462" id="text7291" sodipodi:linespacing="125%"><tspan sodipodi:role="line" id="tspan7293" x="1563.6018" y="5958.8462"/></text>
  <text xml:space="preserve" style="font-style:normal;font-weight:normal;font-size:21.94101906px;line-height:125%;font-family:Sans;letter-spacing:0px;word-spacing:0px;fill:#c6ae8b;fill-opacity:1;stroke:none;" x="112.047" y="535.28711" id="text3990" sodipodi:linespacing="125%"><tspan sodipodi:role="line" x="112.047" y="535.28711" style="font-family:ubuntu;-inkscape-font-specification:ubuntu;text-align:start;text-anchor:start;stroke:none;" id="tspan4034"/></text>
  <text sodipodi:linespacing="125%" id="text4030" y="567.06934" x="460.20673" style="font-style:normal;font-weight:normal;font-size:21.94101906px;line-height:125%;font-family:Sans;letter-spacing:0px;word-spacing:0px;fill:#c6ae8b;fill-opacity:1;stroke:none;" xml:space="preserve"><tspan style="font-family:ubuntu;-inkscape-font-specification:ubuntu;text-align:start;text-anchor:start;stroke:none;" y="567.06934" x="460.20673" sodipodi:role="line" id="tspan4032"/></text>
  <rect y="0" x="0" height="562.47601" width="336.241" id="rect4962" style="color:#000000;display:inline;overflow:visible;visibility:visible;fill:#d6b7a2;fill-opacity:1;fill-rule:nonzero;stroke:none;stroke-width:3.9000001;marker:none;enable-background:accumulate"/>
  <ellipse style="color:#000000;clip-rule:nonzero;display:inline;overflow:visible;visibility:visible;opacity:1;isolation:auto;mix-blend-mode:normal;color-interpolation:sRGB;color-interpolation-filters:linearRGB;solid-color:#000000;solid-opacity:1;fill:#000000;fill-opacity:0.15686275;fill-rule:nonzero;stroke:none;stroke-width:10;stroke-linecap:round;stroke-linejoin:miter;stroke-miterlimit:4;stroke-dasharray:none;stroke-dashoffset:0;stroke-opacity:0;color-rendering:auto;image-rendering:auto;shape-rendering:auto;text-rendering:auto;enable-background:accumulate" id="path5574" cx="-190.73663" cy="518.59735" rx="99.858154" ry="16.643026" transform="scale(-1,1)"/>
  <rect style="color:#000000;display:inline;overflow:visible;visibility:visible;fill:#d6b7a2;fill-opacity:1;fill-rule:nonzero;stroke:none;stroke-width:3.9000001;marker:none;enable-background:accumulate" id="rect4979" width="336.241" height="562.47601" x="357.79596" y="0"/>
  <ellipse ry="16.643026" rx="99.858154" cy="518.59735" cx="524.89178" id="ellipse5578" style="color:#000000;clip-rule:nonzero;display:inline;overflow:visible;visibility:visible;opacity:1;isolation:auto;mix-blend-mode:normal;color-interpolation:sRGB;color-interpolation-filters:linearRGB;solid-color:#000000;solid-opacity:1;fill:#000000;fill-opacity:0.15686275;fill-rule:nonzero;stroke:none;stroke-width:10;stroke-linecap:round;stroke-linejoin:miter;stroke-miterlimit:4;stroke-dasharray:none;stroke-dashoffset:0;stroke-opacity:0;color-rendering:auto;image-rendering:auto;shape-rendering:auto;text-rendering:auto;enable-background:accumulate"/>
  <g id="g4331" style="stroke:none">
    <path sodipodi:nodetypes="ccccc" inkscape:connector-curvature="0" id="path4552" d="m 106.12954,258.95836 -65.47508,18.50848 0.641913,1.4978 65.733727,-17.54346 z" style="fill:#6b573f;fill-opacity:1;fill-rule:evenodd;stroke:none;stroke-width:1px;stroke-linecap:butt;stroke-linejoin:miter;stroke-opacity:0"/>
    <path sodipodi:nodetypes="ccccccccccccccccccccccsccccccccc" inkscape:connector-curvature="0" id="path4546" d="m 101.71047,199.65229 3.3286,34.49645 5.74941,17.55083 -0.6052,-16.03783 3.93381,-4.2364 10.28841,29.04964 0.9078,-19.66903 c 9.74554,8.28866 19.68311,16.29344 29.95745,23.90544 l -0.3026,-9.68322 14.52482,15.43263 -2.1182,-15.73523 5.44681,5.74941 5.74941,7.86761 4.8416,-11.19621 3.93381,9.38061 17.55083,-6.05201 1.513,-7.56501 4.84161,12.10402 1.8156,-15.43262 c 0,0 0.9078,7.56501 2.72341,9.98581 1.26643,-6.71964 5.00397,-17.95518 7.63424,-25.76175 5.67206,8.12598 7.19557,13.0895 7.79838,22.43315 0,0 8.17021,-12.40662 9.38061,-12.10402 1.21041,0.3026 -1.2104,8.77541 -1.2104,8.77541 l 10.89362,-14.82742 0.9078,11.19621 9.07801,-18.15602 -4.2364,-36.00946 -18.15603,-57.79669 -78.37352,-15.43262 -54.46809,58.40189 z" style="fill:#6b573f;fill-opacity:1;fill-rule:evenodd;stroke:none;stroke-width:1px;stroke-linecap:butt;stroke-linejoin:miter;stroke-opacity:0"/>
    <path sodipodi:nodetypes="ccccccccc" inkscape:connector-curvature="0" id="path4367" d="m 201.95236,252.03752 14.66762,4.79276 c 0.74775,26.22563 -2.17408,58.41433 6.71318,71.41325 6.59375,8.13081 10.06024,21.23309 14.9001,39.43043 l -81.39314,5.25792 9.83957,-48.7178 4.77101,-63.12276 16.62546,-7.88203 z" style="fill:#fff9e9;fill-opacity:1;fill-rule:evenodd;stroke:none;stroke-width:3.12471938px;stroke-linecap:butt;stroke-linejoin:miter;stroke-opacity:0"/>
    <path sodipodi:nodetypes="ccccccc" inkscape:connector-curvature="0" id="path4363" d="m 201.57418,245.66291 -11.91299,-1.17177 -1.68436,8.37805 -2.15368,1.26089 6.76746,6.57054 9.96004,-6.64002 z" style="fill:#f8ded8;fill-opacity:1;fill-rule:evenodd;stroke:none;stroke-width:3.12471938px;stroke-linecap:butt;stroke-linejoin:miter;stroke-opacity:0"/>
    <path sodipodi:nodetypes="cccccccc" inkscape:connector-curvature="0" id="path4284-3" d="m 180.31101,254.1836 c -25.32038,0.23709 -60.39919,-3.62136 -63.92582,-17.34996 l -1.23398,-10.9688 c -7.82198,-14.86406 -12.64886,-30.42139 -16.846414,-46.37255 -8.874275,-43.4246 7.795024,-78.08188 30.150424,-92.589381 47.38942,-36.54294 128.88964,-30.109616 154.42698,28.822521 10.93111,29.56434 9.73548,59.3387 -14.05838,100.96084 -12.77744,20.37404 -17.3776,22.15504 -88.51281,37.49733 z" style="fill:#fff9e9;fill-opacity:1;fill-rule:evenodd;stroke:none;stroke-width:3.12471938px;stroke-linecap:butt;stroke-linejoin:miter;stroke-opacity:0"/>
    <path sodipodi:nodetypes="sssss" inkscape:connector-curvature="0" id="path4305" d="m 196.83423,202.86719 c 0.20591,11.05356 3.69154,20.30715 11.76138,20.90113 8.06987,0.59397 16.37974,-7.74777 17.46212,-18.75014 1.71565,-17.43957 -5.01368,-20.70517 -13.14232,-21.03923 -8.15927,-0.3353 -16.34488,4.73791 -16.08118,18.88824 z" style="opacity:1;fill:#6b573f;fill-opacity:1;stroke:none;stroke-width:10;stroke-linecap:round;stroke-linejoin:miter;stroke-miterlimit:4;stroke-dasharray:none;stroke-dashoffset:0;stroke-opacity:0"/>
    <path sodipodi:nodetypes="sssss" inkscape:connector-curvature="0" id="path4305-6" d="m 136.37184,205.52224 c -0.3539,9.50249 -1.9192,17.35429 -6.57077,17.5879 -4.6515,0.23361 -9.25134,-7.26198 -10.27394,-16.7419 -1.09182,-10.12165 1.60287,-16.79262 6.57078,-17.5879 5.76861,-0.92347 10.91656,-0.50837 10.27393,16.7419 z" style="color:#000000;clip-rule:nonzero;display:inline;overflow:visible;visibility:visible;opacity:1;isolation:auto;mix-blend-mode:normal;color-interpolation:sRGB;color-interpolation-filters:linearRGB;solid-color:#000000;solid-opacity:1;fill:#6b573f;fill-opacity:1;fill-rule:nonzero;stroke:none;stroke-width:10;stroke-linecap:round;stroke-linejoin:miter;stroke-miterlimit:4;stroke-dasharray:none;stroke-dashoffset:0;stroke-opacity:0;color-rendering:auto;image-rendering:auto;shape-rendering:auto;text-rendering:auto;enable-background:accumulate"/>
    <path style="fill:#6b573f;fill-opacity:1;fill-rule:evenodd;stroke:none;stroke-width:2.48611355px;stroke-linecap:butt;stroke-linejoin:miter;stroke-opacity:0" d="m 110.73546,202.27058 c 8.53941,-13.55934 20.26526,-11.61048 33.59513,-6.12727 -9.85434,-12.38306 -29.56927,-14.38542 -33.59513,6.12727 z" id="path4359" inkscape:connector-curvature="0" sodipodi:nodetypes="ccc"/>
    <path sodipodi:nodetypes="cccccc" inkscape:transform-center-y="24.374332" inkscape:transform-center-x="-15.547044" inkscape:connector-curvature="0" id="path4389" d="m 217.93631,256.10283 26.19563,41.13456 9.35164,13.58558 c 10.47158,12.94727 -10.10507,17.26407 -14.76187,9.07947 l -37.8759,-49.82308 c -8.12105,-8.72492 11.07368,-24.1445 17.0905,-13.97653 z" style="fill:#fff9e9;fill-opacity:1;fill-rule:evenodd;stroke:none;stroke-width:3.46909666px;stroke-linecap:butt;stroke-linejoin:miter;stroke-opacity:0"/>
    <path inkscape:transform-center-y="75.292191" inkscape:transform-center-x="-0.76478743" sodipodi:nodetypes="ccccc" inkscape:connector-curvature="0" id="path4393" d="m 202.46601,359.24206 11.9416,154.44295 c 1.53324,10.258 15.51097,10.41066 16.45682,-4.12064 l 7.32022,-141.84755 c -0.91648,-21.53396 -36.68551,-31.19231 -35.71864,-8.47476 z" style="fill:#fff9e9;fill-opacity:1;fill-rule:evenodd;stroke:none;stroke-width:3.12471938px;stroke-linecap:butt;stroke-linejoin:miter;stroke-opacity:0"/>
    <path style="fill:#fff9e9;fill-opacity:1;fill-rule:evenodd;stroke:none;stroke-width:3.46909666px;stroke-linecap:butt;stroke-linejoin:miter;stroke-opacity:0" d="m 170.5012,261.56117 -20.74588,34.90098 -9.08853,9.8524 c -11.37836,12.15804 6.32305,19.25153 11.5582,11.42418 L 188.85512,278.038 c 8.72932,-8.11629 -11.61923,-26.18425 -18.35392,-16.47683 z" id="path4401" inkscape:connector-curvature="0" inkscape:transform-center-x="21.68269" inkscape:transform-center-y="25.300878" sodipodi:nodetypes="cccccc"/>
    <path sodipodi:nodetypes="cccccc" inkscape:connector-curvature="0" id="path4717" d="m 157.80273,283.88672 -0.74218,0.28711 -2.31055,3.88672 c 2.11352,12.74576 3.675,12.71064 0.53125,26.36523 l 13.51172,-14.64453 z" style="fill:#f8ded8;fill-opacity:1;fill-rule:evenodd;stroke:none;stroke-width:1px;stroke-linecap:butt;stroke-linejoin:miter;stroke-opacity:0"/>
    <path sodipodi:nodetypes="cccccc" inkscape:connector-curvature="0" id="path4530" d="m 178.87963,257.13962 -7.70295,2.56765 -15.72686,22.03899 c 2.5633,14.6855 1.34691,14.13215 11.12648,23.64378 l 4.06545,0.64191 z" style="fill:#e2f0f1;fill-opacity:1;fill-rule:evenodd;stroke:none;stroke-width:1px;stroke-linecap:butt;stroke-linejoin:miter;stroke-opacity:0"/>
    <path style="fill:#fff9e9;fill-opacity:1;fill-rule:evenodd;stroke:none;stroke-width:3.48187637px;stroke-linecap:butt;stroke-linejoin:miter;stroke-opacity:0" d="m 153.89392,307.97156 c 4.13003,6.74951 -8.54342,21.2634 -19.87898,5.05148 l -26.29358,-40.65665 c -9.51841,-11.42228 4.64019,-23.7518 13.6279,-7.47032 z" id="path4403" inkscape:connector-curvature="0" inkscape:transform-center-x="20.173483" inkscape:transform-center-y="-31.380662" sodipodi:nodetypes="ccccc"/>
    <path style="fill:#fff9e9;fill-opacity:1;fill-rule:evenodd;stroke:none;stroke-width:2.95740294px;stroke-linecap:butt;stroke-linejoin:miter;stroke-opacity:0" d="m 196.76493,354.41605 -22.92344,67.04797 -9.48108,94.17495 c -3.73788,8.64669 -17.45121,6.0637 -15.20762,-6.79087 l -1.61201,-88.6807 12.71402,-65.24354 c 5.59356,-18.59877 42.41115,-20.12885 36.51013,-0.50781 z" id="path4983" inkscape:connector-curvature="0" sodipodi:nodetypes="ccccccc"/>
    <path sodipodi:nodetypes="ccc" inkscape:connector-curvature="0" id="path4303" d="M 242.42307,205.34561 C 229.38614,187.79223 206.56,187.26923 188.04565,192.82166 c 15.10075,-22.09958 50.72711,-14.22468 54.37742,12.52395 z" style="fill:#6b573f;fill-opacity:1;fill-rule:evenodd;stroke:none;stroke-width:3.12471938px;stroke-linecap:butt;stroke-linejoin:miter;stroke-opacity:0"/>
    <path sodipodi:nodetypes="cccccc" inkscape:connector-curvature="0" id="path4536" d="m 147.63988,507.80646 -5.24228,7.06104 c -1.78474,7.85696 -1.11184,7.57013 7.70295,7.80994 7.04178,-0.45948 14.38263,-0.75456 16.58274,-5.67023 l 0.10698,-10.2706 z" style="fill:#333333;fill-rule:evenodd;stroke:none;stroke-width:1px;stroke-linecap:butt;stroke-linejoin:miter;stroke-opacity:0"/>
    <path sodipodi:nodetypes="ccccc" inkscape:connector-curvature="0" id="path4538" d="m 213.22195,512.51382 c -0.47229,2.67279 -0.39579,5.32996 -0.32096,8.02391 5.31556,2.84994 10.31843,2.95292 16.1548,3.10257 6.89597,-6.19666 3.01072,-8.41658 2.78162,-13.9081 z" style="fill:#333333;fill-opacity:1;fill-rule:evenodd;stroke:none;stroke-width:1px;stroke-linecap:butt;stroke-linejoin:miter;stroke-opacity:0"/>
    <path sodipodi:nodetypes="cccccccccccccccccccccccccccccccccc" inkscape:connector-curvature="0" id="path4534" d="m 162.19385,342.93937 -10.89361,52.50118 -4.38771,23.45154 0.1513,42.96927 -3.78251,18.00472 3.63121,4.53901 -4.53901,18.76123 4.23641,5.14421 c 8.74812,3.8197 16.0181,2.34465 25.11584,1.0591 l -2.26951,-11.80142 0.6052,-1.6643 -0.6052,-10.89362 2.11821,-2.7234 -1.2104,-3.32861 4.9929,-55.98108 15.96218,-50.45863 9.07801,-1.13475 6.58156,51.89598 1.66431,36.76595 0,35.25296 3.026,1.9669 -2.5721,6.80851 1.513,2.42081 -1.3617,2.5721 4.0851,4.23641 c 13.11811,2.40399 12.104,2.91002 22.84634,-3.17731 l -0.7565,-5.29551 1.8156,-3.4799 -3.47991,-5.44681 1.36171,-48.26478 3.3286,-55.22458 0.33171,-32.80119 -9.56102,-20.45649 z" style="fill:#6b573f;fill-opacity:1;fill-rule:evenodd;stroke:none;stroke-width:1px;stroke-linecap:butt;stroke-linejoin:miter;stroke-opacity:0"/>
    <path sodipodi:nodetypes="cccccc" inkscape:connector-curvature="0" id="path4722" d="m 237.56836,286.93164 -6.68359,2.14453 -8.17774,9.75977 11.25781,14.80859 c -0.0868,-7.52055 5.08659,-14.57429 7.5293,-20.54883 z" style="fill:#f8ded8;fill-opacity:1;fill-rule:evenodd;stroke:none;stroke-width:1px;stroke-linecap:butt;stroke-linejoin:miter;stroke-opacity:0"/>
    <path sodipodi:nodetypes="cccccccccccccccc" inkscape:connector-curvature="0" id="path4528" d="m 184.13239,254.80698 8.69976,6.88416 11.87707,-6.88416 c 2.42339,-1.83523 5.18413,-1.99752 8.09456,-2.49645 11.20811,5.63573 19.50036,21.98745 27.16452,32.32434 -5.19995,16.63039 -5.15908,12.79537 -21.39708,19.57833 l -1.39081,-10.80552 c -0.42283,12.38167 3.13077,22.92931 7.16802,34.34232 l 16.1548,32.09562 -36.37504,12.62428 -14.43579,-21.50096 -27.07456,18.93331 -7.48898,-4.27941 c 7.47651,-22.28332 10.82046,-41.73748 12.97657,-64.67665 -0.33685,-18.50576 0.009,-26.21788 6.87329,-42.2054 z" style="fill:#ffffff;fill-rule:evenodd;stroke:none;stroke-width:1px;stroke-linecap:butt;stroke-linejoin:miter;stroke-opacity:0"/>
    <path sodipodi:nodetypes="ccc" inkscape:connector-curvature="0" id="path4524" d="m 194.02951,234.25568 c -3.20052,12.86925 -14.34228,13.06465 -20.77793,6.81716 10.60649,6.37085 15.62076,0.99377 20.77793,-6.81716 z" style="fill:#3d4c4f;fill-opacity:1;fill-rule:evenodd;stroke:none;stroke-width:1px;stroke-linecap:butt;stroke-linejoin:miter;stroke-opacity:0"/>
    <path sodipodi:nodetypes="cccccc" inkscape:connector-curvature="0" id="path4748" d="m 199.56445,284.53711 3.78321,24.35937 c 5.3421,16.06909 13.72223,30.65931 21.63672,45.54102 l -0.50977,10.97266 16.0293,-5.56446 c -14.02502,-35.56308 -31.32818,-42.32786 -40.93946,-75.30859 z" style="fill:#e9ecf5;fill-opacity:1;fill-rule:evenodd;stroke:none;stroke-width:1px;stroke-linecap:butt;stroke-linejoin:miter;stroke-opacity:0"/>
    <path id="path4761" d="m 214.54297,274.62695 -3.25195,16.26563 3.55468,16.41601 3.22266,-1.38086 c -0.68556,-4.02531 -1.03765,-8.15691 -0.88867,-12.51953 l 1.39062,10.80469 c 5.66069,-2.36459 9.31787,-3.44031 11.9336,-4.54101 l -7.25977,-5.75391 -8.70117,-19.29102 z" style="fill:#e9ecf5;fill-opacity:1;fill-rule:evenodd;stroke:none;stroke-width:1px;stroke-linecap:butt;stroke-linejoin:miter;stroke-opacity:0" inkscape:connector-curvature="0"/>
    <path sodipodi:nodetypes="cccccccccc" inkscape:connector-curvature="0" id="path4540" d="m 207.13002,252.61313 -11.49882,7.71631 2.57211,9.07802 -3.17731,3.4799 6.65721,28.44445 c 11.27653,25.15506 29.526,45.76834 46.14658,67.4799 23.9759,9.645 40.8791,7.93761 66.27941,7.93761 -38.48858,-13.10075 -56.48177,-29.82694 -86.87216,-55.20448 -13.56711,-22.92645 -10.9628,-41.52383 -12.54201,-69.38561 z" style="fill:#ffec9f;fill-opacity:1;fill-rule:evenodd;stroke:none;stroke-width:1px;stroke-linecap:butt;stroke-linejoin:miter;stroke-opacity:0"/>
    <path sodipodi:nodetypes="ccccc" inkscape:transform-center-y="36.012235" inkscape:transform-center-x="5.3075909" inkscape:connector-curvature="0" id="path4391" d="m 256.42206,318.4187 c 1.47248,-7.7746 -17.07712,-16.8018 -21.93776,2.37359 l -9.91429,62.08027 c -4.85719,14.05265 12.74988,20.56992 15.39014,2.16082 z" style="fill:#fff9e9;fill-opacity:1;fill-rule:evenodd;stroke:none;stroke-width:3.48187637px;stroke-linecap:butt;stroke-linejoin:miter;stroke-opacity:0"/>
    <path sodipodi:nodetypes="cccccc" inkscape:connector-curvature="0" id="path4729" d="m 183.83008,277.57812 -7.56446,9.22852 c -10.12735,25.45691 -13.65151,56.24601 -21.13671,78.81641 l 5.19726,2.9707 10.49219,-17.9375 c 5.30999,-24.18719 9.06212,-48.6454 13.01172,-73.07813 z" style="fill:#e9ecf5;fill-opacity:1;fill-rule:evenodd;stroke:none;stroke-width:1px;stroke-linecap:butt;stroke-linejoin:miter;stroke-opacity:0"/>
    <path sodipodi:nodetypes="cccccccccccc" inkscape:connector-curvature="0" id="path4542" d="m 180.80378,255.48783 5.44681,5.44681 -2.4208,6.50591 1.9669,5.44681 c -5.89274,22.69693 -11.47379,45.47177 -17.09693,68.23641 l -13.76832,31.47045 -0.1513,-14.82743 7.71631,-22.84633 c 4.60057,-19.33423 4.23641,-38.70906 4.23641,-58.40189 l 2.4208,-16.94563 6.05201,-1.6643 z" style="fill:#ffec9f;fill-opacity:1;fill-rule:evenodd;stroke:none;stroke-width:1px;stroke-linecap:butt;stroke-linejoin:miter;stroke-opacity:0"/>
    <path id="path4804" d="m 172.88867,113.56445 -76.511717,52.90821 c 0.394566,4.24207 1.020924,8.58222 1.927735,13.01953 2.043062,7.76385 4.243392,15.43188 6.857422,22.97461 l 0.14258,-27.77344 21.48437,-6.80859 7.7168,18.76171 6.95898,-23.14843 11.95313,8.62304 11.04492,-33.89062 19.06445,26.7793 5.14454,-18.60938 32.52929,31.77344 -3.93359,-38.2793 17.70117,17.40039 12.82617,79.43164 c 2.96716,-1.33117 5.45289,-2.7182 7.60547,-4.24023 l 0.14649,-17.24414 -9.38086,-29.6543 -11.22657,-58.32812 -62.05078,-13.69532 z" style="fill:#f8ded8;fill-opacity:1;fill-rule:evenodd;stroke:none;stroke-width:1px;stroke-linecap:butt;stroke-linejoin:miter;stroke-opacity:0" inkscape:connector-curvature="0"/>
    <path sodipodi:nodetypes="ccccccccccccccccccccccccccccccccccccccccc" inkscape:connector-curvature="0" id="path4544" d="m 163.10165,129.15214 c -12.53088,36.48774 -2.5845,61.02357 0,94.10874 -10.9609,-18.62769 -19.02274,-38.48948 -27.23404,-58.40189 -0.29516,8.99646 0.25788,17.95618 0.7565,26.93144 l -8.32151,-2.72339 -4.84161,-17.55084 0.3026,15.73523 -7.26241,3.6312 -7.56501,-16.34042 3.93381,20.57683 -0.90781,3.63121 -8.47281,-19.66903 c 1.03997,16.53802 5.50079,32.39071 9.38062,48.41607 L 96.226949,194.51384 c -0.05579,7.1146 0.976762,14.13576 1.815604,21.18203 C 84.3289,191.85068 82.116924,186.12254 81.096927,160.62259 c -2.914384,5.17719 -4.731178,10.75493 -6.657211,16.34042 -3.030219,-34.80985 11.182004,-68.31998 32.987474,-89.026509 25.51752,-26.043543 48.00774,-28.4393 83.51371,-29.916978 39.48652,-8.100674 78.32747,7.710819 97.56542,38.989795 24.20492,50.534252 7.29113,96.599902 -1.64107,146.223202 l -3.63121,-24.51064 c -3.02808,11.88177 -21.67074,20.96251 -33.96468,30.24484 3.68991,-10.55466 5.52024,-22.30209 5.52024,-33.27085 l 12.40662,-5.74941 3.026,-15.43262 -10.89362,4.23641 -5.74941,13.31442 -1.2104,-4.53901 c -0.39184,17.0378 -4.99222,33.18562 -9.02609,49.60866 l 0.0519,-35.42315 c -1.17852,-36.26371 -10.19139,-71.11713 -31.56347,-90.17244 9.49503,19.02238 9.91211,32.79014 11.98236,53.49271 l -11.12648,-3.42353 -8.98678,-27.81621 5.99119,29.10003 -10.2706,2.9956 -12.41031,-33.37946 0,39.79858 c -4.46704,-25.00164 -12.21594,-42.57796 -23.90887,-63.15431 z" style="fill:#a07e57;fill-opacity:1;fill-rule:evenodd;stroke:none;stroke-width:1px;stroke-linecap:butt;stroke-linejoin:miter;stroke-opacity:0"/>
    <path sodipodi:nodetypes="ccc" inkscape:connector-curvature="0" id="path4548" d="m 216.24253,128.02638 c 24.51292,21.25634 45.23953,41.05043 35.01507,73.95736 -0.84623,-33.67478 -15.16197,-48.1485 -35.01507,-73.95736 z" style="fill:#ffe57e;fill-opacity:1;fill-rule:evenodd;stroke:none;stroke-width:1px;stroke-linecap:butt;stroke-linejoin:miter;stroke-opacity:0"/>
    <path sodipodi:nodetypes="ccccc" inkscape:connector-curvature="0" id="path4550" d="m 244.48694,375.84397 c -7.9538,1.00151 -12.90206,-1.32522 -19.76267,-4.47465 l 3.16804,-13.98524 c 6.49676,2.55206 13.20158,3.54254 20.11113,4.48987 z" style="fill:#a07e57;fill-opacity:1;fill-rule:evenodd;stroke:none;stroke-width:1.10522532px;stroke-linecap:butt;stroke-linejoin:miter;stroke-opacity:0"/>
    <path sodipodi:nodetypes="cccc" inkscape:connector-curvature="0" id="path4758" d="m 181.01934,336.30883 c 11.23895,-0.23948 20.97267,-5.13905 31.23974,-9.20075 l -14.97796,12.62428 z" style="fill:#e9ecf5;fill-opacity:1;fill-rule:evenodd;stroke:none;stroke-width:1px;stroke-linecap:butt;stroke-linejoin:miter;stroke-opacity:0"/>
  </g>
  <g id="g4344" style="stroke:none">
    <path sodipodi:nodetypes="cccccccccccc" inkscape:connector-curvature="0" id="path4609" d="m 569.59039,388.94566 -14.97796,15.61987 0.85588,10.05663 c -15.53082,-0.45072 -33.16605,14.14998 -36.58901,-1.4978 l -5.56324,4.06545 -37.01696,-8.13089 5.99119,-28.6721 c -7.25146,3.22415 -4.54232,7.40279 -4.27942,14.76399 -11.88612,-21.31313 -5.82047,-37.63673 10.2706,-51.99491 l 26.31841,12.19633 36.58902,-5.99118 z" style="fill:#e3d274;fill-opacity:1;fill-rule:evenodd;stroke:none;stroke-width:1px;stroke-linecap:butt;stroke-linejoin:miter;stroke-opacity:0"/>
    <path style="fill:#fff9e9;fill-opacity:1;fill-rule:evenodd;stroke:none;stroke-width:3.40774632px;stroke-linecap:butt;stroke-linejoin:miter;stroke-opacity:0" d="m 553.95435,277.54708 20.92758,47.52395 6.93801,14.64082 c 8.124,14.19722 -12.50646,15.15651 -15.73875,6.48943 L 535.18957,288.4201 c -6.50692,-9.73426 14.52467,-21.67673 18.76478,-10.87302 z" id="path5175" inkscape:connector-curvature="0" inkscape:transform-center-x="-10.788959" inkscape:transform-center-y="26.428064" sodipodi:nodetypes="cccccc"/>
    <path style="fill:#fff9e9;fill-opacity:1;fill-rule:evenodd;stroke:none;stroke-width:2.90510178px;stroke-linecap:butt;stroke-linejoin:miter;stroke-opacity:0" d="m 487.87758,365.2007 -2.39139,67.22401 c -10.3936,18.11604 -9.23237,53.17019 -12.95719,80.92212 0.002,9.25345 13.37444,12.26689 16.35928,-0.19886 5.10543,-24.59879 5.59086,-49.00193 17.66402,-74.36474 l 14.05053,-58.9005 c 2.20204,-18.9507 -30.40228,-34.67438 -32.72525,-14.68203 z" id="path5237" inkscape:connector-curvature="0" sodipodi:nodetypes="ccccccc"/>
    <path sodipodi:nodetypes="cccccccc" inkscape:connector-curvature="0" id="path5183" d="m 556.06512,373.77577 -7.10596,65.86164 c 8.42866,16.69791 1.91317,51.58229 2.32681,77.75249 -1.45972,9.13756 -15.14003,10.00659 -16.12363,-2.77373 -1.758,-24.38644 0.0709,-52.35976 -8.28535,-70.14798 l -5.44133,-61.34948 c 0.8111,-19.06096 35.48545,-29.4516 34.62976,-9.34296 z" style="fill:#fff9e9;fill-opacity:1;fill-rule:evenodd;stroke:none;stroke-width:2.90510178px;stroke-linecap:butt;stroke-linejoin:miter;stroke-opacity:0"/>
    <path sodipodi:nodetypes="cccccc" inkscape:transform-center-y="15.977246" inkscape:transform-center-x="19.936721" inkscape:connector-curvature="0" id="path5179" d="m 514.49353,276.79831 -32.72416,28.9811 -7.8322,6.1163 c -9.76323,7.51987 1.67711,20.73599 6.70126,15.53821 l 39.64516,-29.95895 c 7.20184,-4.82666 0.58674,-27.08171 -5.79006,-20.67666 z" style="fill:#fff9e9;fill-opacity:1;fill-rule:evenodd;stroke:none;stroke-width:2.47808504px;stroke-linecap:butt;stroke-linejoin:miter;stroke-opacity:0"/>
    <path sodipodi:nodetypes="ccccc" inkscape:transform-center-y="-26.657993" inkscape:transform-center-x="-3.6135424" inkscape:connector-curvature="0" id="path5181" d="m 482.39703,325.17621 c -1.24624,5.4872 -18.59235,8.61323 -16.31989,-5.26883 l 8.56185,-43.5145 c 0.82101,-10.54107 16.20379,-10.29153 12.70094,2.46104 z" style="fill:#fff9e9;fill-opacity:1;fill-rule:evenodd;stroke:none;stroke-width:2.47598743px;stroke-linecap:butt;stroke-linejoin:miter;stroke-opacity:0"/>
    <path sodipodi:nodetypes="ccccccccccccccccccccccc" inkscape:connector-curvature="0" id="path4615" d="m 444.2168,198.14453 3.48047,28.74805 7.28125,28.91211 2.1875,-8.01367 c 2.57588,14.21547 6.41791,23.61123 13.35546,36.73632 -2.65027,-12.08918 -4.50295,-21.05522 -2.5664,-32.95117 l 7.27344,12.19727 2.99609,-6.63477 10.27148,12.83985 2.35352,-6.63282 13.05078,11.98047 6.20703,-7.06055 9.8418,10.05665 25.46289,-1.92579 14.76367,-9.41406 1.92578,6.84766 11.12696,-11.76953 1.2832,7.06054 10.27148,-11.55273 5.5625,-19.25781 c -42.84018,-4.67837 -89.39306,11.85414 -131.77343,4.32422 l -5.73047,-36.47071 z" style="fill:#6b573f;fill-opacity:1;fill-rule:evenodd;stroke:none;stroke-width:1px;stroke-linecap:butt;stroke-linejoin:miter;stroke-opacity:0"/>
    <path sodipodi:nodetypes="ccccc" inkscape:connector-curvature="0" id="path4829" d="m 565.99219,304.87891 -16.20313,10.8457 5.90625,11.04883 c 9.6971,-1.53259 12.09027,-5.87264 13.01172,-15.72656 z" style="fill:#f8ded8;fill-opacity:1;fill-rule:evenodd;stroke:none;stroke-width:1px;stroke-linecap:butt;stroke-linejoin:miter;stroke-opacity:0"/>
    <path style="fill:#fff9e9;fill-opacity:1;fill-rule:evenodd;stroke:none;stroke-width:3.0694592px;stroke-linecap:butt;stroke-linejoin:miter;stroke-opacity:0" d="m 538.26748,271.14613 13.58967,6.7144 c -2.94643,25.60333 -16.04537,46.41858 -9.22526,60.30198 5.27207,8.829 11.34621,15.39639 13.50298,33.76717 l -35.02889,10.98973 -33.64807,-8.80557 c 1.12878,-36.9815 13.05872,-58.45751 24.70341,-94.72745 l 12.45051,-9.04462 z" id="path4304-3" inkscape:connector-curvature="0" sodipodi:nodetypes="ccccccccc"/>
    <path id="path4363-7" d="m 524.61133,270.3418 -3.16016,2.29687 6.88867,5.44336 11.42188,-6.19726 -1.49414,-0.73829 -13.65625,-0.80468 z" style="fill:#f8ded8;fill-opacity:1;fill-rule:evenodd;stroke:none;stroke-width:3.39053488px;stroke-linecap:butt;stroke-linejoin:miter;stroke-opacity:0" inkscape:connector-curvature="0"/>
    <path style="fill:#fff9e9;fill-opacity:1;fill-rule:evenodd;stroke:none;stroke-width:3.0694592px;stroke-linecap:butt;stroke-linejoin:miter;stroke-opacity:0" d="M 524.82075,272.66212 C 489.47097,267.74998 455.73613,252.603 452.73173,240.7594 l -0.23955,-7.89176 c 0.30745,-7.12651 -0.45003,-14.57196 -1.64474,-21.98912 -15.75056,-53.58528 -0.41217,-99.86656 37.30834,-114.885388 51.45914,-28.41739 129.63199,-10.022926 145.64325,51.003168 6.20667,30.33457 2.99901,54.02846 -23.67221,96.17784 -12.00356,13.87778 -30.61749,25.28265 -85.30607,29.48798 z" id="path5163" inkscape:connector-curvature="0" sodipodi:nodetypes="cccccccc"/>
    <path style="fill:#fff9e9;fill-opacity:1;fill-rule:evenodd;stroke:none;stroke-width:3.42030001px;stroke-linecap:butt;stroke-linejoin:miter;stroke-opacity:0" d="m 577.58673,331.14399 c -5.98467,-4.95995 -22.29165,5.84437 -8.11419,19.13356 l 43.25386,33.42703 c 9.77455,10.85252 23.74301,-1.18948 9.16948,-12.20554 z" id="path5201" inkscape:connector-curvature="0" inkscape:transform-center-x="-27.48192" inkscape:transform-center-y="21.846331" sodipodi:nodetypes="ccccc"/>
    <path sodipodi:nodetypes="sssss" inkscape:connector-curvature="0" id="path4305-9" d="m 537.01053,217.28164 c 0.20226,10.85808 3.62621,19.94802 11.5534,20.53148 7.92709,0.58348 16.09003,-7.61074 17.15329,-18.41854 1.68526,-17.13115 -4.92504,-20.339 -12.90989,-20.66715 -8.015,-0.32937 -16.05584,4.65411 -15.7968,18.55421 z" style="opacity:1;fill:#6b573f;fill-opacity:1;stroke:none;stroke-width:10;stroke-linecap:round;stroke-linejoin:miter;stroke-miterlimit:4;stroke-dasharray:none;stroke-dashoffset:0;stroke-opacity:0"/>
    <path sodipodi:nodetypes="ccc" inkscape:connector-curvature="0" id="path4303-1" d="m 576.79157,223.46483 c -4.98794,-24.20326 -29.14083,-28.90706 -50.10746,-16.57788 9.70474,-23.65765 56.94006,-17.49726 50.10746,16.57788 z" style="fill:#6b573f;fill-opacity:1;fill-rule:evenodd;stroke:none;stroke-width:3.0694592px;stroke-linecap:butt;stroke-linejoin:miter;stroke-opacity:0"/>
    <path style="fill:#6b573f;fill-opacity:1;fill-rule:evenodd;stroke:none;stroke-width:2.56672525px;stroke-linecap:butt;stroke-linejoin:miter;stroke-opacity:0" d="m 455.69108,205.75506 c 14.98473,-8.27336 24.19458,-7.27752 31.49815,4.18634 -1.94892,-16.38015 -17.55526,-24.81857 -31.49815,-4.18634 z" id="path4359-2" inkscape:connector-curvature="0" sodipodi:nodetypes="ccc"/>
    <path sodipodi:nodetypes="sssss" inkscape:connector-curvature="0" id="path4305-9-6" d="m 467.06162,214.34623 c 0.1041,9.37859 1.86635,17.22997 5.94636,17.73393 4.07993,0.50396 8.28129,-6.57373 8.82854,-15.90889 0.86736,-14.79691 -2.53484,-17.56767 -6.64453,-17.85111 -4.12519,-0.28449 -8.26368,4.01996 -8.13037,16.02607 z" style="opacity:1;fill:#6b573f;fill-opacity:1;stroke:none;stroke-width:10;stroke-linecap:round;stroke-linejoin:miter;stroke-miterlimit:4;stroke-dasharray:none;stroke-dashoffset:0;stroke-opacity:0"/>
    <path sodipodi:nodetypes="cccc" inkscape:connector-curvature="0" id="path4584" d="m 525.63908,261.97782 c -4.16992,0.90345 -7.14761,0.90976 -8.65363,-7.81011 -1.41622,-12.91516 10.13729,-6.53232 12.91096,2.03668 0.83007,2.9057 -1.43938,5.13415 -4.25733,5.77343 z" style="fill:#e59886;fill-opacity:1;fill-rule:evenodd;stroke:none;stroke-width:1.50706148px;stroke-linecap:butt;stroke-linejoin:miter;stroke-opacity:0"/>
    <path sodipodi:nodetypes="ccccc" inkscape:connector-curvature="0" id="path4824" d="m 501.38672,288.40625 -3.26953,2.89453 c -2.24988,7.00599 -2.81657,14.31764 -3.73828,21.57813 l -2.39063,5.97851 c 16.24895,-9.61897 13.42936,-13.3358 9.39844,-30.45117 z" style="fill:#f8ded8;fill-opacity:1;fill-rule:evenodd;stroke:none;stroke-width:1px;stroke-linecap:butt;stroke-linejoin:miter;stroke-opacity:0"/>
    <path sodipodi:nodetypes="ccccc" inkscape:connector-curvature="0" id="path4603" d="m 516.52562,275.32714 -15.83384,11.55442 c -4.04168,9.95994 -2.41056,17.86047 -0.64191,28.03019 l 13.69413,-11.7684 z" style="fill:#e2f0f1;fill-opacity:1;fill-rule:evenodd;stroke:none;stroke-width:1px;stroke-linecap:butt;stroke-linejoin:miter;stroke-opacity:0"/>
    <path sodipodi:nodetypes="cccccccccc" inkscape:connector-curvature="0" id="path4856" d="m 487.20312,384.13086 -0.65624,18.46094 c 9.85106,-3.88423 18.77026,-2.51627 28.67968,-0.17188 l 4.36328,-18.28906 z m 34.32227,0 1.63281,18.41211 c 10.20916,0.13612 20.13331,-1.60762 30.1543,-3.25586 l 1.63477,-15.15625 z" style="fill:#f8ded8;fill-opacity:1;fill-rule:evenodd;stroke:none;stroke-width:1px;stroke-linecap:butt;stroke-linejoin:miter;stroke-opacity:0"/>
    <path sodipodi:nodetypes="ccccccccccccc" inkscape:connector-curvature="0" id="path4605" d="m 486.73286,359.5824 -2.64775,30.18439 c 14.79665,9.59961 16.86626,6.54831 34.4208,4.84161 l 0.9078,-10.96927 1.513,0.1513 0.1513,12.40662 c 13.53577,3.7626 22.6066,0.61625 35.85816,-2.5721 l 0.4539,-19.82033 -2.72341,-15.43262 -3.3286,-7.26242 -34.64775,3.17731 -28.29315,-1.2104 z" style="fill:#a07e57;fill-opacity:1;fill-rule:evenodd;stroke:none;stroke-width:1px;stroke-linecap:butt;stroke-linejoin:miter;stroke-opacity:0"/>
    <path sodipodi:nodetypes="cccccccccc" inkscape:connector-curvature="0" id="path4844" d="m 485.63477,372.0957 -1.13868,12.98633 c 11.65728,0.91517 22.92867,3.63035 34.28125,6.24219 l 0.63672,-7.68555 1.51172,0.15235 0.0879,7.2207 c 11.7945,-4.69415 23.92226,-7.89443 36.23047,-10.8086 l 0.14648,-6.39843 -0.0488,-0.2793 z" style="fill:#6b573f;fill-opacity:1;fill-rule:evenodd;stroke:none;stroke-width:1px;stroke-linecap:butt;stroke-linejoin:miter;stroke-opacity:0"/>
    <path sodipodi:nodetypes="cccccccccccccc" inkscape:connector-curvature="0" id="path4601" d="m 518.66533,274.25728 10.05663,6.84707 15.19193,-8.98677 c 10.5754,0.77723 8.97421,-1.02989 13.1245,7.98217 l 11.69612,25.39728 c -3.26247,13.98839 -4.25708,11.71633 -19.89929,17.97355 l -3.42354,-14.76399 c -2.26025,9.93016 -5.90386,19.88615 -1.71176,29.52798 10.56955,12.14478 12.2399,24.78089 16.04781,40.01255 l -39.58461,10.2706 c -18.93491,-1.67875 -28.81796,-2.27235 -39.15666,-17.11767 7.06179,-18.2567 11.7885,-37.15563 16.68973,-56.06036 l 2.1397,-20.5412 c 6.60411,-6.46453 10.05218,-16.92704 18.82944,-20.54121 z" style="fill:#ffffff;fill-opacity:1;fill-rule:evenodd;stroke:none;stroke-width:1px;stroke-linecap:butt;stroke-linejoin:miter;stroke-opacity:0"/>
    <path id="path4694" d="m 536.20898,332.04492 -4.23828,9.98633 -5.59765,4.99414 -4.68946,2.41992 -2.11914,-2.11914 -4.38672,0.90821 0,16.18945 12.89258,22.04297 31.67774,-8.21875 c -3.80791,-15.23166 -5.47928,-27.86889 -16.04883,-40.01367 -0.87297,-2.00782 -1.38938,-4.03051 -1.66602,-6.0625 l -5.82422,-0.12696 z" style="fill:#ffd2c8;fill-opacity:1;fill-rule:evenodd;stroke:none;stroke-width:1px;stroke-linecap:butt;stroke-linejoin:miter;stroke-opacity:0" inkscape:connector-curvature="0"/>
    <path inkscape:connector-curvature="0" id="path4706" d="m 506.86025,352.32129 8.92671,7.71631 3.93381,11.34752 9.07801,2.42081 1.3617,-4.23641 -2.4208,-8.47281 0.9078,-7.56502 -9.38061,-8.62411 -19.06383,-2.7234 z" style="fill:#ccecf3;fill-opacity:1;fill-rule:evenodd;stroke:none;stroke-width:1px;stroke-linecap:butt;stroke-linejoin:miter;stroke-opacity:0"/>
    <path inkscape:connector-curvature="0" id="path4704" d="m 489.56194,360.24398 -0.7565,3.6312 7.71632,11.49882 2.1182,-1.6643 -2.87471,-9.83452 6.20331,-3.6312 1.36171,-5.74941 -3.17731,-4.23641 z" style="fill:#edbee4;fill-opacity:1;fill-rule:evenodd;stroke:none;stroke-width:1px;stroke-linecap:butt;stroke-linejoin:miter;stroke-opacity:0"/>
    <path sodipodi:nodetypes="ccccccccc" inkscape:connector-curvature="0" id="path4839" d="m 537.81641,343.04883 -13.26758,11.01953 c -15.54986,7.06467 -20.60947,-1.51945 -34.32227,-10.68555 -1.7655,6.19044 -3.66843,12.34012 -5.75781,18.4375 10.19493,6.99879 21.53224,10.92186 33.01953,15.14258 l 33.0586,-11.23242 8.11718,8.02539 c -0.78754,-3.3243 -1.54796,-6.52325 -2.35742,-9.62891 z" style="fill:#3a6d7f;fill-opacity:0.12716765;fill-rule:evenodd;stroke:none;stroke-width:1px;stroke-linecap:butt;stroke-linejoin:miter;stroke-opacity:0"/>
    <path sodipodi:nodetypes="cccccccccccc" inkscape:connector-curvature="0" id="path4607" d="m 489.77926,341.23016 c 7.90109,8.93438 17.61166,15.21548 27.38827,21.82503 l 21.61106,-21.39709 c 9.36889,-3.49396 10.35841,0.37619 18.40149,5.99118 12.8596,24.2986 23.41334,44.8104 41.29637,62.69346 l -13.69413,9.41472 c -22.1795,-21.22101 -26.90044,-27.71819 -23.75076,-44.93388 L 549.6911,360.48754 c -10.43371,7.1653 -21.86031,10.41139 -33.80739,13.9081 -11.27871,-3.91902 -21.75841,-9.1267 -32.09563,-14.97796 l 0,-10.05663 z" style="fill:#ffec9f;fill-opacity:1;fill-rule:evenodd;stroke:none;stroke-width:1px;stroke-linecap:butt;stroke-linejoin:miter;stroke-opacity:0"/>
    <path inkscape:connector-curvature="0" id="path4611" d="m 511.92435,359.65805 3.70685,-1.73996 5.74941,0.3026 8.69977,11.95272 -11.27187,3.70686 -4.23641,-4.31206 z" style="fill:#ffff79;fill-opacity:1;fill-rule:evenodd;stroke:none;stroke-width:1px;stroke-linecap:butt;stroke-linejoin:miter;stroke-opacity:0"/>
    <path sodipodi:nodetypes="cccccccc" inkscape:connector-curvature="0" id="path4617" d="m 599.69852,121.25411 24.20804,-3.63121 c 11.94758,2.87691 18.91359,14.52453 22.63044,30.71486 6.03265,41.85075 3.48735,79.97022 -5.72362,117.12283 -5.15637,21.09142 -0.57187,37.93711 5.60205,61.30073 -39.56384,-21.07216 -36.79377,-45.28805 -43.06789,-87.00947 l -12.72703,-70.68686 z" style="fill:#6b573f;fill-opacity:1;fill-rule:evenodd;stroke:none;stroke-width:1px;stroke-linecap:butt;stroke-linejoin:miter;stroke-opacity:0"/>
    <path id="path4809" d="m 588.41992,132.39453 -138.65234,8.55859 -2.80078,53.5625 c 0.86151,4.74329 1.97746,9.56819 3.35156,14.45704 l -0.6543,-30.95118 8.16992,-24.8125 5.9004,22.84571 37.52343,37.82617 -3.17773,-19.06445 24.20898,23.45117 2.875,-41.75781 4.99219,13.76757 0.30273,-29.5039 21.18164,20.57812 4.8418,-14.52539 25.11524,28.14063 4.23632,5.59961 1.36133,19.9707 -2.72265,39.33789 23.63281,-53.01758 -19.68555,-74.46289 z" style="fill:#f8ded8;fill-opacity:1;fill-rule:evenodd;stroke:none;stroke-width:1px;stroke-linecap:butt;stroke-linejoin:miter;stroke-opacity:0" inkscape:connector-curvature="0"/>
    <path sodipodi:nodetypes="cccccc" inkscape:connector-curvature="0" id="path4624" d="m 623.50827,121.58713 16.79433,-5.44681 38.73285,-13.46572 -14.82741,47.96217 -29.95745,13.31442 z" style="fill:#ffec9f;fill-opacity:1;fill-rule:evenodd;stroke:none;stroke-width:1px;stroke-linecap:butt;stroke-linejoin:miter;stroke-opacity:0"/>
    <path inkscape:connector-curvature="0" id="path4626" d="m 611.07722,110.4295 c -0.0246,-2.85479 -6.43455,-38.300383 -6.43455,-38.300383 l -18.72822,12.370073 -9.79179,39.51386 z" style="fill:#ffec9f;fill-opacity:1;fill-rule:evenodd;stroke:none;stroke-width:1.42297566px;stroke-linecap:butt;stroke-linejoin:miter;stroke-opacity:0"/>
    <path sodipodi:nodetypes="cccccccccccccccccccccccccccccc" inkscape:connector-curvature="0" id="path4613" d="m 449.9669,180.29162 3.32861,-3.63121 -0.2659,-7.35733 5.1075,-5.65449 -1.39395,-6.07612 4.32503,-6.28748 c 4.23446,29.85511 17.18975,36.95317 41.85379,62.29268 l -6.05201,-17.24823 25.72104,24.81324 c 3.53713,-11.32933 3.44732,-22.006 2.72341,-33.58865 l 6.41282,12.36991 c 2.42734,-28.68386 0.64721,-31.30633 -8.76911,-50.24949 15.3542,15.06281 23.12826,27.04346 32.61634,45.44459 2.86269,-12.93438 0.97077,-24.2726 -1.51301,-36.91726 10.1062,17.63461 19.35964,35.69328 28.44445,53.86289 l 2.7234,-23.90544 c 9.26666,32.89342 -0.97071,61.57571 -9.38061,94.10875 5.42366,-8.41082 12.41399,-15.86071 17.40398,-24.54627 -0.0392,2.84786 -0.3441,5.67582 -0.60966,8.50844 5.40156,-7.88943 7.94105,-8.68551 13.74867,-16.27699 l 1.61683,6.32419 c 4.77074,-6.27121 6.5912,-12.53046 8.08604,-20.00464 l 4.01613,9.9428 c 5.01603,-17.74784 16.94449,-33.6932 20.22573,-49.76783 11.13973,-42.79899 -8.01991,-84.58645 -46.67294,-104.934905 -48.67673,-20.031174 -104.18533,-14.544567 -140.4382,15.055895 -40.45066,33.18455 -29.2551,80.01519 -17.178,104.2856 0.77739,-5.806 -1.04292,-10.86134 3.3286,-18.91253 0.90407,30.3244 7.48387,39.98097 13.01182,56.73758 -4.10397,-22.80901 -3.27173,-45.41252 -2.4208,-68.3877 z" style="fill:#a07e57;fill-opacity:1;fill-rule:evenodd;stroke:none;stroke-width:1px;stroke-linecap:butt;stroke-linejoin:miter;stroke-opacity:0"/>
    <path sodipodi:nodetypes="ccccccccccc" inkscape:connector-curvature="0" id="path4619" d="m 483.7229,150.51182 -23.75586,6.35547 c 1.33703,12.02427 3.78772,14.28345 11.19727,23.14844 l 19.21484,-19.36524 c 1.84354,-9.79944 2.61122,-8.04038 -6.65625,-10.13867 z m -1.13549,4.38819 3.9336,0.22656 -0.15039,3.70703 -15.20697,14.97999 c -4.09356,-3.98673 -5.97081,-9.23992 -7.26285,-14.82751 z" style="fill:#ffff79;fill-opacity:1;fill-rule:evenodd;stroke:none;stroke-width:1px;stroke-linecap:butt;stroke-linejoin:miter;stroke-opacity:0"/>
    <path id="path4913" d="m 474.83789,489.26953 c -0.48533,6.37049 -0.98773,12.71299 -1.66406,18.79297 l 16.34961,1.85742 c 1.20764,-6.27381 2.17495,-12.54034 3.14258,-18.81445 -5.51826,1.46359 -11.28566,0.7821 -17.82813,-1.83594 z" style="fill:#ffffff;fill-opacity:1;fill-rule:evenodd;stroke:none;stroke-width:1px;stroke-linecap:butt;stroke-linejoin:miter;stroke-opacity:0" inkscape:connector-curvature="0"/>
    <path id="path4938" d="m 474.50586,493.42969 c -0.39083,4.95816 -0.8037,9.88324 -1.33203,14.63281 l 16.34961,1.85742 c 0.85677,-4.451 1.58047,-8.89867 2.28125,-13.34765 -1.08493,0.0684 -2.98828,0.16211 -2.98828,0.16211 l -2.03321,7.38085 -1.12304,-5.18945 -0.85547,-2.51367 -10.29883,-2.98242 z" style="fill:#e9ecf5;fill-opacity:1;fill-rule:evenodd;stroke:none;stroke-width:1px;stroke-linecap:butt;stroke-linejoin:miter;stroke-opacity:0" inkscape:connector-curvature="0"/>
    <path sodipodi:nodetypes="cccccccccccccccc" inkscape:connector-curvature="0" id="path4628" d="m 494.38517,497.91171 -4.57507,-1.84154 -1.65746,8.12666 -1.94886,3.1884 -2.32129,-4.92973 1.03129,-4.16568 -1.80742,-3.40943 -10.87018,-0.84767 c 1.62657,5.01241 0.96935,7.87086 -0.88768,12.63678 l 0.34827,2.36679 -2.04909,3.49331 c -0.054,8.71557 1.82442,10.90662 7.07132,12.87689 8.05998,2.4415 12.97375,0.75034 16.41779,0.003 3.30572,-4.01199 1.99478,-9.44292 -1.11699,-10.70675 -1.71023,-6.95286 1.10561,-11.65266 2.36537,-16.79064 z" style="fill:#666666;fill-opacity:1;fill-rule:evenodd;stroke:none;stroke-width:1px;stroke-linecap:butt;stroke-linejoin:miter;stroke-opacity:0"/>
    <path id="path4913-2" d="m 552.14648,493.02539 c -6.56379,2.62298 -12.34738,3.29329 -17.88281,1.80469 0.19378,5.95504 0.39766,11.90079 0.76563,17.68164 l 16.27148,-0.75195 c 0.0993,-6.01018 0.45626,-12.3486 0.8457,-18.73438 z" style="fill:#ffffff;fill-opacity:1;fill-rule:evenodd;stroke:none;stroke-width:1px;stroke-linecap:butt;stroke-linejoin:miter;stroke-opacity:0" inkscape:connector-curvature="0"/>
    <path id="path4944" d="m 534.44141,499.82031 c 0.15226,4.27419 0.323,8.53008 0.58789,12.69141 l 16.27148,-0.75195 c 0.063,-3.81192 0.2442,-7.77496 0.45703,-11.7793 l -10.41211,0.76562 -1.92578,3.95703 -0.80273,-4.33203 -4.17578,-0.55078 z" style="fill:#e9ecf5;fill-opacity:1;fill-rule:evenodd;stroke:none;stroke-width:1px;stroke-linecap:butt;stroke-linejoin:miter;stroke-opacity:0" inkscape:connector-curvature="0"/>
    <path sodipodi:nodetypes="cccccccccccc" inkscape:connector-curvature="0" id="path4630" d="m 530.45863,500.14032 7.71631,0.6052 0.4539,6.35461 3.93381,-6.20331 11.95271,-1.0591 -1.3617,7.11111 1.6643,7.26241 c -0.4694,3.51971 0.24485,6.54414 -1.17702,9.19247 -5.74411,4.94053 -15.84666,6.83461 -20.27143,3.15328 -2.73834,-5.11756 -2.90609,-6.08387 0.41012,-10.5055 1.7443,-4.37787 0.23091,-6.79587 -1.5054,-10.91827 z" style="fill:#666666;fill-opacity:1;fill-rule:evenodd;stroke:none;stroke-width:1px;stroke-linecap:butt;stroke-linejoin:miter;stroke-opacity:0"/>
    <path sodipodi:nodetypes="cccccccc" inkscape:connector-curvature="0" id="path4632" d="m 470.54492,511 -0.89648,1.5293 c -0.054,8.71557 1.82341,10.90668 7.07031,12.87695 8.05998,2.4415 12.97393,0.75125 16.41797,0.004 3.2934,-3.99704 2.00277,-9.39946 -1.08399,-10.68946 -2.93068,-0.32054 -5.93786,0.68616 -8.48213,1.58115 -3.56417,1.27001 -5.17525,2.88322 -6.14872,7.55167 -7.7716,-1.36872 -6.44585,-6.65278 -6.87696,-12.85361 z" style="fill:#ffffff;fill-opacity:1;fill-rule:evenodd;stroke:none;stroke-width:1px;stroke-linecap:butt;stroke-linejoin:miter;stroke-opacity:0"/>
    <path sodipodi:nodetypes="ccccccc" inkscape:connector-curvature="0" id="path4637" d="m 532.43555,517.99805 c -1.80891,2.89361 -1.34553,4.29924 0.93359,8.55859 4.42477,3.68133 14.52738,1.78819 20.27148,-3.15234 0.24636,-0.45886 0.41151,-0.93397 0.54688,-1.41602 -2.52756,2.6413 -5.37759,3.34024 -8.75977,4.34375 -0.0965,-3.69539 -1.64325,-5.71802 -4.55546,-7.32259 -2.66751,-1.44688 -5.5846,-1.85408 -8.43672,-1.01139 z" style="fill:#ffffff;fill-opacity:1;fill-rule:evenodd;stroke:none;stroke-width:1px;stroke-linecap:butt;stroke-linejoin:miter;stroke-opacity:0"/>
    <path sodipodi:nodetypes="ccccc" inkscape:connector-curvature="0" id="path4642" d="m 484.05555,388.94566 c 14.26082,9.11535 24.00712,6.82556 34.71676,5.1353 l -0.16047,2.35368 c -16.42501,2.92036 -24.00245,2.35191 -35.09122,-5.34927 z" style="fill:#ffffff;fill-opacity:1;fill-rule:evenodd;stroke:none;stroke-width:1px;stroke-linecap:butt;stroke-linejoin:miter;stroke-opacity:0"/>
    <path sodipodi:nodetypes="ccccc" inkscape:connector-curvature="0" id="path4642-5" d="m 520.93445,394.28544 c 16.45827,5.54985 26.31555,1.03305 36.63772,-3.08679 l -0.24186,2.36025 c -15.75242,6.63697 -23.47691,7.8388 -36.42078,2.92787 z" style="fill:#ffffff;fill-opacity:1;fill-rule:evenodd;stroke:none;stroke-width:1.01372814px;stroke-linecap:butt;stroke-linejoin:miter;stroke-opacity:0"/>
    <path id="path4659" d="m 471.83984,499.60156 -2.48632,2.59571 0.22656,5.4375 4.5957,-1.05469 2.41016,2.27344 2.22265,-2.23243 0.45118,-6.37109 -4.48243,2.67773 -2.9375,-3.32617 z m -0.0547,1.81055 2.76953,3.07227 3.52734,-2.3379 -0.25976,3.77735 -1.0918,1.47461 -2.43555,-2.25196 -3.58398,1.2754 -0.14844,-3.73243 1.22266,-1.27734 z" style="fill:#ffe57e;fill-opacity:1;fill-rule:evenodd;stroke:none;stroke-width:1.03359854px;stroke-linecap:butt;stroke-linejoin:miter;stroke-opacity:0" inkscape:connector-curvature="0"/>
    <path id="path4659-3" d="m 555.73291,506.81778 1.94877,1.96991 -0.61762,5.68309 -3.8924,0.22643 -2.26053,3.03924 -1.74893,-1.67006 0.10394,-6.45361 3.66857,1.48298 2.7982,-4.27798 z m -0.0931,1.85505 -2.63325,3.96755 -2.869,-1.40539 -0.0683,3.82849 0.82978,1.21093 2.28083,-3.02433 3.00039,0.29136 0.41782,-3.89898 -0.95824,-0.96963 z" style="fill:#ffe57e;fill-opacity:1;fill-rule:evenodd;stroke:none;stroke-width:0.96479154px;stroke-linecap:butt;stroke-linejoin:miter;stroke-opacity:0" inkscape:connector-curvature="0"/>
    <path sodipodi:nodetypes="ccc" inkscape:connector-curvature="0" id="path4548-5" d="m 513.1473,81.616071 c -33.16974,5.832711 -55.92403,-9.771795 -51.13086,-41.931848 6.57178,30.957925 20.03786,40.567903 51.13086,41.931848 z" style="fill:#a07e57;fill-opacity:1;fill-rule:evenodd;stroke:none;stroke-width:1px;stroke-linecap:butt;stroke-linejoin:miter;stroke-opacity:0"/>
    <path id="path4699" d="m 535.35547,370.97266 -12.19727,5.77734 -18.61523,1.71094 -8.77344,5.77734 0.006,0.0156 c 6.47404,2.74069 14.08712,3.35034 24.38867,4.26367 l 4.99024,-1.29492 -3.06641,-4.05469 13.9082,-10.69727 -0.64062,-1.49804 z" style="fill:#d4ffc8;fill-opacity:1;fill-rule:evenodd;stroke:none;stroke-width:1px;stroke-linecap:butt;stroke-linejoin:miter;stroke-opacity:0" inkscape:connector-curvature="0"/>
    <path inkscape:connector-curvature="0" id="path4708" d="m 514.7234,330.98665 2.87471,7.03546 4.3877,2.42081 1.66431,-1.43736 c 0,0 -1.58866,-2.1182 -1.13476,-2.34515 0.45391,-0.22695 2.19386,-4.16076 2.19386,-4.16076 z" style="fill:#ffe57e;fill-opacity:0.4623656;fill-rule:evenodd;stroke:none;stroke-width:1px;stroke-linecap:butt;stroke-linejoin:miter;stroke-opacity:0"/>
    <path inkscape:connector-curvature="0" id="path4710" d="m 526.58224,332.77831 2.67464,3.85148 2.67463,-0.42795 -0.10698,-3.10257 z" style="fill:#ffd2c8;fill-opacity:1;fill-rule:evenodd;stroke:none;stroke-width:1px;stroke-linecap:butt;stroke-linejoin:miter;stroke-opacity:0"/>
    <path id="path4712" d="m 510.68945,280.52734 c -2.24756,2.69669 -4.18927,5.78771 -6.26757,8.71094 l 2.73632,1.6543 0.90821,1.51172 2.79882,-1.66407 -1.74023,-2.64648 1.51367,-2.64844 0.0508,-4.91797 z" style="fill:#ffffa8;fill-opacity:1;fill-rule:evenodd;stroke:none;stroke-width:1px;stroke-linecap:butt;stroke-linejoin:miter;stroke-opacity:0" inkscape:connector-curvature="0"/>
    <path sodipodi:nodetypes="ccccccccc" inkscape:connector-curvature="0" id="path4814" d="m 499.74609,295.66016 -0.46029,3.90622 1.91941,2.00029 7.08169,0.0407 21.09833,5.30156 16.28765,-2.13102 -13.17066,-7.10819 -23.85058,2.3158 z" style="fill:#e9ecf5;fill-opacity:1;fill-rule:evenodd;stroke:none;stroke-width:1px;stroke-linecap:butt;stroke-linejoin:miter;stroke-opacity:0"/>
    <path sodipodi:nodetypes="ccccccccccccc" inkscape:connector-curvature="0" id="path4834" d="m 540.48984,294.79863 4.12018,2.56702 -6.36602,0.48104 5.99038,0.48143 c 1.15316,3.65499 0.60741,7.24369 0.32226,11.01954 l -2.46094,5.45703 1.31446,2.20898 c 0.64559,-2.76614 1.37157,-5.53714 2.00195,-8.30664 l 3.42383,14.76367 c 2.362,-0.94485 4.29851,-1.66344 6.05078,-2.30468 -3.91848,-12.20392 -11.7451,-16.79232 -6.85352,-29.25586 l -2.19336,4.86718 z" style="fill:#e9ecf5;fill-opacity:1;fill-rule:evenodd;stroke:none;stroke-width:1px;stroke-linecap:butt;stroke-linejoin:miter;stroke-opacity:0"/>
    <path sodipodi:nodetypes="cccc" inkscape:connector-curvature="0" id="path4849" d="m 485.36133,302.59766 -0.52539,0.46679 c -1.51127,6.59353 -3.07267,9.07241 -4.82007,15.60574 2.41142,-6.78277 5.74948,-8.8545 5.34546,-16.07253 z" style="fill:#f8ded8;fill-opacity:1;fill-rule:evenodd;stroke:none;stroke-width:1px;stroke-linecap:butt;stroke-linejoin:miter;stroke-opacity:0"/>
  </g>
  <path style="fill:#3d4c4f;fill-opacity:1;fill-rule:evenodd;stroke:none;stroke-width:1px;stroke-linecap:butt;stroke-linejoin:miter;stroke-opacity:0" d="m 37.23917,197.59078 18.248295,24.29359 c -3.964534,0.479 -12.305209,0.8938 -14.055104,7.8978 -1.803114,7.49342 3.56167,8.20746 9.063529,3.89588 7.666422,-5.76494 8.887805,-8.25665 6.970626,-11.60966 L 45.847303,206.37861 c 11.438352,-4.47815 8.72943,-4.11539 17.377449,4.07399 l -0.929931,-2.45067 c -10.47153,-12.8702 -4.309309,-6.48219 -25.055651,-10.41115 z" id="path4286" inkscape:connector-curvature="0" sodipodi:nodetypes="ccccccccc"/>
</svg>