<?xml version="1.0" encoding="UTF-8" standalone="no"?>
<!-- Created with Inkscape (http://www.inkscape.org/) -->

<svg
   xmlns:dc="http://purl.org/dc/elements/1.1/"
   xmlns:cc="http://creativecommons.org/ns#"
   xmlns:rdf="http://www.w3.org/1999/02/22-rdf-syntax-ns#"
   xmlns:svg="http://www.w3.org/2000/svg"
   xmlns="http://www.w3.org/2000/svg"
   xmlns:sodipodi="http://sodipodi.sourceforge.net/DTD/sodipodi-0.dtd"
   xmlns:inkscape="http://www.inkscape.org/namespaces/inkscape"
   version="1.1"
   id="svg6594"
   xml:space="preserve"
   width="446.31042"
   height="341.46652"
   viewBox="0 0 446.31043 341.46652"
   sodipodi:docname="sprites.svg"
   inkscape:version="0.92.4 (5da689c313, 2019-01-14)"><metadata
     id="metadata6600"><rdf:RDF><cc:Work
         rdf:about=""><dc:format>image/svg+xml</dc:format><dc:type
           rdf:resource="http://purl.org/dc/dcmitype/StillImage" /><dc:title></dc:title></cc:Work></rdf:RDF></metadata><defs
     id="defs6598"><clipPath
       clipPathUnits="userSpaceOnUse"
       id="clipPath6610"><path
         d="M 0,256.1 H 334.733 V 0 H 0 Z"
         id="path6608"
         inkscape:connector-curvature="0" /></clipPath><clipPath
       clipPathUnits="userSpaceOnUse"
       id="clipPath6682"><path
         d="m 287.415,144.691 h 9.186 v -4.105 h -9.186 z"
         id="path6680"
         inkscape:connector-curvature="0" /></clipPath><clipPath
       clipPathUnits="userSpaceOnUse"
       id="clipPath6746"><path
         d="M 153.659,34.9201 H 194.61 V 19.4373 h -40.951 z"
         id="path6744"
         inkscape:connector-curvature="0" /></clipPath><clipPath
       clipPathUnits="userSpaceOnUse"
       id="clipPath6762"><path
         d="M 33.7596,248.661 H 327.407 V 1.03952 H 33.7596 Z"
         id="path6760"
         inkscape:connector-curvature="0" /></clipPath></defs><sodipodi:namedview
     pagecolor="#ffffff"
     bordercolor="#666666"
     borderopacity="1"
     objecttolerance="10"
     gridtolerance="10"
     guidetolerance="10"
     inkscape:pageopacity="0"
     inkscape:pageshadow="2"
     inkscape:window-width="1920"
     inkscape:window-height="1136"
     id="namedview6596"
     showgrid="false"
     inkscape:zoom="2.629832"
     inkscape:cx="223.15532"
     inkscape:cy="170.73321"
     inkscape:window-x="0"
     inkscape:window-y="36"
     inkscape:window-maximized="1"
     inkscape:current-layer="g6602" /><g
     id="g6602"
     inkscape:groupmode="layer"
     inkscape:label="publicdomainq-0060091pngusj"
     transform="matrix(1.3333333,0,0,-1.3333333,-1.6812368e-5,341.46666)"><g
       id="g6604"><g
         id="g6606"
         clip-path="url(#clipPath6610)"><g
           id="g6612"
           transform="translate(238.0223,34.9927)"><path
             d="m 0,0 3.561,1.829 c 2.338,-4.58 5.019,-7.9 6.446,-9.644 C 6.35,-6.938 3.945,-6.573 0,0 m 96.595,178.374 -5.623,-5.191 c 1.811,12.707 -2.211,29.757 -11.849,40.345 -1.934,-9.286 -5.74,-28.086 -16.02,-36.015 -13.428,11.605 -34.652,14.102 -65.308,5.69 -10.689,5.228 -25.303,17.09 -36.974,37.905 -13.955,-18.168 -15.255,-39.754 -5.886,-60.753 l -9.934,4.616 c 4.619,-18.577 8.113,-24.718 15.738,-30.223 -2.03,-15.595 -5.185,-28.775 2.163,-38.261 -45.875,-4.765 -70.238,-23.26 -73.224,-55.402 -0.403,-4.34 -4.457,-7.425 -8.736,-6.595 -23.746,4.587 -22.425,35.179 7.472,66.476 15.442,19.747 19.696,36.32 16.058,61.241 -2.185,14.102 -6.538,27 -18.962,37.705 0.496,-4.739 -0.047,-7.713 -1.75,-11.957 -29.286,16.446 -70.079,21.18 -101.903,-10.067 -23.769,-21.618 -26.825,-40.837 -5.906,-56.737 26.179,-12.554 38.693,-0.009 47.101,19.128 3.828,7.42 7.863,10.642 14.823,6.718 12.021,-8.624 1.141,-17.44 -3.984,-24.972 -6.992,-12.284 -10.826,-23.788 -13.695,-34.998 -1.391,1.036 -3.589,5.886 -5.232,8.748 -5.228,-14.822 -8.615,-33.882 -4.263,-46.472 15.979,-44.805 41.46,-62.976 79.358,-66.788 2.694,-0.27 5.102,-1.808 6.49,-4.133 9.588,-16.036 37.883,-13.279 82.472,-10.744 0.988,-0.552 1.991,-1.093 3.008,-1.623 3.114,-1.318 12.593,-1.741 17.336,1.233 3.926,-1.207 9.536,-1.23 10.985,0.731 3.834,-0.217 7.033,0.31 8.361,1.346 2.411,-0.133 4.301,0.404 5.702,1.379 0.359,-0.194 0.715,-0.388 1.077,-0.575 3.117,-1.319 12.593,-1.741 17.336,1.232 3.926,-1.21 9.536,-1.232 10.988,0.728 3.834,-0.213 7.03,0.311 8.358,1.35 13.361,-0.74 10.75,19.025 -2.662,20.684 -2.764,0.772 -12.437,1.601 -17.297,12.37 -2.329,6.217 -2.329,12.043 -1.563,17.71 7.662,6.179 13.644,12.898 15.934,19.957 -4.93,2.913 -8.675,6.341 -11.093,10.68 0.912,2.084 1.36,4.511 1.633,6.595 0.229,1.719 0.299,3.475 0.283,5.207 -0.004,0.435 0.009,0.908 -0.054,1.337 31.144,4.682 50.999,30.671 34.483,70.127 11.176,9.546 15.674,23.724 14.759,40.268"
             style="fill:#b2b2b2;fill-opacity:1;fill-rule:nonzero;stroke:none"
             id="path6614"
             inkscape:connector-curvature="0" /></g><g
           id="g6616"
           transform="translate(334.6176,213.3669)"><path
             d="m 0,0 -5.623,-5.191 c 1.811,12.707 -2.211,29.757 -11.849,40.345 -1.935,-9.286 -5.74,-28.086 -16.021,-36.015 -13.428,11.605 -34.651,14.102 -65.307,5.69 -10.69,5.228 -25.303,17.09 -36.974,37.904 -13.955,-18.167 -15.255,-39.753 -5.887,-60.752 l -9.933,4.616 c 4.619,-18.577 8.113,-24.718 15.738,-30.223 -1.649,-12.667 -4.04,-23.741 -0.942,-32.536 6.277,-5.51 12.926,-10.604 19.99,-15.067 2.794,-1.766 5.66,-3.436 8.59,-4.989 -0.074,-4.776 -0.469,-10.799 -2.6,-15.382 0.932,-1.806 4.488,-5.92 5.798,-7.46 1.22,-1.434 2.465,-2.847 3.474,-4.442 1.004,-1.586 1.825,-3.286 2.468,-5.049 1.376,-3.769 1.929,-7.814 1.847,-11.816 -0.07,-3.482 -0.734,-6.811 -1.515,-10.188 -1.214,-5.255 -2.03,-10.715 -1.802,-16.119 0.171,-4.053 1.06,-8.837 4.158,-11.595 l 3.041,1.562 c 0.553,1.516 1.633,2.924 2.777,4.088 3.098,3.153 7.015,5.508 10.847,7.644 3.438,1.918 6.956,3.691 10.547,5.306 5.114,2.301 10.076,4.881 15.116,7.332 0.24,0.116 0.481,0.231 0.722,0.347 6.236,5.426 11.045,11.235 13.16,17.298 -5.418,2.862 -10.158,6.89 -13.295,12.287 -1.46,2.511 -2.597,9.215 -3.279,14.428 0.638,0.002 1.276,0.006 1.914,0.017 1.441,0.026 2.876,0.066 4.311,-0.098 1.747,-0.2 3.349,-0.732 4.768,-1.711 29.111,6.045 46.893,31.537 31.002,69.501 C -3.583,-30.722 0.915,-16.544 0,0"
             style="fill:#ededed;fill-opacity:1;fill-rule:nonzero;stroke:none"
             id="path6618"
             inkscape:connector-curvature="0" /></g><g
           id="g6620"
           transform="translate(287.6575,174.8547)"><path
             d="M 0,0 C 5.081,26.704 25.944,27.181 27.562,5.526 34,-8.187 47.875,21.968 46.96,38.512 L 41.337,33.321 C 43.148,46.028 39.126,63.078 29.488,73.666 27.553,64.38 23.748,45.58 13.467,37.651 0.04,49.256 -21.184,51.753 -51.84,43.341 c -10.69,5.228 -25.303,17.09 -36.974,37.905 -13.955,-18.168 -15.255,-39.754 -5.887,-60.753 l -9.933,4.616 c 4.619,-18.577 8.113,-24.718 15.738,-30.223 -1.649,-12.667 -4.04,-23.741 -0.942,-32.536 6.277,-5.51 12.926,-10.604 19.99,-15.067 1.515,-0.957 11.628,-6.333 13.184,-7.23 C -84.743,0.468 -23.033,50.212 0,0"
             style="fill:#b2b2b2;fill-opacity:1;fill-rule:nonzero;stroke:none"
             id="path6622"
             inkscape:connector-curvature="0" /></g><g
           id="g6624"
           transform="translate(307.1676,19.8449)"><path
             d="m 0,0 -4.502,6.003 c 1.555,-2.073 0.007,-6.801 -6.741,-1.03 1.263,-6.784 -4.18,-5.135 -11.838,-0.703 5.142,-8.917 -9.302,-2.517 -15.805,-3.389 1.731,-2.196 -1.65,-5.57 -8.322,0 0,0 -1.082,-5.588 -7.496,-0.022 2.762,-3.926 -8.026,-3.924 -14.038,-0.994 8.572,-8.938 -9.907,-1.55 -14.185,-3.537 1.267,-3.969 -4.246,-8.368 -13.127,-7.107 l 0.196,-0.131 c -0.804,0.301 -1.598,0.641 -2.381,1.037 -0.071,0.036 -0.141,0.075 -0.212,0.112 -0.983,0.608 -2.007,1.172 -2.93,1.8 -0.067,0.045 -0.145,0.085 -0.231,0.12 -1.633,1.421 -3.073,3.056 -4.454,4.717 -1.003,1.204 -6.412,8.437 -8.603,6.047 -0.065,10e-4 -0.132,-0.002 -0.193,-0.019 -0.176,-0.006 -0.345,-0.037 -0.485,-0.096 -0.435,-0.184 -10.676,-2.148 -11.03,-2.487 -4.132,-0.949 -6.798,-3.587 -6.656,-8.295 0.136,-4.487 3.085,-7.68 6.996,-8.694 4.84,-1.256 23.046,-0.229 28.036,0.08 2.424,0.15 4.88,0.41 7.233,1.028 0.078,0.02 0.165,0.042 0.257,0.064 0.531,-0.078 1.177,-0.166 1.877,-0.23 l 1.585,-1.056 9.551,-1.91 5.678,2.542 7.678,-1.453 3.972,1.503 7.095,1.501 h 5.457 l 4.094,2.183 3.274,-1.073 6.003,-1.11 13.737,2.293 13.537,0.893 6.047,1.636 c 0,0 1.744,4.933 1.744,5.275 C 0.818,-4.161 0,0 0,0"
             style="fill:#575756;fill-opacity:1;fill-rule:nonzero;stroke:none"
             id="path6626"
             inkscape:connector-curvature="0" /></g><g
           id="g6628"
           transform="translate(136.8721,67.5955)"><path
             d="M 0,0 C -0.006,-1.207 0.795,-2.623 1.498,-3.385 1.931,7.842 3.423,12.612 9.758,19.734 9.525,17.456 9.377,14.481 9.749,11.893 c 2.794,11.519 8.723,20.732 21.478,28.473 -0.945,-1.585 -1.541,-3.946 -2.11,-5.983 12.492,14.02 18.317,17.038 35.343,20.346 -1.005,-0.823 -1.602,-2.226 -2.19,-4.212 6.423,4.291 10.207,5.378 16.45,4.436 -1.602,0.829 -8.406,6.735 -9.626,6.88 C 63.444,62.502 58.213,59.574 52.761,58.544 30.067,58.463 16.04,44.878 14.302,43.72 9.423,40.469 5.56,36.424 2.497,31.438 0.098,27.531 -1.557,23.283 -2.975,18.948 -3.735,16.887 -7.035,1.033 -7.256,0.31 c -2.389,0.391 -7.761,1.017 -10.652,1.577 -23.746,4.587 -22.424,35.179 7.472,66.476 15.442,19.747 19.696,36.32 16.058,61.242 -2.185,14.101 -6.538,26.999 -18.962,37.705 0.496,-4.74 -0.047,-7.714 -1.75,-11.958 -29.286,16.446 -70.079,21.18 -101.903,-10.067 -23.769,-21.618 -26.825,-40.837 -5.906,-56.736 26.179,-12.555 38.693,-0.01 47.101,19.127 3.828,7.421 7.863,10.642 14.823,6.718 12.021,-8.624 1.141,-17.44 -3.984,-24.972 -6.992,-12.284 -10.826,-23.787 -13.695,-34.998 -1.391,1.036 -3.589,5.886 -5.231,8.749 -5.229,-14.823 -8.616,-33.883 -4.264,-46.473 0.857,-2.401 1.741,-4.726 2.652,-6.976 0.512,-0.242 0.942,-0.625 1.183,-1.154 4.373,-9.626 10.866,-18.093 17.358,-26.365 0.245,-0.312 0.498,-0.616 0.745,-0.925 5.711,-5.725 12.126,-10.773 18.88,-15.18 4.477,-2.922 8.973,-5.824 13.531,-8.624 2.221,-0.822 4.484,-1.539 6.77,-2.185 2.918,-0.824 9.553,-2.002 9.982,-1.981 7.58,0.377 14.125,-2.931 19.859,-7.618 -0.038,0.816 -0.038,1.615 -0.007,2.441 C 8.095,-24.9 -10.632,-29.335 0,0"
             style="fill:#575756;fill-opacity:1;fill-rule:nonzero;stroke:none"
             id="path6630"
             inkscape:connector-curvature="0" /></g><g
           id="g6632"
           transform="translate(54.7928,172.4901)"><path
             d="m 0,0 c 0.371,0.02 0.74,0.053 1.11,0.082 0.485,0.251 0.739,0.237 0.72,0.169 0.252,0.034 0.507,0.06 0.712,0.117 0.073,0.02 0.25,0.098 0.416,0.159 0.058,0.039 0.111,0.074 0.147,0.097 0.547,0.476 1.137,0.854 1.761,1.122 0.089,0.199 0.178,0.398 0.266,0.599 1.099,2.128 2.214,3.909 3.41,5.277 -1.911,4.137 -3.423,8.472 -4.387,12.904 -2.473,11.363 -1.606,23.007 3.148,33.653 1.347,3.019 3.042,5.851 5.014,8.477 -16.256,-1.333 -32.635,-7.762 -47.21,-21.578 -0.004,-0.026 -0.009,-0.05 -0.013,-0.074 -0.002,-0.035 -0.004,-0.077 -0.007,-0.129 -0.065,-0.986 -0.185,-1.967 -0.227,-2.955 -0.085,-1.985 -0.038,-3.975 0.13,-5.954 0.046,-0.544 0.103,-1.085 0.165,-1.628 0.132,-1.172 0.047,-0.313 0.009,-0.071 0.142,-0.906 0.295,-1.809 0.478,-2.707 0.332,-1.624 0.711,-3.256 1.212,-4.838 0.272,-0.857 0.593,-1.704 0.922,-2.54 0.027,-0.071 0.056,-0.142 0.085,-0.213 0.011,-0.026 0.055,-0.133 0.149,-0.368 0.018,-0.041 0.035,-0.079 0.049,-0.11 0.609,-1.303 1.222,-2.597 1.919,-3.856 0.766,-1.384 1.601,-2.731 2.507,-4.029 0.251,-0.36 0.514,-0.712 0.776,-1.063 0.059,-0.048 0.917,-1.113 1.067,-1.284 0.973,-1.112 2.008,-2.17 3.108,-3.157 0.421,-0.377 0.854,-0.741 1.294,-1.097 0.029,-0.009 0.684,-0.498 0.971,-0.693 1.205,-0.818 2.469,-1.549 3.782,-2.179 0.062,-0.029 0.166,-0.088 0.278,-0.152 0.224,-0.116 0.539,-0.204 0.749,-0.281 0.694,-0.254 1.397,-0.479 2.109,-0.675 0.721,-0.198 1.451,-0.366 2.186,-0.503 0.028,-0.005 0.338,-0.053 0.586,-0.092 0.253,-0.027 0.56,-0.062 0.584,-0.064 0.933,-0.08 1.867,-0.147 2.8,-0.212 C -4.823,-0.015 -2.406,-0.127 0,0"
             style="fill:#dadada;fill-opacity:1;fill-rule:nonzero;stroke:none"
             id="path6634"
             inkscape:connector-curvature="0" /></g><g
           id="g6636"
           transform="translate(80.1777,172.708)"><path
             d="m 0,0 c 2.284,0.788 4.618,1.421 6.975,1.88 18.197,3.542 38.314,-1.499 52.332,-13.752 3.459,10.711 3.89,22.019 1.861,35.928 -2.186,14.102 -6.538,26.999 -18.963,37.705 0.496,-4.74 -0.047,-7.713 -1.75,-11.957 -4.2,2.359 -8.638,4.473 -13.251,6.278 C 25.146,55.017 23.128,53.878 21.173,52.63 20.223,52.023 19.288,51.391 18.372,50.733 18.024,50.484 17.686,50.22 17.339,49.97 17.197,49.849 17.045,49.737 16.901,49.62 15.243,48.271 13.666,46.819 12.198,45.265 11.437,44.458 10.718,43.619 10.007,42.769 9.911,42.655 9.846,42.579 9.795,42.52 9.753,42.461 9.704,42.393 9.637,42.3 9.348,41.901 9.057,41.503 8.777,41.098 7.501,39.25 6.368,37.305 5.375,35.291 5.075,34.683 4.793,34.067 4.514,33.449 4.508,33.436 4.498,33.413 4.486,33.385 4.421,33.223 4.332,33.005 4.302,32.929 3.865,31.822 3.443,30.7 3.098,29.56 2.638,28.038 2.322,26.462 2.058,24.895 2.008,24.603 1.97,24.308 1.918,24.017 1.911,23.973 1.905,23.941 1.899,23.907 1.896,23.877 1.893,23.85 1.889,23.812 1.817,23.128 1.734,22.444 1.67,21.758 1.08,15.452 1.038,9.129 -0.078,2.875 -0.117,2.657 -0.172,2.447 -0.24,2.244 -0.047,1.494 0.024,0.746 0,0"
             style="fill:#dadada;fill-opacity:1;fill-rule:nonzero;stroke:none"
             id="path6638"
             inkscape:connector-curvature="0" /></g><g
           id="g6640"
           transform="translate(84.1284,121.1818)"><path
             d="m 0,0 c 5.53,-1.783 10.642,-4.434 15.406,-7.734 2.459,-1.705 5.112,-3.728 7.23,-6.091 2.009,4.566 4.726,9.352 8.167,14.254 -0.265,1.486 -0.598,2.949 -1.066,4.387 -0.163,0.5 -0.348,0.99 -0.524,1.486 -0.026,0.074 -0.096,0.25 -0.147,0.377 -0.277,0.626 -0.575,1.244 -0.888,1.851 -1.202,2.327 -2.613,4.586 -4.145,6.712 0.293,-0.427 -0.772,0.927 -1.011,1.192 -0.39,0.434 -0.793,0.857 -1.208,1.268 -0.735,0.728 -1.515,1.395 -2.309,2.056 -0.032,0.023 -0.065,0.045 -0.107,0.074 -0.234,0.161 -0.462,0.328 -0.697,0.487 -0.468,0.319 -0.946,0.624 -1.431,0.917 -0.974,0.588 -1.979,1.126 -3.008,1.613 -0.037,0.018 -0.608,0.271 -0.941,0.423 -0.029,0.012 -0.056,0.022 -0.082,0.034 -0.534,0.199 -1.064,0.405 -1.603,0.591 -1.125,0.39 -2.266,0.733 -3.417,1.037 -2.341,0.62 -4.72,1.043 -7.106,1.444 -0.7,0.118 -1.402,0.232 -2.104,0.338 -0.123,0.019 -0.734,0.07 -0.849,0.117 -0.003,0 -0.004,0.002 -0.007,0.002 -1.156,0.134 -2.313,0.253 -3.475,0.324 -1.325,0.08 -2.653,0.106 -3.979,0.055 -0.62,-0.024 -1.239,-0.064 -1.857,-0.126 -0.082,-0.008 -0.187,-0.01 -0.292,-0.015 -0.062,-0.022 -0.131,-0.043 -0.205,-0.058 -1.169,-0.246 -2.304,-0.533 -3.424,-0.933 0.022,-0.017 -0.791,-0.389 -1.075,-0.554 -0.517,-0.299 -1.006,-0.635 -1.485,-0.99 -0.033,-0.024 -0.067,-0.045 -0.1,-0.068 C -21.363,16.341 -23.819,8.508 -25.802,0.816 -17.489,3.331 -8.118,2.617 0,0"
             style="fill:#dadada;fill-opacity:1;fill-rule:nonzero;stroke:none"
             id="path6642"
             inkscape:connector-curvature="0" /></g><g
           id="g6644"
           transform="translate(70.6516,46.7898)"><path
             d="m 0,0 c -0.767,9.546 3.701,19.54 10.088,26.457 5.82,6.303 13.696,10.225 22.16,11.197 -0.398,2.11 -0.531,4.384 -0.385,6.801 -0.554,0.271 -1.066,0.625 -1.499,1.068 -0.026,0.027 -0.045,0.048 -0.066,0.07 -0.018,0.017 -0.037,0.033 -0.055,0.05 -0.129,0.076 -0.259,0.168 -0.384,0.235 -0.016,0.009 -0.032,0.016 -0.048,0.024 -0.252,0.053 -0.519,0.18 -0.762,0.248 -0.226,0.064 -1.865,0.314 -2.149,0.434 -0.019,0.002 -0.039,0.004 -0.058,0.006 -0.403,0.036 -0.807,0.064 -1.212,0.085 -3.012,0.158 -6.037,-0.041 -9.032,-0.358 -0.579,-0.061 -1.157,-0.129 -1.736,-0.198 -0.083,-0.01 -0.152,-0.013 -0.21,-0.013 C 14.418,46.049 14.179,45.972 14.01,45.939 12.511,45.646 11.026,45.281 9.565,44.835 8.668,44.561 7.781,44.258 6.905,43.926 6.894,43.922 6.679,43.837 6.465,43.754 6.236,43.654 5.766,43.455 5.747,43.446 4.361,42.81 3.011,42.097 1.704,41.312 c -0.786,-0.47 -1.556,-0.967 -2.31,-1.487 -0.273,-0.188 -1.481,-1.087 -1.387,-0.997 -1.052,-0.838 -2.07,-1.717 -3.053,-2.634 -1.245,-1.162 -2.435,-2.38 -3.578,-3.64 -0.561,-0.619 -1.08,-1.283 -1.652,-1.89 1.016,1.077 -0.28,-0.351 -0.517,-0.678 -1.728,-2.384 -3.284,-4.9 -4.647,-7.51 -0.089,-0.172 -0.176,-0.346 -0.264,-0.519 C -11.015,12.093 -5.679,3.88 0.35,-2.896 0.353,-2.868 0.357,-2.84 0.36,-2.813 0.202,-1.886 0.076,-0.95 0,0"
             style="fill:#dadada;fill-opacity:1;fill-rule:nonzero;stroke:none"
             id="path6646"
             inkscape:connector-curvature="0" /></g><g
           id="g6648"
           transform="translate(117.9103,37.7389)"><path
             d="M 0,0 C -0.999,4.783 -1.684,9.619 -1.357,14.515 -0.967,20.33 0.436,26 2.181,31.542 1.776,31.61 1.397,31.677 1.054,31.744 c -2.275,0.439 -4.31,1.127 -6.119,2.024 -0.439,-0.472 -0.872,-0.95 -1.293,-1.439 -0.249,-0.29 -0.494,-0.584 -0.736,-0.88 -0.029,-0.037 -0.092,-0.115 -0.161,-0.2 -0.143,-0.191 -0.449,-0.591 -0.456,-0.602 -0.179,-0.244 -0.354,-0.491 -0.528,-0.738 -0.345,-0.495 -0.681,-0.995 -1.007,-1.503 -0.728,-1.134 -1.408,-2.3 -2.037,-3.492 -0.312,-0.594 -0.612,-1.195 -0.899,-1.801 -0.137,-0.288 -0.595,-1.372 -0.593,-1.338 -0.773,-1.983 -1.459,-3.988 -1.993,-6.052 -0.316,-1.221 -0.587,-2.454 -0.813,-3.696 -0.093,-0.511 -0.178,-1.025 -0.256,-1.539 -0.014,-0.092 -0.026,-0.169 -0.036,-0.234 -0.007,-0.083 -0.021,-0.215 -0.044,-0.423 -0.251,-2.297 -0.356,-4.611 -0.316,-6.922 0.021,-1.196 0.078,-2.392 0.174,-3.585 0.048,-0.597 0.106,-1.194 0.172,-1.79 0.005,-0.049 0.018,-0.198 0.033,-0.361 0.013,-0.078 0.029,-0.177 0.052,-0.314 0.379,-2.304 0.837,-4.582 1.463,-6.832 0.342,-1.234 0.725,-2.457 1.149,-3.666 0.175,-0.498 0.357,-0.993 0.545,-1.486 0.073,-0.194 0.15,-0.387 0.226,-0.579 6.014,-1.931 12.426,-3.288 19.255,-4.149 C 6.11,-18.142 5.459,-16.4 4.871,-14.635 2.425,-10.102 1.018,-4.874 0,0"
             style="fill:#dadada;fill-opacity:1;fill-rule:nonzero;stroke:none"
             id="path6650"
             inkscape:connector-curvature="0" /></g><g
           id="g6652"
           transform="translate(91.5773,31.3007)"><path
             d="m 0,0 c 1.081,-0.451 2.159,-0.908 3.238,-1.364 0.046,-0.019 0.082,-0.034 0.115,-0.049 0.021,-0.009 0.038,-0.015 0.063,-0.026 0.439,-0.184 0.877,-0.369 1.317,-0.551 2.985,-1.241 6,-2.449 9.108,-3.349 2.037,-0.59 4.082,-1.126 6.119,-1.679 -0.964,1.576 -1.843,3.226 -2.626,4.882 -2.109,4.458 -3.311,9.211 -3.471,14.144 -0.168,5.206 0.701,10.153 2.241,15.099 0.716,2.302 1.818,4.424 2.662,6.669 0.495,1.316 1.051,2.689 1.775,3.938 -2.094,0.544 -4.058,1.563 -5.863,3.172 -0.223,0.198 -0.436,0.406 -0.646,0.617 C 13.611,41.335 13.188,41.149 12.76,40.926 10.707,39.856 8.903,38.488 7.333,36.788 4.271,33.471 2.203,29.427 0.728,25.187 -2.02,17.288 -3.057,8.722 -1.387,0.567 -0.924,0.378 -0.461,0.192 0,0"
             style="fill:#dadada;fill-opacity:1;fill-rule:nonzero;stroke:none"
             id="path6654"
             inkscape:connector-curvature="0" /></g><g
           id="g6656"
           transform="translate(100.5827,100.2305)"><path
             d="m 0,0 c -2.088,1.151 -4.283,2.125 -6.617,2.874 -6.158,1.977 -12.663,2.65 -19.077,1.726 -9.693,-1.397 -18.64,-6.599 -24.123,-14.579 0.784,-2.664 1.632,-5.309 2.551,-7.93 1.864,-5.315 3.203,-8.613 5.33,-13.195 0.067,-0.144 0.136,-0.288 0.204,-0.433 0.425,1.103 0.935,2.169 1.524,3.194 1.205,2.095 2.809,4.066 4.41,5.873 3.247,3.665 7.38,6.407 11.609,8.814 4.204,2.392 8.713,4.806 13.545,5.563 3.333,0.521 6.418,-0.447 9.368,-1.823 C -1.38,-6.552 -0.977,-3.162 0,0"
             style="fill:#dadada;fill-opacity:1;fill-rule:nonzero;stroke:none"
             id="path6658"
             inkscape:connector-curvature="0" /></g><g
           id="g6660"
           transform="translate(312.1486,120.9496)"><path
             d="m 0,0 c 3.092,5.956 -16.604,32.708 -26.288,32.708 -9.429,-0.469 -35.221,-11.698 -36.421,-40.634 0,-6.337 11.373,-6.512 16.013,-7.572 C -30.551,-25.388 1.768,-5.64 0,0"
             style="fill:#575756;fill-opacity:1;fill-rule:nonzero;stroke:none"
             id="path6662"
             inkscape:connector-curvature="0" /></g><g
           id="g6664"
           transform="translate(275.1076,162.4453)"><path
             d="m 0,0 c 0,10.974 -1.972,22.302 -13.024,22.302 -11.054,0 -26.05,-8.515 -26.05,-25.817 0,-10.973 9.278,-15.003 20.331,-15.003 C -7.69,-18.518 0,-10.974 0,0"
             style="fill:#575756;fill-opacity:1;fill-rule:nonzero;stroke:none"
             id="path6666"
             inkscape:connector-curvature="0" /></g><g
           id="g6668"
           transform="translate(324.4012,150.5197)"><path
             d="m 0,0 c -0.462,2.376 -0.664,4.78 -1.023,7.168 -1.395,9.254 -6.323,17.678 -9.866,26.418 -4.873,1.709 -9.915,2.081 -14.076,1.323 -10.807,-1.972 -9.946,-13.401 -7.243,-24.131 2.702,-10.73 12.078,-16.736 22.886,-14.764 3.55,0.647 6.802,1.688 9.478,3.171 C 0.1,-0.529 0.05,-0.254 0,0"
             style="fill:#575756;fill-opacity:1;fill-rule:nonzero;stroke:none"
             id="path6670"
             inkscape:connector-curvature="0" /></g><g
           id="g6672"
           transform="translate(305.7383,129.5583)"><path
             d="M 0,0 C -0.469,1.082 -1.48,1.723 -2.64,1.829 -3.109,1.872 -4.233,1.624 -3.716,0.946 -3.52,0.688 -3.325,0.372 -3.158,0.05 c -0.813,-1.254 -1.348,-2.632 -2.431,-3.753 -1.196,-1.239 -2.694,-2.183 -4.239,-2.925 -1.798,-0.864 -3.716,-1.519 -5.679,-2.026 0.071,0.472 0.032,0.958 0.029,1.522 -0.006,1.151 0.003,2.301 -0.029,3.452 -0.043,1.568 0.033,3.273 -0.3,4.841 0.738,0.049 1.474,0.256 2.197,0.684 0.655,0.387 1.198,0.921 1.655,1.526 0.75,0.778 1.392,1.69 1.97,2.517 1.383,1.978 2.631,4.469 2.212,6.959 -0.375,2.224 -2.242,3.413 -4.307,3.872 -2.888,0.642 -6.186,0.385 -9.112,0.191 -3.334,-0.222 -6.592,-0.636 -9.698,-1.918 -0.08,-0.033 -0.399,-0.195 -0.466,-0.252 -2.27,-1.886 0.72,-4.612 2.108,-5.896 2.315,-2.142 4.892,-3.988 7.576,-5.638 1.515,-0.932 3.245,-1.874 5.003,-2.033 -0.085,-1.703 0.238,-3.488 0.278,-5.166 0.022,-0.941 0.037,-1.884 0.012,-2.825 -0.021,-0.739 -0.142,-1.403 -0.03,-2.059 -1.97,-0.462 -3.974,-0.786 -5.938,-1.024 -4.319,-0.524 -9.099,-0.685 -13.117,1.251 -1.71,0.824 -3.216,2.065 -4.336,3.602 -1.101,1.508 -1.489,3.167 -2.099,4.864 0.033,0.014 0.063,0.034 0.097,0.048 0.314,0.13 0.66,0.209 0.951,0.39 0.131,0.081 0.25,0.2 0.372,0.294 0.065,0.038 0.113,0.091 0.146,0.158 0.067,0.126 0.079,0.112 0.037,-0.041 0.593,0.159 0.281,0.725 -0.167,0.807 -0.462,0.085 -0.879,0.282 -1.372,0.282 -0.627,0 -1.237,-0.258 -1.778,-0.549 -0.891,-0.48 -1.561,-1.175 -2.095,-2.026 -0.486,-0.775 1.072,-1.073 1.871,-0.802 0.111,-3.372 3.407,-6.652 6.075,-8.129 4.48,-2.48 9.768,-2.58 14.742,-2.12 5.118,0.473 10.483,1.534 15.139,3.788 2.021,0.978 5.301,2.977 6.631,5.445 0.093,0.009 0.18,0.031 0.254,0.067 0.488,0.236 0.946,0.504 1.145,1.039 C 0.336,-1.033 0.205,-0.472 0,0"
             style="fill:#262626;fill-opacity:1;fill-rule:nonzero;stroke:none"
             id="path6674"
             inkscape:connector-curvature="0" /></g><g
           id="g6676"><g
             id="g6678" /><g
             id="g6690"><g
               clip-path="url(#clipPath6682)"
               id="g6688"
               style="opacity:0.25"><g
                 transform="translate(296.371,142.1622)"
                 id="g6686"><path
                   d="M 0,0 C -1.308,1.253 -2.796,2.051 -4.588,2.384 -5.83,2.615 -8.218,2.744 -8.921,1.373 -8.999,1.22 -8.938,0.992 -8.819,0.879 c 0.691,-0.657 1.77,-0.844 2.671,-1.022 1.213,-0.238 2.43,-0.565 3.539,-1.127 0.672,-0.342 1.488,-0.436 2.181,-0.082 C 0.059,-1.104 0.521,-0.498 0,0"
                   style="fill:#ffffff;fill-opacity:1;fill-rule:nonzero;stroke:none"
                   id="path6684"
                   inkscape:connector-curvature="0" /></g></g></g></g><g
           id="g6692"
           transform="translate(269.7072,158.2986)"><path
             d="M 0,0 C 1.702,7.998 -3.895,14.275 -11.754,13.342 -18.374,12.557 -24.17,7.873 -25.096,1.27 -25.921,-4.609 -20.669,-9.868 -13.025,-10.801 -6.407,-11.609 -1.388,-6.521 0,0"
             style="fill:#2b2600;fill-opacity:1;fill-rule:nonzero;stroke:none"
             id="path6694"
             inkscape:connector-curvature="0" /></g><g
           id="g6696"
           transform="translate(266.1527,158.5401)"><path
             d="m 0,0 c 0,-4.11 -3.332,-7.442 -7.442,-7.442 -4.11,0 -7.442,3.332 -7.442,7.442 0,4.11 3.332,7.442 7.442,7.442 C -3.332,7.442 0,4.11 0,0"
             style="fill:#0a0900;fill-opacity:1;fill-rule:nonzero;stroke:none"
             id="path6698"
             inkscape:connector-curvature="0" /></g><g
           id="g6700"
           transform="translate(267.8012,162.3222)"><path
             d="m 0,0 c 0,-2.807 -2.276,-5.083 -5.083,-5.083 -2.807,0 -5.083,2.276 -5.083,5.083 0,2.807 2.276,5.083 5.083,5.083 C -2.276,5.083 0,2.807 0,0"
             style="fill:#ffffff;fill-opacity:1;fill-rule:nonzero;stroke:none"
             id="path6702"
             inkscape:connector-curvature="0" /></g><g
           id="g6704"
           transform="translate(261.8184,153.189)"><path
             d="m 0,0 c 0,1.155 -0.936,2.092 -2.092,2.092 -1.154,0 -2.091,-0.937 -2.091,-2.092 0,-1.155 0.937,-2.091 2.091,-2.091 C -0.936,-2.091 0,-1.155 0,0"
             style="fill:#ffffff;fill-opacity:1;fill-rule:nonzero;stroke:none"
             id="path6706"
             inkscape:connector-curvature="0" /></g><g
           id="g6708"
           transform="translate(315.8083,159.2514)"><path
             d="m 0,0 c 1.374,7.998 -3.145,14.275 -9.491,13.342 -5.345,-0.785 -10.025,-5.469 -10.773,-12.071 -0.665,-5.88 3.575,-11.139 9.747,-12.072 C -5.173,-11.608 -1.12,-6.521 0,0"
             style="fill:#2b2600;fill-opacity:1;fill-rule:nonzero;stroke:none"
             id="path6710"
             inkscape:connector-curvature="0" /></g><g
           id="g6712"
           transform="translate(313.5639,160.7734)"><path
             d="m 0,0 c 0,-3.662 -2.969,-6.631 -6.632,-6.631 -3.662,0 -6.631,2.969 -6.631,6.631 0,3.663 2.969,6.632 6.631,6.632 C -2.969,6.632 0,3.663 0,0"
             style="fill:#0a0900;fill-opacity:1;fill-rule:nonzero;stroke:none"
             id="path6714"
             inkscape:connector-curvature="0" /></g><g
           id="g6716"
           transform="translate(314.2693,163.2754)"><path
             d="m 0,0 c 0,-2.807 -1.838,-5.083 -4.104,-5.083 -2.267,0 -4.104,2.276 -4.104,5.083 0,2.807 1.837,5.083 4.104,5.083 C -1.838,5.083 0,2.807 0,0"
             style="fill:#ffffff;fill-opacity:1;fill-rule:nonzero;stroke:none"
             id="path6718"
             inkscape:connector-curvature="0" /></g><g
           id="g6720"
           transform="translate(309.4385,154.1422)"><path
             d="m 0,0 c 0,1.155 -0.756,2.091 -1.689,2.091 -0.932,0 -1.688,-0.936 -1.688,-2.091 0,-1.155 0.756,-2.092 1.688,-2.092 C -0.756,-2.092 0,-1.155 0,0"
             style="fill:#ffffff;fill-opacity:1;fill-rule:nonzero;stroke:none"
             id="path6722"
             inkscape:connector-curvature="0" /></g><g
           id="g6724"
           transform="translate(330.8608,208.3734)"><path
             d="m 0,0 c -1.028,-0.906 -2.216,-1.566 -3.276,-2.424 -0.596,-0.483 -1.152,-1.024 -1.706,-1.56 -0.038,0.244 -0.077,0.487 -0.123,0.728 -0.028,0.147 -0.057,0.294 -0.085,0.441 0.29,3.202 0.363,6.427 0.245,9.649 -0.122,3.329 -0.324,6.749 -1.158,9.982 -0.897,3.476 -2.262,6.814 -3.147,10.28 -0.062,0.245 -0.225,0.443 -0.451,0.597 -0.457,1.61 -0.978,3.206 -1.461,4.802 -0.238,0.788 -2.071,0.668 -2.123,-0.183 h -0.024 c 0.149,-2.648 -0.578,-4.976 -1.684,-7.358 -1.003,-2.157 -1.31,-4.586 -2.074,-6.848 -0.869,-2.574 -1.941,-5.083 -3.093,-7.556 -0.415,-0.258 -0.738,-0.597 -0.91,-1.022 -0.673,-1.663 -1.346,-3.327 -2.019,-4.991 -0.242,-0.599 -0.198,-1.103 0.043,-1.512 -0.383,0.003 -0.765,-0.028 -1.137,-0.094 -1.164,-0.206 -3.797,-1.453 -2.805,-3.118 4.023,-7.446 7.901,-14.946 11.191,-22.751 0.048,-0.114 0.108,-0.222 0.174,-0.326 -0.026,-0.513 0.011,-1.065 0.034,-1.531 0.077,-1.536 0.354,-3.082 0.538,-4.609 0.192,-1.595 2.947,-1.415 3.616,-0.308 0.094,0.155 0.185,0.312 0.278,0.468 0.384,0.106 0.712,0.297 0.912,0.59 0.075,0.11 0.144,0.224 0.218,0.335 0.002,0 0.004,-0.001 0.006,-0.001 0.002,0.007 0.005,0.013 0.007,0.02 0.557,0.84 1.071,1.699 1.547,2.575 0.793,0.146 1.48,0.524 1.732,1.153 0.523,0.787 0.992,1.618 1.427,2.476 0.18,0.27 0.358,0.541 0.524,0.816 0.042,0.07 0.081,0.142 0.123,0.212 0.083,0.071 0.157,0.149 0.218,0.234 1.565,2.179 2.645,4.576 3.57,7.053 0.235,0.436 0.454,0.877 0.669,1.287 0.662,1.266 1.173,2.533 1.562,3.909 0.747,2.644 1.117,5.38 1.551,8.088 C 3.124,0.841 0.538,0.474 0,0"
             style="fill:#ededed;fill-opacity:1;fill-rule:nonzero;stroke:none"
             id="path6726"
             inkscape:connector-curvature="0" /></g><g
           id="g6728"
           transform="translate(197.9383,241.5842)"><path
             d="m 0,0 c 0.016,-0.038 0.032,-0.076 0.047,-0.115 -0.044,-0.231 -0.082,-0.465 -0.111,-0.7 0.003,0.199 0.002,0.396 -0.008,0.591 C -0.047,-0.15 -0.024,-0.074 0,0 m 37.961,-28.571 c -0.773,1.851 -3.15,4.018 -5.35,3.068 -1.513,1.056 -3.02,2.12 -4.51,3.209 -3.713,2.713 -7.372,5.554 -10.863,8.547 -3.208,2.752 -6.309,5.602 -9.016,8.853 C 6.835,-3.228 5.527,-1.512 4.309,0.28 3.067,2.107 1.732,3.936 1.206,6.102 c -0.308,1.271 -3.005,1.002 -3.461,0 -1.627,-3.578 -2.388,-7.725 -2.764,-11.623 -0.267,-1.212 -0.435,-2.443 -0.714,-3.65 -0.322,-1.395 -0.942,-2.741 -1.144,-4.164 -0.382,-2.685 -0.168,-5.621 -0.029,-8.32 0.138,-2.675 0.584,-5.349 1.105,-7.974 0.377,-1.9 0.808,-3.799 1.305,-5.683 0.011,-0.095 0.016,-0.193 0.028,-0.288 0.413,-3.181 1.134,-6.393 1.951,-9.491 0.59,-2.239 1.223,-4.469 1.914,-6.68 -2.453,1.219 -4.993,2.413 -7.228,4.012 -0.407,0.688 -1.097,1.568 -1.928,1.166 -0.074,-0.035 -0.148,-0.071 -0.222,-0.107 -0.281,-0.137 -0.571,-0.295 -0.589,-0.648 -0.134,-2.711 1.343,-5.66 2.459,-8.053 0.717,-1.539 1.629,-2.869 2.689,-4.087 0.675,-1.047 1.385,-2.074 2.137,-3.077 1.447,-1.931 2.944,-4.011 4.989,-5.327 -0.432,-0.348 -0.61,-0.814 0.114,-1.183 3.676,-1.873 8.647,-1.385 12.546,-0.466 4.34,1.022 8.383,2.839 11.893,5.603 7.041,5.546 11.934,13.508 13.206,22.431 0.62,4.347 0.199,8.865 -1.502,12.936"
             style="fill:#ededed;fill-opacity:1;fill-rule:nonzero;stroke:none"
             id="path6730"
             inkscape:connector-curvature="0" /></g><g
           id="g6732"
           transform="translate(210.2922,180.3172)"><path
             d="M 0,0 C 2.193,11.482 6.287,19.06 15.59,23.451 5.299,26.589 -3.167,33.366 -7.582,44.702 -10.81,23.013 -8.815,9.301 0,0"
             style="fill:#f48c8c;fill-opacity:1;fill-rule:nonzero;stroke:none"
             id="path6734"
             inkscape:connector-curvature="0" /></g><g
           id="g6736"
           transform="translate(307.75,200.8694)"><path
             d="M 0,0 C 8.305,2.999 11.035,11.639 11.235,18.107 13.51,12.656 13.908,-7.122 7.488,-15.76 7.344,-15.42 0,0 0,0"
             style="fill:#f48c8c;fill-opacity:1;fill-rule:nonzero;stroke:none"
             id="path6738"
             inkscape:connector-curvature="0" /></g><g
           id="g6740"><g
             id="g6742" /><g
             id="g6754"><g
               clip-path="url(#clipPath6746)"
               id="g6752"
               style="opacity:0.30000299"><g
                 transform="translate(190.5765,31.2603)"
                 id="g6750"><path
                   d="M 0,0 C -0.551,1.204 -1.223,2.418 -1.829,3.66 -3.771,1.279 -26.524,-7.059 -36.917,-6.75 c 2.459,-2.899 9.232,-3.445 13.037,-4.455 4.43,-1.176 9.599,-0.405 14.094,0.111 4.477,0.513 8.925,1.526 12.923,3.664 0.296,0.158 0.597,0.327 0.897,0.508 C 2.302,-4.898 1.119,-2.446 0,0"
                   style="fill:#1d1d1b;fill-opacity:1;fill-rule:nonzero;stroke:none"
                   id="path6748"
                   inkscape:connector-curvature="0" /></g></g></g></g><g
           id="g6756"><g
             id="g6758" /><g
             id="g6770"><g
               clip-path="url(#clipPath6762)"
               id="g6768"
               style="opacity:0.30000299"><g
                 transform="translate(94.5122,116.4201)"
                 id="g6766"><path
                   d="M 0,0 C 0.404,2.646 0.994,5.307 1.19,7.97 1.202,8.121 0.892,8.106 0.842,8 -0.847,4.446 -1.2,0.257 -1.048,-3.803 c -0.425,-1.851 -0.738,-3.726 -0.92,-5.616 -1.008,2.492 -1.48,5.199 -1.377,7.885 -1.739,-5.411 -2.234,-11.202 -1.525,-16.839 -0.332,0.876 -0.632,1.769 -0.888,2.692 -0.022,0.079 -0.221,0.07 -0.222,-0.019 -0.026,-1.961 0.635,-3.76 1.56,-5.451 0.603,-3.033 1.56,-5.995 2.87,-8.798 1.293,-2.769 2.926,-5.374 4.835,-7.759 -0.588,0.527 -1.16,1.07 -1.701,1.646 -2.407,2.564 -4.144,5.812 -4.902,9.254 -0.023,0.105 -0.279,0.087 -0.285,-0.024 -0.216,-4.229 2.259,-7.737 5.219,-10.541 1.482,-1.404 3.107,-2.672 4.766,-3.861 0.125,-0.089 0.25,-0.181 0.375,-0.274 3.56,-3.425 7.757,-6.191 12.335,-8.05 l -2.825,2.273 c 1.021,-0.861 2.242,-1.481 3.539,-1.799 -5.497,4.024 -11.227,8.419 -13.713,14.76 -1.482,3.78 -1.667,7.963 -1.235,12 1.147,10.71 6.423,20.545 12.514,29.428 6.09,8.885 13.106,17.158 18.447,26.512 -2.271,-2.735 -4.827,-5.183 -7.508,-7.507 1.723,2.978 3.132,6.73 2.505,9.949 -0.042,0.218 -0.54,0.29 -0.602,0.051 -0.503,-1.928 -0.629,-3.926 -1.243,-5.837 -0.606,-1.887 -1.467,-3.685 -2.552,-5.343 -0.221,-0.339 -0.454,-0.671 -0.694,-0.999 -1.499,-1.234 -3.021,-2.445 -4.542,-3.659 0.776,0.982 1.462,2.016 1.946,3.116 0.136,0.309 -0.483,0.292 -0.619,0.164 -2.104,-1.968 -3.754,-4.45 -5.674,-6.601 -0.252,-0.283 -0.507,-0.564 -0.76,-0.846 -0.591,-0.5 -1.179,-1.003 -1.759,-1.515 0.003,0.006 0.007,0.012 0.01,0.018 1.401,2.766 2.89,5.56 3.634,8.581 0.069,0.283 -0.447,0.285 -0.56,0.097 C 15.825,20.66 14.699,17.804 13.331,15.066 12.91,14.223 12.492,13.379 12.073,12.535 11.958,12.426 11.84,12.32 11.726,12.21 9.027,9.609 6.425,6.554 5.894,2.844 5.964,6.763 6.616,10.671 7.824,14.399 4.351,10.141 1.698,5.225 0,0 m 177.07,-35.615 c 0.079,0.129 0.155,0.262 0.233,0.393 0.635,0.775 1.196,1.628 1.701,2.523 0.025,0.037 0.05,0.074 0.074,0.111 0.014,0.016 0.028,0.032 0.041,0.048 -0.59,-1.057 -1.26,-2.08 -2.049,-3.075 m 55.432,115.05 c -0.229,-0.153 -0.452,-0.311 -0.679,-0.466 -0.146,0.055 -0.358,0.043 -0.439,-0.065 -0.137,-0.181 -0.281,-0.356 -0.425,-0.53 -1.466,-1.037 -2.885,-2.118 -4.295,-3.249 -0.148,-0.034 -0.276,-0.099 -0.355,-0.205 -0.039,-0.052 -0.076,-0.105 -0.114,-0.157 -0.677,-0.514 -1.416,-1.028 -2.127,-1.575 0.323,0.491 0.621,1.011 0.882,1.483 1.156,1.11 2.26,2.284 3.156,3.566 0.061,0.089 -0.117,0.113 -0.167,0.062 -0.807,-0.808 -1.577,-1.647 -2.348,-2.487 1.108,1.874 2.389,3.875 2.62,6.074 0.022,0.209 -0.391,0.185 -0.481,0.083 -1.369,-1.554 -2.219,-3.463 -3.207,-5.265 -0.376,-0.687 -0.761,-1.37 -1.142,-2.054 -0.798,-0.158 -0.623,0.755 -0.688,1.415 -0.13,1.315 -0.095,2.67 -0.044,3.988 0.08,2.08 0.13,4.168 0.22,6.248 0.225,0.637 0.422,1.291 0.597,1.959 0.803,3.079 1.088,6.354 1.337,9.543 0.061,-0.676 0.108,-1.354 0.132,-2.033 0.033,-0.946 0.306,-1.708 0.404,-2.659 0.007,-0.071 0.151,-0.068 0.161,0 0.139,0.873 0.423,1.499 0.413,2.363 -0.008,0.787 -0.068,1.577 -0.14,2.36 -0.056,0.62 -0.128,1.225 -0.255,1.836 -0.082,0.386 -0.171,0.77 -0.265,1.153 -0.056,0.441 -0.225,0.835 -0.505,1.182 0.021,-0.005 0.051,0 0.064,0.011 0.018,0.014 0.035,0.03 0.053,0.044 0.014,0.013 0.009,0.032 0,0.045 -0.015,0.019 -0.03,0.038 -0.045,0.057 -0.037,0.048 -0.128,0.039 -0.169,-0.003 -0.014,0.033 -0.023,0.068 -0.038,0.1 -0.014,0.031 -0.079,0.031 -0.093,0 -0.447,-0.933 -0.426,-2.028 -0.575,-3.044 -0.052,-0.349 -0.109,-0.7 -0.158,-1.052 -0.581,-2.492 -1.45,-4.805 -2.457,-7.128 -0.099,-0.136 -0.201,-0.271 -0.307,-0.403 -0.061,-0.077 -0.126,-0.15 -0.189,-0.224 -0.386,-0.291 -0.828,-0.521 -1.207,-0.583 -0.252,0.016 -0.495,0.108 -0.711,0.328 -0.139,0.14 -0.256,0.306 -0.357,0.487 0.011,0.574 0.078,1.125 0.111,1.407 0.078,0.657 0.198,1.299 0.346,1.932 0.139,0.192 0.275,0.384 0.402,0.574 3.287,4.888 5.627,10.693 7.595,16.223 0.957,2.688 1.872,5.629 1.553,8.512 -0.297,2.68 -1.342,4.836 -3.228,6.742 -0.013,0.013 -0.031,0.025 -0.045,0.038 -0.111,0.772 -2.003,0.744 -2.182,-0.112 -0.048,-0.091 -0.076,-0.196 -0.078,-0.319 0,-0.057 -0.005,-0.111 -0.007,-0.167 -0.028,-0.171 -0.056,-0.341 -0.085,-0.511 -0.301,-0.167 -0.51,-0.424 -0.524,-0.779 -0.055,-1.336 -0.142,-2.664 -0.267,-3.984 -0.199,-0.057 -0.358,-0.164 -0.401,-0.323 -0.382,-1.411 -1.008,-2.716 -1.435,-4.119 -0.421,-1.388 -0.927,-2.735 -1.444,-4.089 -0.65,-1.705 -1.323,-3.389 -2.08,-5.04 -0.568,-1.108 -1.133,-2.22 -1.692,-3.336 -0.05,-0.1 -0.102,-0.2 -0.153,-0.301 -0.059,-0.109 -0.119,-0.218 -0.178,-0.328 -0.971,-1.367 -1.977,-2.717 -2.944,-4.097 -1.263,-1.801 -3.104,-3.911 -3.391,-6.176 -0.301,0.405 -0.602,0.811 -0.916,1.204 -0.038,0.048 -0.218,0.03 -0.177,-0.047 0.354,-0.67 0.715,-1.336 1.077,-2 0.091,-0.984 0.575,-1.823 1.309,-2.405 0.443,-0.815 0.883,-1.631 1.312,-2.455 -0.061,-1.89 0.596,-3.252 1.736,-4.742 0.434,-0.568 0.866,-1.139 1.296,-1.713 0.879,-2.051 1.707,-4.123 2.515,-6.203 0.753,-1.94 1.452,-3.898 2.136,-5.862 0.154,-0.792 0.328,-1.58 0.529,-2.363 0.418,-1.625 0.842,-4.451 2.206,-5.703 0.338,-1.011 0.687,-2.021 1.076,-3.01 0.858,-2.771 1.856,-5.516 2.68,-8.25 0.764,-2.532 1.607,-5.044 2.319,-7.59 0.367,-1.314 0.688,-2.642 0.878,-3.993 0.014,-0.095 0.025,-0.192 0.036,-0.288 -0.124,-2.263 0.235,-4.566 0.307,-6.835 0.092,-2.837 -0.078,-5.579 -0.299,-8.405 -0.007,-0.098 0.088,-0.151 0.2,-0.167 -0.598,-2.26 -1.405,-4.452 -2.485,-6.529 -1.572,-3.024 -3.521,-5.809 -5.756,-8.355 -0.023,-0.01 -0.045,-0.022 -0.061,-0.035 -1.57,-1.253 -2.843,-2.766 -4.254,-4.186 -1.522,-1.532 -3.184,-2.903 -4.91,-4.198 -3.283,-2.461 -6.897,-4.481 -10.733,-5.942 -3.846,-1.465 -7.744,-2.162 -11.808,-2.664 -1.556,-0.192 -3.288,-0.613 -4.333,-1.879 -0.099,-0.121 -0.185,-0.245 -0.263,-0.372 -0.077,-0.031 -0.146,-0.063 -0.205,-0.096 -0.162,0.051 -0.325,0.098 -0.485,0.138 -8.355,2.118 -17.23,1.057 -25.664,2.839 -3.698,0.78 -7.26,2.098 -10.767,3.508 -5.125,2.062 -10.164,4.337 -15.105,6.809 -0.884,0.711 -1.74,1.455 -2.566,2.234 -2.147,2.021 -4.074,4.258 -5.842,6.616 -1.774,2.368 -3.362,4.931 -4.749,7.544 -0.663,1.249 -1.249,2.532 -1.837,3.817 -0.212,0.463 -0.384,1.03 -0.593,1.577 0.534,-0.769 1.102,-1.512 1.705,-2.227 0.499,-0.858 1.074,-1.675 1.858,-2.253 0.087,-0.064 0.331,-0.038 0.297,0.109 -0.142,0.61 -0.44,1.194 -0.786,1.764 -0.463,1.08 -1.215,2.103 -1.754,3.124 -0.198,0.374 -0.387,0.753 -0.57,1.135 -0.464,1.16 -0.921,2.322 -1.313,3.509 -0.374,1.218 -0.662,2.452 -0.911,3.696 0.361,-0.664 0.753,-1.301 1.193,-1.893 0.064,-0.086 0.235,-0.113 0.374,-0.082 0.026,-0.059 0.051,-0.119 0.078,-0.177 0.027,-0.058 0.203,-0.063 0.19,0.016 -0.628,3.733 -1.343,7.457 -1.959,11.195 -0.024,0.36 -0.044,0.72 -0.059,1.082 -0.007,0.162 -0.01,0.324 -0.014,0.487 0.04,-0.289 0.084,-0.579 0.131,-0.868 0.016,-0.094 0.218,-0.1 0.226,0 0.203,2.446 0.082,5.017 -0.343,7.532 -0.01,0.888 -0.055,1.773 -0.152,2.647 -0.028,0.262 -0.062,0.524 -0.098,0.785 -0.078,0.662 -0.18,1.333 -0.312,1.999 0.404,-1.124 0.585,-2.331 1.108,-3.399 0.085,-0.173 0.572,-0.234 0.622,0 0.264,1.231 -0.106,2.585 -0.663,3.841 -0.002,0.905 -0.276,1.829 -0.56,2.73 -0.002,0.753 0.052,1.488 0.232,2.233 0.146,0.607 0.341,0.955 0.279,1.57 -0.009,0.082 -0.137,0.068 -0.181,0.031 -0.392,-0.326 -0.678,-0.749 -0.893,-1.22 -0.641,1.838 -1.721,3.57 -2.693,5.212 -0.361,0.843 -0.728,1.683 -1.075,2.54 -0.05,0.123 -0.275,0.143 -0.395,0.072 -0.096,0.013 -0.204,-0.02 -0.21,-0.11 -0.105,-1.609 0.101,-3.217 0.499,-4.797 -1.756,2.259 -3.972,4.035 -6.304,5.749 -2.638,1.938 -4.956,4.024 -6.828,6.637 -0.144,0.335 -0.298,0.673 -0.462,1.005 0.007,0.158 0.027,0.317 0.052,0.475 1.213,-0.595 2.407,-1.228 3.576,-1.909 0.755,-0.439 1.5,-0.895 2.234,-1.368 0.708,-0.457 1.776,-0.944 2.246,-1.661 0.604,-0.92 3.047,-1.177 3.191,0.272 0.135,1.369 -0.325,2.953 -0.575,4.306 -0.211,1.144 -0.471,2.278 -0.717,3.415 -0.562,2.606 -1.127,5.211 -1.643,7.826 -1.015,5.143 -1.934,10.316 -2.246,15.557 -0.275,4.601 -0.097,9.246 0.785,13.778 0.816,4.193 2.377,8.074 3.765,12.074 0.285,0.533 0.571,1.065 0.857,1.598 0.152,0.283 0.023,0.697 -0.188,0.908 -1.346,1.351 -3.475,1.087 -4.864,-0.073 -1.518,-1.269 -2.529,-3.505 -3.484,-5.204 -2.135,-3.803 -3.694,-7.906 -4.641,-12.162 -0.936,-4.207 -1.231,-8.504 -0.9,-12.802 0.163,-2.115 0.55,-4.192 1.141,-6.231 0.594,-2.043 1.566,-3.747 2.665,-5.492 0.135,-0.634 0.278,-1.265 0.429,-1.894 0.597,-2.47 1.312,-4.914 2.119,-7.323 0.486,-1.449 1.003,-2.941 1.676,-4.343 -0.161,0.1 -0.322,0.198 -0.484,0.29 -1.689,0.961 -3.427,1.829 -5.196,2.634 -0.533,0.242 -1.686,0.149 -1.943,-0.499 -0.003,-0.005 -0.005,-0.011 -0.006,-0.016 -0.09,0.143 -0.184,0.286 -0.285,0.424 -0.215,0.294 -1.167,0.335 -1.268,-0.104 -0.575,-2.491 0.669,-5.697 1.61,-7.989 1.12,-2.729 2.582,-5.288 4.285,-7.693 1.611,-2.277 3.521,-4.282 5.367,-6.364 0.641,-0.722 1.212,-1.454 1.731,-2.207 0.069,-0.171 0.139,-0.341 0.204,-0.513 0.396,-1.034 0.722,-2.13 1.088,-3.208 -0.107,-0.363 -0.213,-0.726 -0.31,-1.091 -1.619,-5.601 -2.695,-11.407 -2.409,-17.227 -0.226,0.138 -0.659,0.084 -0.672,-0.185 -0.176,-3.447 0.096,-6.92 1.245,-10.2 0.605,-1.728 1.504,-3.29 2.549,-4.759 0.704,-1.448 1.653,-2.823 2.524,-4.078 1.585,-2.281 3.526,-4.334 5.557,-6.222 0.665,-0.618 1.356,-1.206 2.058,-1.781 4.593,-5.339 8.834,-10.981 12.679,-16.881 -1.375,3.169 -2.751,6.338 -4.126,9.506 6.093,-6.538 12.508,-13.757 13.382,-22.652 0.081,-0.831 0.114,-1.675 0.355,-2.474 0.213,-0.707 0.583,-1.353 0.918,-2.01 1.402,-2.751 2.223,-5.789 2.436,-8.868 -1.084,-4.808 -2.225,-9.604 -3.268,-14.421 -0.933,-4.313 -1.154,-8.548 -0.647,-12.852 -0.117,-5.079 0.194,-10.35 3.078,-14.458 1.962,0.824 3.888,1.734 5.774,2.719 0.204,-0.203 0.429,-0.383 0.676,-0.537 0.888,-2.676 2.159,-5.172 3.746,-7.478 1.167,-2.231 2.478,-4.378 4.061,-6.375 0.651,-0.82 2.755,-0.941 4.058,-0.441 0.377,-0.162 0.754,-0.312 1.118,-0.454 2.052,-0.8 3.867,-1.848 5.281,-3.58 1.106,-1.355 1.965,-2.913 2.511,-4.56 0.187,-0.851 0.233,-1.899 0.59,-2.698 0.202,-1.838 0.004,-3.712 -0.697,-5.484 -0.249,-0.63 0.323,-1.08 0.833,-1.293 0.512,-0.213 1.074,-0.323 1.642,-0.333 2.879,-1.353 5.979,-1.538 9.04,-0.562 1.2,0.383 2.793,1.201 3.902,2.327 0.333,-0.665 1.732,-0.813 2.393,-0.343 0.459,-0.167 0.921,-0.284 1.311,-0.353 2.143,-0.376 4.686,-0.335 6.694,0.559 0.147,0.065 0.28,0.134 0.409,0.205 0.616,0.171 1.188,0.498 1.696,0.918 0.221,-0.08 0.451,-0.139 0.664,-0.176 0.806,-1.235 4.424,-0.426 5.275,-0.198 0.248,0.067 0.496,0.141 0.741,0.223 1.089,-0.336 2.415,0.289 3.299,0.882 0.155,0.104 0.3,0.21 0.435,0.322 0.81,0.114 1.6,0.407 2.299,0.832 0.781,0.476 1.629,1.351 1.098,2.316 -0.019,0.034 -0.043,0.064 -0.07,0.091 0.585,1.06 0.63,2.212 0.156,3.429 -1.159,2.977 -3.48,5.452 -6.447,6.597 -0.06,0.023 -0.221,0.006 -0.189,-0.092 0.924,-2.827 3.077,-5.494 2.924,-8.59 -0.035,-0.713 -0.149,-1.39 -0.408,-2.043 -0.911,-0.866 -1.735,-1.891 -2.865,-2.406 -1.314,-0.598 -2.873,-1.078 -4.334,-0.936 2.512,1.246 3.775,4.289 2.922,7.074 -0.512,1.672 -1.607,3.19 -3.101,4.101 -0.978,0.597 -2.387,1.648 -3.59,1.439 -0.035,-0.006 -0.064,-0.024 -0.071,-0.059 -0.129,-0.682 1.241,-1.549 1.599,-2.137 0.551,-0.905 1.139,-1.919 1.415,-2.943 0.098,-0.363 0.166,-0.746 0.204,-1.135 -0.032,0.109 -0.066,0.218 -0.102,0.327 -0.046,0.569 -0.238,1.149 -0.615,1.722 -0.112,0.313 -0.791,0.255 -0.842,-0.072 -0.273,-1.757 -0.191,-3.295 -1.808,-4.428 -0.684,-0.479 -1.487,-0.917 -2.306,-1.096 -0.76,-0.167 -1.391,-0.023 -2.046,0.182 -0.191,0.207 -0.385,0.413 -0.579,0.623 -1.056,1.14 -1.824,2.464 -2.749,3.705 -1.648,2.212 -3.74,3.717 -6.225,4.861 -0.082,0.037 -0.275,-0.038 -0.157,-0.128 0.012,-0.009 0.022,-0.018 0.034,-0.027 -0.034,0.016 -0.065,0.034 -0.099,0.05 -0.05,0.023 -0.176,-0.031 -0.098,-0.08 0.26,-0.165 0.51,-0.351 0.752,-0.547 -0.139,-0.015 -0.275,-0.082 -0.166,-0.2 1.355,-1.471 2.233,-3.239 2.679,-5.117 -0.656,-1.759 -2.161,-2.903 -4.137,-3.458 -1.349,-0.378 -2.648,-0.411 -3.654,0.723 -0.259,0.291 -0.514,0.632 -0.757,0.994 -0.241,4.06 -1.956,7.686 -3.25,11.511 -1.418,4.189 -1.448,8.415 -0.874,12.767 0.029,0.219 0.062,0.437 0.096,0.655 1.592,2.756 2.671,5.761 4.129,8.592 0.727,1.414 1.568,2.769 2.468,4.08 0.836,1.217 1.637,2.541 2.52,3.714 0.213,0.284 -0.348,0.339 -0.507,0.247 -0.003,-0.002 -0.006,-0.004 -0.009,-0.006 0.789,1.181 1.563,2.375 2.323,3.585 0.563,0.895 -1.697,1.16 -2.182,0.58 -0.591,-0.707 -1.192,-1.405 -1.792,-2.103 -0.292,-0.161 -0.575,-0.334 -0.851,-0.519 -0.796,0.011 -1.612,-0.242 -2.167,-0.771 -0.545,-0.521 -1.081,-1.048 -1.614,-1.578 -0.512,-0.043 -1,-0.186 -1.353,-0.471 -0.095,-0.066 -0.189,-0.133 -0.284,-0.199 -0.223,-0.077 -0.435,-0.17 -0.63,-0.278 -2.672,-1.488 -5.27,-3.096 -7.791,-4.814 -1.797,-1.089 -3.596,-2.174 -5.392,-3.266 -1.067,-0.632 -2.125,-1.28 -3.178,-1.937 -0.519,-0.252 -1.042,-0.493 -1.571,-0.723 -0.093,0.126 -0.185,0.253 -0.279,0.379 5.223,3.374 10.043,7.373 14.305,11.902 -4.283,-2.618 -8.938,-4.621 -13.777,-5.956 2.096,1.147 4.516,2.501 6.008,4.336 0.24,0.296 -0.372,0.344 -0.532,0.259 -2.909,-1.54 -5.462,-3.802 -8.383,-5.31 -1.636,-0.355 -3.288,-0.638 -4.95,-0.837 8.291,5.876 16.388,12.55 21.275,21.46 -3.381,-4.346 -7.161,-8.446 -11.684,-11.588 -0.495,-0.345 -1.002,-0.676 -1.517,-0.995 1.831,1.671 3.477,3.545 4.801,5.64 0.105,0.167 -0.322,0.225 -0.413,0.11 -2.087,-2.629 -4.31,-5.112 -6.969,-7.179 -0.028,-0.022 -0.056,-0.043 -0.084,-0.064 -1.58,-0.791 -3.225,-1.448 -4.912,-1.944 0.072,0.333 0.146,0.666 0.224,0.998 0.013,0.011 0.027,0.022 0.04,0.033 0.773,0.658 1.47,1.452 2.131,2.28 0.12,0.131 0.239,0.263 0.355,0.396 0.836,0.719 1.606,1.501 2.255,2.355 0.168,0.221 -0.291,0.259 -0.418,0.154 -0.084,-0.071 -0.168,-0.143 -0.252,-0.214 -0.063,0.044 -0.205,0.05 -0.243,-0.007 -0.12,-0.177 -0.246,-0.347 -0.373,-0.515 -0.963,-0.82 -1.922,-1.631 -2.924,-2.396 0.485,1.498 1.094,3.016 1.4,4.533 1.711,2.19 3.257,4.509 4.611,6.937 -2.997,-2.885 -6.335,-5.415 -9.922,-7.519 4.145,4.537 7.259,10.012 9.04,15.895 -2.229,-3.532 -4.928,-6.764 -7.993,-9.599 0.501,1.809 0.957,3.633 1.423,5.462 0.137,0.401 0.276,0.801 0.416,1.202 -0.023,-0.126 -0.05,-0.253 -0.072,-0.38 -0.012,-0.068 0.134,-0.058 0.158,-0.013 1.641,3.109 2.507,6.844 2.923,10.505 0.113,-1.988 -0.188,-4 -0.901,-5.86 0.013,0.012 0.024,0.026 0.037,0.038 -0.287,-0.806 -0.529,-1.623 -0.62,-2.452 -0.006,-0.062 0.125,-0.064 0.151,-0.026 0.749,1.085 1.206,2.368 1.604,3.651 2.161,2.352 3.932,5.058 5.229,7.976 -0.318,-1.169 -0.633,-2.335 -0.729,-3.515 -0.017,-0.206 0.37,-0.152 0.443,-0.038 1.091,1.7 1.426,4.024 1.688,6.033 0.25,-1.629 0.496,-3.258 0.695,-4.892 0.058,-0.474 0.115,-0.949 0.159,-1.426 0.009,-0.937 0.008,-1.874 0.037,-2.81 -0.107,-1.071 -0.385,-2.121 -0.528,-3.19 -0.014,-0.109 0.015,-0.197 0.069,-0.268 -0.522,-0.979 -1.08,-1.938 -1.611,-2.913 -0.037,-0.038 -0.057,-0.077 -0.063,-0.115 -0.254,-0.47 -0.503,-0.942 -0.734,-1.426 -0.042,-0.088 0.139,-0.081 0.177,-0.047 0.017,0.015 0.031,0.032 0.048,0.046 0.188,-0.153 0.652,-0.149 0.835,-0.054 1.92,0.99 3.725,2.082 5.426,3.3 -0.795,-0.748 -1.569,-1.516 -2.303,-2.322 -0.069,-0.075 0.104,-0.107 0.152,-0.073 1.958,1.369 3.787,2.909 5.589,4.479 1.607,0.928 3.187,1.903 4.737,2.923 3.309,1.866 6.423,4.013 9.073,6.682 -1.391,-2.747 -3.03,-5.379 -4.208,-8.218 -0.074,-0.178 0.303,-0.208 0.383,-0.102 0.592,0.778 1.15,1.591 1.679,2.428 0.045,-0.018 0.116,-0.016 0.146,0.011 2.659,2.507 5.237,5.655 6.584,9.085 0.637,1.624 1.042,3.345 1.312,5.066 0.006,0.041 0.01,0.081 0.016,0.122 0.056,-0.2 0.115,-0.4 0.175,-0.597 -0.025,-0.801 -0.012,-1.604 0.05,-2.404 0.05,-0.635 0.751,-0.975 1.482,-1.016 0.711,-0.434 2.141,-0.207 1.931,0.719 -0.072,0.313 -0.135,0.628 -0.2,0.943 0.204,3.72 0.235,7.413 0.954,11.093 0.075,0.386 -0.444,0.644 -0.79,0.747 0.161,0.045 0.324,0.083 0.488,0.117 1.71,0.352 3.469,0.444 5.184,0.795 3.723,0.762 7.344,1.99 10.766,3.639 3.256,1.57 6.362,3.489 9.144,5.803 2.606,2.168 5.98,4.955 7.128,8.245 0.006,0.015 0.007,0.028 0.01,0.042 2.282,2.435 4.205,5.131 5.667,8.288 1.098,2.369 2.029,4.84 2.678,7.37 0.602,2.352 1.168,5.163 0.822,7.583 -0.008,0.057 -0.089,0.087 -0.157,0.083 0.003,0.144 0.008,0.289 0.01,0.432 0.03,2.448 0.044,5.006 -0.566,7.386 -0.164,0.963 -0.421,1.913 -0.639,2.77 -0.672,2.654 -1.565,5.263 -2.433,7.857 -0.67,2.006 -1.282,4.068 -1.922,6.125 -0.213,1.705 -0.657,3.405 -1.178,5.081 0.703,-0.126 1.535,0.117 1.522,0.756 -0.001,0.038 -0.005,0.074 -0.006,0.111 0.013,0.054 0.024,0.109 0.024,0.169 0,0.072 -0.007,0.146 -0.008,0.218 0.037,0.12 0.067,0.245 0.081,0.383 0.002,0.016 0.002,0.032 0.004,0.049 0.234,0.187 0.383,0.442 0.386,0.769 0.014,1.847 -0.144,3.645 -0.459,5.429 0.851,1.775 2.101,3.309 3.475,4.741 0.09,0.093 0.181,0.186 0.271,0.279 0.107,0.092 0.215,0.183 0.321,0.274 0.024,0.021 0.022,0.038 0.008,0.051 0.76,0.733 1.498,1.488 2.002,2.346 0.038,0.064 -0.105,0.068 -0.135,0.049 -1.105,-0.686 -2.101,-1.677 -3.023,-2.702 -0.313,-0.24 -0.617,-0.491 -0.909,-0.755 0.058,0.106 0.116,0.212 0.174,0.318 0.064,0.062 0.124,0.124 0.188,0.186 0.11,0.107 0.119,0.2 0.072,0.275 0.35,0.612 0.711,1.218 1.087,1.816 0.012,0.019 0.025,0.037 0.037,0.056 0.784,1.051 1.564,2.103 2.339,3.161 0.661,0.616 1.303,1.257 1.929,1.932 0.163,0.177 -0.245,0.247 -0.355,0.173 M 163.127,-99.216 c -0.077,0.034 -0.221,0.018 -0.261,-0.067 -0.031,-0.065 -0.058,-0.131 -0.08,-0.197 -0.051,0.075 -0.1,0.15 -0.154,0.226 -0.031,0.044 -0.171,0.031 -0.147,-0.039 0.069,-0.207 0.142,-0.413 0.215,-0.619 -0.064,-0.815 0.398,-1.647 0.706,-2.398 0.036,-0.088 0.068,-0.177 0.103,-0.266 0.009,-0.049 0.02,-0.097 0.029,-0.146 0.158,-0.941 -0.019,-1.927 0.264,-2.833 -0.161,-0.589 -0.279,-1.192 -0.422,-1.787 -0.437,-0.579 -0.796,-1.228 -1.256,-1.801 -0.44,-0.549 -0.953,-1.022 -1.545,-1.406 -0.152,-0.099 -0.636,-0.412 -1.077,-0.627 -0.006,0.016 -0.011,0.033 -0.022,0.046 1.9,4.361 -0.932,8.636 -4.529,11.122 -0.329,0.227 -1.779,0.159 -1.42,-0.522 1.393,-2.643 3.397,-4.911 3.296,-7.725 -0.243,-0.061 -0.437,-0.207 -0.447,-0.438 -0.009,-0.169 -0.029,-0.327 -0.056,-0.481 -0.141,-0.504 -0.502,-1.039 -0.736,-1.54 -1.378,-1.524 -4.276,-1.713 -6.505,-2.149 -0.409,0.102 -0.889,0.128 -1.379,0.153 0.883,2.265 0.325,4.692 -1.046,6.66 -1.705,2.446 -4.309,3.255 -6.663,4.863 -0.345,0.237 -1.259,-0.077 -0.748,-0.472 1.805,-1.398 2.657,-3.552 2.846,-5.783 0.035,-0.413 0.069,-0.874 0.084,-1.353 -0.06,-0.663 -0.105,-1.328 -0.121,-1.993 -0.001,-0.057 0.002,-0.11 0.002,-0.166 -0.044,-0.257 -0.102,-0.509 -0.176,-0.75 -0.581,-0.419 -1.009,-1.011 -1.651,-1.422 -1.355,-0.869 -2.968,-1.083 -4.544,-1.098 -0.859,-0.008 -1.781,-0.04 -2.677,0.035 -0.028,0.017 -0.056,0.03 -0.084,0.047 -2.096,1.326 -2.317,4.401 -4.144,6.078 -1.091,1 -2.6,1.363 -3.97,1.924 -3.572,1.462 -6.638,5.64 -4.842,9.057 -1.475,-1.323 -2.688,-2.938 -3.546,-4.725 -1.848,2.367 -3.725,4.815 -5.351,7.377 -0.364,1.374 -0.762,2.741 -1.065,4.13 -0.491,2.26 -0.642,4.589 -1.336,6.798 -0.069,0.222 -0.53,0.165 -0.57,-0.048 -0.408,-2.155 0.003,-4.311 0.508,-6.421 -1.216,2.632 -2.041,5.392 -2.209,8.311 -0.573,-1.778 -1.146,-3.556 -1.718,-5.334 -0.055,0.272 -0.11,0.545 -0.153,0.818 -0.211,1.338 -0.341,2.689 -0.439,4.041 -0.197,2.716 0.062,5.426 -0.233,8.131 -0.019,0.178 -0.384,0.197 -0.443,0.039 -0.856,-2.292 -0.94,-4.695 -0.808,-7.112 -0.503,2.7 -0.807,5.426 -0.768,8.17 0.073,5.165 1.437,10.434 4.6,14.519 -5.186,-0.332 -10.095,-3.546 -12.473,-8.167 0.005,0.268 0.016,0.535 0.026,0.802 0.084,0.251 0.175,0.5 0.268,0.748 2.019,2.899 4.596,5.26 7.586,7.349 0.148,0.103 -0.111,0.182 -0.205,0.129 -1.943,-1.077 -4.007,-2.379 -5.72,-3.982 1.353,2.34 3.029,4.503 4.563,6.722 0.095,0.138 -0.174,0.157 -0.251,0.092 -2.454,-2.078 -4.425,-4.502 -5.852,-7.395 -0.041,-0.084 -0.083,-0.171 -0.124,-0.257 0.507,4.305 1.652,8.535 3.396,12.504 -2.158,-1.756 -3.995,-3.891 -5.443,-6.265 0.03,0.159 0.058,0.319 0.091,0.477 0.599,2.895 1.489,5.731 2.377,8.547 0.868,2.752 1.683,5.504 2.289,8.328 0.46,2.14 1.325,5.223 0.396,7.373 0.318,1.227 0.592,2.468 0.818,3.726 0.525,1.178 0.946,2.393 1.037,3.544 0.021,0.259 -0.521,0.267 -0.631,0.108 -1.286,-1.862 -1.971,-4.31 -2.888,-6.38 -0.3,-0.676 -0.611,-1.347 -0.924,-2.016 -0.017,-0.013 -0.032,-0.028 -0.047,-0.043 0.169,1.684 0.2,3.383 0.098,5.074 0.682,2.334 1.067,4.737 0.999,7.198 -0.003,0.138 -0.32,0.157 -0.348,0.03 -0.337,-1.549 -0.63,-3.105 -0.915,-4.664 -0.399,2.81 -1.171,5.568 -2.311,8.168 -1.798,-0.577 -2.811,-2.411 -3.886,-3.963 -0.537,-0.775 -1.234,-1.546 -2.024,-2.065 0.678,1.205 1.231,2.565 1.254,3.941 0.004,0.261 -0.475,0.206 -0.57,0.049 -0.606,-0.997 -0.984,-2.083 -1.421,-3.16 -0.188,-0.464 -0.368,-0.93 -0.553,-1.395 -0.423,-0.094 -0.86,-0.098 -1.305,0.019 -1.79,0.47 -2.535,2.554 -3.001,4.346 -0.797,-2.154 -1.041,-4.506 -0.724,-6.78 -0.157,-0.039 -0.309,-0.079 -0.451,-0.115 -1.868,-0.475 -3.702,-1.147 -5.47,-1.907 -3.449,-1.485 -6.562,-3.404 -9.37,-5.897 -0.147,-0.131 0.205,-0.218 0.304,-0.149 2.502,1.765 5.166,3.382 7.922,4.72 1.359,0.659 2.754,1.243 4.178,1.748 0.819,0.291 1.706,0.639 2.607,0.881 -7.344,-3.445 -13.764,-8.84 -18.412,-15.489 1.953,1.422 4.029,2.675 6.192,3.752 -4.652,-3.405 -8.923,-7.489 -12.36,-12.136 -0.314,-0.591 -0.619,-1.189 -0.905,-1.797 -0.873,-2.393 -1.794,-4.769 -2.695,-7.153 -0.079,-0.264 -0.16,-0.527 -0.236,-0.792 0.241,0.073 0.447,0.195 0.56,0.376 0.062,0.101 0.127,0.201 0.19,0.302 0.374,-0.046 0.777,0.03 0.962,0.271 0.016,0.022 0.035,0.043 0.051,0.065 0.105,0.039 0.194,0.085 0.249,0.142 3.126,3.166 6.252,6.333 9.377,9.499 1.389,1.036 2.798,2.041 4.241,2.998 4.508,1.932 8.928,4.039 13.25,6.363 2.529,0.625 5.098,1.047 7.689,1.385 0.912,0.02 1.824,0.006 2.735,-0.048 -3.322,-13.169 -6.672,-26.668 -5.284,-40.179 1.532,0.866 3.064,1.732 4.596,2.599 0.605,0.342 1.304,0.695 1.964,0.476 0.647,-0.216 0.997,-0.898 1.285,-1.517 2.507,-5.391 5.323,-10.638 8.431,-15.706 1.486,-2.424 3.059,-4.831 5.121,-6.787 1.589,-1.507 3.433,-2.711 5.29,-3.878 0.643,-0.773 1.307,-1.529 2.076,-2.194 2.162,-1.87 5.561,-4.031 8.605,-4.484 1.847,-1.137 3.729,-2.223 5.726,-3.037 0.264,-0.391 0.637,-0.741 0.987,-0.977 1.588,-1.071 3.864,-1.048 5.698,-1.067 1.845,-0.019 3.786,0.128 5.465,0.962 0.524,0.261 1.49,0.822 2.05,1.483 0.169,-0.216 0.378,-0.414 0.641,-0.59 1.421,-0.947 4.256,-1.19 5.834,-0.231 1.804,-0.009 3.813,0.512 5.338,1.058 0.434,0.155 0.851,0.351 1.237,0.585 0.146,-0.12 0.35,-0.228 0.625,-0.322 0.8,-0.273 1.92,-0.16 2.624,0.387 1.062,0.009 2.954,1.075 3.289,1.349 0.038,0.031 0.074,0.065 0.112,0.097 0,-0.111 0.01,-0.219 0.034,-0.326 0.17,-0.748 1.89,-0.783 2.365,-0.178 2.245,0.572 3.095,3.655 2.773,5.619 -0.426,2.597 -1.9,5.171 -4.384,6.27 m -83.759,-13.309 c -1.557,0.633 -3.262,0.715 -4.906,0.973 -1.858,0.291 -3.698,0.726 -5.49,1.295 -3.602,1.144 -6.94,2.832 -10.129,4.846 -3.078,1.944 -5.855,4.25 -8.493,6.75 -1.339,1.268 -2.603,2.606 -3.887,3.929 -0.144,0.149 -0.285,0.301 -0.426,0.456 -0.9,1.26 -1.776,2.532 -2.59,3.853 -0.463,0.753 -0.903,1.561 -1.378,2.34 -2.621,5.333 -6.063,10.377 -10.362,14.452 -0.103,0.098 -0.372,0.103 -0.515,0.029 -0.04,0.028 -0.14,0.024 -0.137,-0.033 0.042,-0.943 0.387,-1.903 0.748,-2.831 0.087,-0.279 0.203,-0.565 0.324,-0.836 0.056,-0.147 0.111,-0.293 0.162,-0.437 0.515,-1.453 1.075,-2.891 1.611,-4.336 0.248,-0.67 0.481,-1.364 0.714,-2.064 -0.137,0.165 -0.276,0.333 -0.41,0.497 -1.391,1.695 -2.833,3.348 -4.229,5.04 -0.845,1.025 -1.786,2.056 -2.656,3.13 -0.97,1.606 -2.153,3.17 -2.989,4.834 -0.051,0.101 -0.315,0.089 -0.28,-0.049 0.007,-0.031 0.014,-0.062 0.021,-0.093 -0.045,0.008 -0.098,-0.004 -0.101,-0.047 -0.137,-2.723 0.547,-5.566 1.459,-8.159 0.055,-0.197 0.107,-0.394 0.165,-0.59 -0.05,-0.125 -0.049,-0.269 0.037,-0.434 0.104,-0.236 0.205,-0.473 0.308,-0.71 0.212,-0.679 0.436,-1.355 0.666,-2.028 -1.462,0.897 -2.946,1.752 -4.417,2.581 -7.45,4.202 -15.377,8.614 -19.562,16.074 1.282,-5.82 3.937,-11.332 7.69,-15.962 -18.054,9.805 -35.338,23.524 -42.464,42.792 1.306,-1.301 2.611,-2.602 3.916,-3.903 -5.462,11.803 -10.887,24.272 -10.097,37.255 3.401,-7.408 7.61,-14.444 12.529,-20.943 -1.984,12 0.547,24.692 6.982,35.013 l -7.55,-6.173 c 5.046,7.405 9.824,14.992 14.325,22.739 2.011,2.406 3.938,4.873 5.577,7.556 0.112,0.183 -0.322,0.199 -0.413,0.11 -0.679,-0.671 -1.338,-1.358 -1.987,-2.055 0.63,1.181 1.205,2.348 1.741,3.509 1.289,1.655 2.49,3.383 3.559,5.227 0.097,0.167 -0.299,0.198 -0.383,0.102 -0.607,-0.694 -1.203,-1.398 -1.793,-2.107 0.445,1.12 0.855,2.24 1.234,3.367 0.438,0.523 0.815,1.101 1.14,1.6 1.253,1.924 2.205,3.989 2.975,6.15 1.357,3.806 2.699,8.789 1.548,12.796 -0.085,0.294 -0.824,0.301 -0.902,0 C -0.19,61.283 -0.241,59.477 -0.496,57.745 -0.792,55.74 -1.223,53.737 -1.8,51.795 -1.985,51.17 -2.194,50.553 -2.415,49.94 c 0.596,2.595 1.102,5.288 1.573,8.149 0.667,4.055 0.876,8.249 0.514,12.362 0.295,2.517 0.33,5.063 0.054,7.54 -0.016,0.138 -0.308,0.139 -0.323,0 -0.115,-1.071 -0.226,-2.142 -0.336,-3.212 -0.911,4.683 -2.653,9.15 -5.418,13.048 1.976,-2.941 2.359,-6.887 0.986,-10.153 -0.687,0.502 -1.41,0.986 -2.162,1.451 -3.526,2.642 -7.483,4.739 -11.474,6.627 -0.866,0.493 -1.767,0.926 -2.728,1.264 -0.102,0.035 -0.267,0.022 -0.421,-0.022 -0.56,0.259 -1.122,0.513 -1.688,0.761 -0.076,0.033 -0.191,0.027 -0.298,-0.004 -0.392,0.212 -0.784,0.424 -1.177,0.63 -0.1,0.053 -0.358,-0.046 -0.205,-0.129 0.064,-0.035 0.128,-0.073 0.193,-0.108 -0.114,-0.026 -0.204,-0.099 -0.08,-0.183 0.243,-0.166 0.483,-0.334 0.725,-0.5 -0.006,-0.033 0.013,-0.069 0.075,-0.105 0.197,-0.115 0.392,-0.234 0.588,-0.351 0.032,-0.022 0.064,-0.044 0.096,-0.066 0.007,-0.039 0.035,-0.08 0.09,-0.117 0,0 -0.003,-0.002 -0.004,-0.003 0.151,-0.081 0.299,-0.166 0.449,-0.249 1.066,-0.737 2.129,-1.479 3.188,-2.227 -2.759,0.688 -5.598,1.142 -8.411,1.322 -2.912,1.042 -6.253,1.202 -9.126,0.481 -0.34,-0.085 -0.251,-0.418 0.086,-0.4 1.43,0.078 2.804,0.056 4.151,-0.058 -5.313,-0.302 -10.291,-1.723 -14.157,-4.567 2.851,1.31 8.728,-0.696 12.709,-2.063 -1.085,-0.202 -2.106,-0.507 -2.815,-0.726 -3.272,-1.011 -5.984,-3.095 -8.753,-5.026 -0.198,-0.138 0.147,-0.242 0.274,-0.173 2.518,1.372 5.142,2.682 7.84,3.669 1.134,0.415 2.211,0.716 3.288,0.921 -7.845,-2.376 -17.372,-8.522 -19.247,-15.858 0.956,1.483 4.624,2.719 7.449,3.581 -0.59,-0.531 -1.116,-1.068 -1.529,-1.494 -2.07,-2.134 -3.261,-4.755 -4.512,-7.412 -0.047,-0.1 0.172,-0.108 0.217,-0.038 1.19,1.833 2.559,3.519 3.976,5.173 -0.408,-0.867 -0.74,-1.898 -1.083,-3.233 -1.072,-4.173 -6.696,-8.849 -10.912,-9.741 3.059,-0.112 9.629,-2.154 11.485,0.28 -0.429,-3.649 -2.277,-7.111 -5.069,-9.498 3.131,1.42 5.397,4.21 7.433,6.981 2.875,3.911 5.536,7.981 7.967,12.183 1.616,2.792 3.175,5.701 5.57,7.862 3.581,3.231 8.915,4.385 13.51,2.922 4.596,-1.462 8.282,-5.486 9.337,-10.192 0.429,-1.913 0.445,-3.931 -0.059,-5.827 -0.739,-2.777 -2.526,-5.135 -4.203,-7.468 -9.527,-13.25 -16.733,-28.162 -21.194,-43.859 -1.89,1.08 -3.405,2.802 -4.236,4.815 -2.942,-4.223 -3.711,-9.539 -4.399,-14.64 -1.309,-9.71 -2.506,-20.134 1.986,-28.841 4.545,-8.809 9.265,-16.841 14.802,-25.063 5.537,-8.222 12.311,-15.761 20.68,-21.072 5.349,-3.395 11.25,-5.822 17.203,-7.992 5.891,-2.148 11.899,-4.07 18.097,-5.017 2.311,-0.353 4.661,-0.574 6.886,-1.293 2.071,-0.669 4.004,-1.761 6.129,-2.232 0.009,0.024 0.014,0.053 0.022,0.078 0.497,-1.546 1.114,-3.079 2.41,-4.058 0.274,-0.208 0.69,-0.235 1.035,-0.115 1.436,-1.595 3.11,-2.997 4.89,-4.171 0.261,-0.172 0.526,-0.34 0.793,-0.503 0.267,-0.266 0.543,-0.53 0.834,-0.79 0.11,-0.098 0.427,-0.095 0.496,0.026 1.612,-0.875 3.31,-1.601 5.055,-2.14 1.022,-0.316 2.612,-0.822 4.089,-0.936 1.204,-0.368 2.448,-0.629 3.645,-0.613 1.853,-0.471 3.89,-0.935 5.767,-0.563 2.976,-0.784 6.421,-1.405 9.16,-0.351 0.497,0.19 0.481,0.665 0,0.861"
                   style="fill:#1d1d1b;fill-opacity:1;fill-rule:nonzero;stroke:none"
                   id="path6764"
                   inkscape:connector-curvature="0" /></g></g></g></g><g
           id="g6772"
           transform="translate(257.0796,108.6738)"><path
             d="m 0,0 c -19.061,3.345 -35.128,10.766 -49.386,22.593 -11.9,11.468 -1.277,42.505 -1.277,42.505 -8.717,2.319 -13.164,7.402 -16.919,18.622 2.789,-2.071 5.331,-3.205 9.896,-4.863 -8.152,18.317 -10.909,47.333 -0.639,59.109 8.803,-15.099 21.954,-27.247 35.465,-35.148 C 39.208,123.328 48.42,98.73 57.524,67.312 81.668,16.484 39.208,-11.789 0,0 m 25.306,-10.804 c -0.111,-1.518 -0.251,-3.043 -0.457,-4.552 -0.966,2.69 -1.509,5.696 -1.602,9.089 0.706,0.05 1.404,0.117 2.1,0.19 -0.108,-1.55 0.077,-3.17 -0.041,-4.727 m 7.929,-20.045 c -7.291,-14.626 -31.78,-28.178 -54.078,-38.896 -4.491,14.181 2.688,26.392 2.37,39.468 -0.848,8.875 -6.15,15.245 -13.869,23.641 -0.242,0.261 -0.645,0.359 -0.998,0.146 -0.432,-0.263 -0.502,-0.851 -0.19,-1.252 7.735,-9.937 11.96,-17.157 12.411,-22.996 0.652,-11.179 -10.016,-29.998 0.492,-45.875 2.777,-4.721 10.998,-7.688 17.523,-9.451 11.758,-2.116 10.201,-17.154 4.248,-16.694 2.141,3.066 1.496,11.395 -3.794,14.591 -0.552,0.353 -1.403,0.407 -1.966,0.197 -0.727,-0.27 -0.759,-0.832 -0.514,-1.401 6.572,-3.012 9.002,-14.286 -1.443,-14.372 3.79,5.661 -2.166,17.062 -12.081,14.779 -2.941,-0.846 -1.08,-2.32 1.509,-1.624 l -0.009,0.01 c 6.88,0.918 11.69,-7.729 9.4,-12.084 -2.7,-2.174 -6.03,-3.371 -11.135,-2.161 1.693,2.659 -1.658,16.567 -13.425,14.057 -2.941,-0.845 -1.08,-2.316 1.509,-1.623 l -0.009,0.009 c 7.163,0.957 12.081,-8.453 9.082,-12.599 -6.423,-2.49 -10.515,-1.324 -12.834,0.118 -2.646,1.652 -5.439,3.062 -8.272,4.362 -11.97,5.492 -19.585,17.405 -25.633,35.128 -2.967,-0.889 -5.455,-2.697 -7.374,-4.711 -2.211,6.096 -0.006,19.877 2.71,28.924 1.312,4.375 2.163,8.873 2.71,13.406 0.289,2.411 0.683,4.896 1.188,8.457 0.063,0.444 -0.203,0.895 -0.642,0.994 -0.489,0.108 -0.946,-0.219 -1.026,-0.69 -0.365,-2.169 -0.883,-5.251 -1.337,-8.18 -0.156,-0.987 -0.324,-1.975 -0.508,-2.96 -1.348,0.337 -3.371,-0.092 -4.397,-0.213 -2.348,-0.273 -4.667,-0.851 -6.935,-1.506 -4.47,-1.286 -8.774,-3.18 -12.774,-5.55 -3.98,-2.36 -7.713,-5.235 -10.963,-8.532 -3.122,-3.171 -6.28,-7.034 -7.376,-11.421 -0.149,-0.6 0.906,-0.632 1.197,-0.318 2.873,3.092 5.36,6.516 8.286,9.572 2.938,3.072 6.197,5.798 9.774,8.098 3.498,2.242 7.24,4.063 11.17,5.413 3.802,1.309 7.748,1.966 11.678,2.738 -0.522,-2.519 -1.154,-5.016 -1.922,-7.471 -2.809,-8.984 -4.851,-21.221 -2.262,-35.526 2.732,3.339 4.876,3.984 6.995,4.524 1.505,-5.117 3.267,-9.446 5.382,-13.226 -0.044,-0.021 -0.088,-0.042 -0.132,-0.064 -0.103,-0.021 -0.207,-0.043 -0.31,-0.065 0.013,-0.025 0.028,-0.051 0.042,-0.076 -0.903,-0.5 -1.735,-1.186 -2.665,-1.647 -1.375,-0.682 -2.868,-1.19 -4.36,-1.544 -3.267,-0.774 -6.647,-1.081 -9.996,-1.171 -3.515,-0.093 -6.974,0.1 -10.443,0.678 -3.735,0.621 -6.935,1.931 -10.362,3.462 -0.103,0.046 -0.439,-0.026 -0.297,-0.187 2.278,-2.579 6.134,-4.113 9.4,-5.055 3.852,-1.11 7.972,-1.428 11.961,-1.562 3.863,-0.129 7.78,-0.014 11.555,0.888 0.275,0.065 0.55,0.135 0.824,0.207 0.705,-0.142 1.394,-0.417 2.057,-0.901 2.104,-1.537 3.138,-4.386 2.723,-6.93 -0.344,-2.102 -1.717,-4.16 -3.545,-5.323 -28.832,-1.849 -43.869,-0.4 -50.724,13.15 -1.42,2.811 -4.26,4.648 -7.408,4.721 -30.434,3.186 -53.837,8.904 -77.443,61.648 -2.439,12.03 -2.497,21.637 1.458,33.028 0.966,-1.82 4.59,-4.006 6.455,-4.924 2.351,12.596 7.412,26.377 15.878,41.251 7.176,12.303 14.787,22.659 0.479,31.478 -9.73,4.225 -16.515,-0.102 -20.871,-9.162 -9.921,-16.376 -17.383,-26.386 -38.423,-15.15 -20.01,13.079 -14.787,26.402 5.741,45.91 31.529,30.567 69.961,27.39 94.082,10.134 2.818,-2.417 4.426,-3.879 6.719,-6.312 1.188,3.685 2.735,5.346 2.935,11.351 5.258,-6.996 7.828,-15.471 9.601,-23.01 3.195,-15.814 0.117,-38.747 -16.713,-61.447 -34.538,-44.065 -31.761,-68.018 3.478,-74.981 4.27,-0.845 8.358,2.167 8.797,6.496 2.932,28.994 17.691,54.221 73.293,56.759 C -37.114,8.358 -20.109,-1.385 0,-4.447 6.62,-5.915 13.092,-6.566 19.254,-6.452 20.001,-21.055 25.859,-27.844 33.235,-30.849 M -9.05,-81.496 c -3.657,0.877 -6.062,1.242 -10.007,7.815 l 3.561,1.829 c 2.338,-4.58 5.019,-7.9 6.446,-9.644 m 31.884,8.996 c 2.777,-4.72 10.998,-7.69 17.523,-9.453 11.761,-2.113 10.201,-17.152 4.247,-16.691 2.145,3.065 1.497,11.392 -3.793,14.591 -0.552,0.349 -1.4,0.406 -1.966,0.197 -0.727,-0.27 -0.759,-0.832 -0.514,-1.404 6.572,-3.009 9.003,-14.283 -1.442,-14.372 3.792,5.664 -2.167,17.065 -12.078,14.781 -2.945,-0.848 -1.084,-2.319 1.505,-1.626 l -0.009,0.01 c 6.881,0.921 11.69,-7.727 9.403,-12.085 -2.703,-2.173 -6.033,-3.367 -11.138,-2.157 1.697,2.659 -1.658,16.564 -13.421,14.057 -2.945,-0.845 -1.084,-2.319 1.505,-1.623 l -0.009,0.009 c 7.163,0.957 12.081,-8.453 9.082,-12.598 -6.433,-2.494 -10.524,-1.322 -12.84,0.123 -0.382,0.238 -0.766,0.471 -1.154,0.696 2.3,5.261 -0.127,15.267 -13.431,17.736 -1.309,3.573 -5.715,9.803 -6.48,11.903 8.221,4.394 23.152,12.923 30.547,18.435 -0.61,-6.846 0.105,-13.94 4.463,-20.529 m -86.314,-30 c 1.155,1.256 1.991,2.794 2.335,4.548 0.706,3.598 -1.227,7.363 -4.388,9.156 -0.187,0.106 -0.377,0.201 -0.568,0.292 0.422,0.173 0.841,0.357 1.255,0.555 0.502,0.242 1.294,0.577 2.053,1 3.877,-5.714 8.8,-10.132 15.218,-14.303 -5.689,-0.465 -10.98,-0.893 -15.905,-1.248 M 61.019,132.436 c 6.906,-10.316 7.719,-21.072 7.732,-38.357 l 6.341,4.048 C 75.66,88.644 68.713,76.76 60.844,69.876 58.76,81.932 54.79,91.757 48.687,99.092 c 6.41,5.706 11.328,18 12.332,33.344 m 16.519,-27.743 -5.623,-5.191 c 1.811,12.707 -2.211,29.757 -11.849,40.345 -1.935,-9.286 -5.74,-28.086 -16.021,-36.015 -13.428,11.605 -34.651,14.102 -65.307,5.69 -10.69,5.228 -25.302,17.09 -36.974,37.905 -13.955,-18.168 -15.255,-39.754 -5.887,-60.753 l -9.933,4.616 c 4.619,-18.577 8.113,-24.718 15.738,-30.223 -2.03,-15.595 -5.185,-28.775 2.163,-38.261 -45.876,-4.765 -70.238,-23.26 -73.224,-55.402 -0.404,-4.34 -4.457,-7.425 -8.736,-6.595 -23.746,4.587 -22.425,35.179 7.471,66.476 15.442,19.747 19.696,36.32 16.059,61.241 -2.186,14.102 -6.538,27 -18.962,37.705 0.496,-4.739 -0.048,-7.713 -1.75,-11.957 -29.287,16.446 -70.08,21.18 -101.904,-10.067 -23.768,-21.618 -26.825,-40.837 -5.905,-56.737 26.179,-12.554 38.692,-0.009 47.101,19.128 3.828,7.42 7.862,10.642 14.823,6.718 12.021,-8.625 1.14,-17.44 -3.984,-24.972 -6.992,-12.284 -10.826,-23.788 -13.695,-34.998 -1.391,1.035 -3.59,5.886 -5.232,8.748 -5.229,-14.822 -8.615,-33.883 -4.263,-46.472 15.979,-44.805 41.459,-62.976 79.358,-66.788 2.694,-0.27 5.102,-1.808 6.49,-4.133 9.588,-16.036 37.883,-13.279 82.471,-10.744 0.989,-0.552 1.992,-1.093 3.009,-1.623 3.113,-1.318 12.592,-1.741 17.335,1.233 3.927,-1.208 9.537,-1.23 10.986,0.73 3.834,-0.216 7.033,0.311 8.361,1.347 2.411,-0.133 4.301,0.404 5.702,1.379 0.359,-0.194 0.715,-0.388 1.077,-0.575 3.116,-1.319 12.592,-1.741 17.335,1.232 3.927,-1.21 9.537,-1.232 10.989,0.728 3.834,-0.213 7.03,0.311 8.358,1.35 13.361,-0.74 10.75,19.025 -2.662,20.684 -2.764,0.772 -12.437,1.601 -17.297,12.37 -2.329,6.217 -2.329,12.043 -1.564,17.71 7.663,6.179 13.644,12.898 15.935,19.957 -4.931,2.913 -8.676,6.341 -11.093,10.68 0.912,2.084 1.359,4.511 1.633,6.595 0.228,1.719 0.298,3.475 0.282,5.207 -0.003,0.435 0.01,0.908 -0.054,1.337 31.145,4.682 51,30.671 34.484,70.127 11.176,9.546 15.674,23.724 14.759,40.268"
             style="fill:#2b2b2b;fill-opacity:1;fill-rule:nonzero;stroke:none"
             id="path6774"
             inkscape:connector-curvature="0" /></g></g></g></g></svg>