<?xml version="1.0" encoding="UTF-8" standalone="no"?>
<!-- Created with Inkscape (http://www.inkscape.org/) -->

<svg
   xmlns:dc="http://purl.org/dc/elements/1.1/"
   xmlns:cc="http://creativecommons.org/ns#"
   xmlns:rdf="http://www.w3.org/1999/02/22-rdf-syntax-ns#"
   xmlns:svg="http://www.w3.org/2000/svg"
   xmlns="http://www.w3.org/2000/svg"
   xmlns:sodipodi="http://sodipodi.sourceforge.net/DTD/sodipodi-0.dtd"
   xmlns:inkscape="http://www.inkscape.org/namespaces/inkscape"
   version="1.1"
   id="svg834"
   xml:space="preserve"
   width="742.26544"
   height="712.49005"
   viewBox="0 0 742.26544 712.49005"
   sodipodi:docname="sprites.svg"
   inkscape:version="0.92.4 (5da689c313, 2019-01-14)"><metadata
     id="metadata840"><rdf:RDF><cc:Work
         rdf:about=""><dc:format>image/svg+xml</dc:format><dc:type
           rdf:resource="http://purl.org/dc/dcmitype/StillImage" /><dc:title></dc:title></cc:Work></rdf:RDF></metadata><defs
     id="defs838"><clipPath
       clipPathUnits="userSpaceOnUse"
       id="clipPath876"><path
         d="m 3539.85,3340.45 c 0,-873.62 -700.58,-1111.9 -1564.65,-1111.9 -864.25,0 -1564.747,317.57 -1564.747,1111.9 0,778.32 700.497,1111.92 1564.747,1111.92 864.07,0 1564.65,-317.57 1564.65,-1111.92 z"
         id="path874"
         inkscape:connector-curvature="0" /></clipPath></defs><sodipodi:namedview
     pagecolor="#ffffff"
     bordercolor="#666666"
     borderopacity="1"
     objecttolerance="10"
     gridtolerance="10"
     guidetolerance="10"
     inkscape:pageopacity="0"
     inkscape:pageshadow="2"
     inkscape:window-width="1920"
     inkscape:window-height="1136"
     id="namedview836"
     showgrid="false"
     inkscape:zoom="1.0799673"
     inkscape:cx="609.11801"
     inkscape:cy="356.22074"
     inkscape:window-x="0"
     inkscape:window-y="36"
     inkscape:window-maximized="1"
     inkscape:current-layer="g844" /><g
     id="g842"
     inkscape:groupmode="layer"
     inkscape:label="ink_ext_XXXXXX"
     transform="matrix(1.3333333,0,0,-1.3333333,-44.72707,772.02265)"><g
       id="g844"
       transform="scale(0.1)"><g
         id="g935"
         transform="matrix(-1,0,0,1,6237.8969,0)"><path
           inkscape:connector-curvature="0"
           id="path846"
           style="fill:#ffffff;fill-opacity:1;fill-rule:nonzero;stroke:none"
           d="m 2744.34,3334.4 c 0,0 -375.58,2334.67 923.24,2380.77 0,0 2381.45,-26.87 -242.77,-3200.88" /><path
           inkscape:connector-curvature="0"
           id="path848"
           style="fill:none;stroke:#442c1a;stroke-width:150;stroke-linecap:round;stroke-linejoin:round;stroke-miterlimit:10;stroke-dasharray:none;stroke-opacity:1"
           d="m 2744.34,3334.4 c 0,0 -375.58,2334.67 923.24,2380.77 0,0 2381.45,-26.87 -242.77,-3200.88" /><path
           inkscape:connector-curvature="0"
           id="path850"
           style="fill:#ffffff;fill-opacity:1;fill-rule:nonzero;stroke:none"
           d="m 3184.38,3159.02 c 0,0 1833.4,1455.46 2496.88,363.28 0,0 1120.41,-2056.45 -2877.35,-1345.12" /><path
           inkscape:connector-curvature="0"
           id="path852"
           style="fill:none;stroke:#442c1a;stroke-width:150;stroke-linecap:round;stroke-linejoin:round;stroke-miterlimit:10;stroke-dasharray:none;stroke-opacity:1"
           d="m 3184.38,3159.02 c 0,0 1833.4,1455.46 2496.88,363.28 0,0 1120.41,-2056.45 -2877.35,-1345.12" /><path
           inkscape:connector-curvature="0"
           id="path854"
           style="fill:#8c8166;fill-opacity:1;fill-rule:nonzero;stroke:none"
           d="m 3502.84,2633.62 c 0,0 472.75,-190.62 679.49,-941.21 C 4443.85,743.582 3783.5,358.039 3340.34,584.398 2897.08,810.77 3296,1239.68 3236.92,1597.1 c -43.16,260.84 -295.51,619.53 -295.51,619.53" /><path
           inkscape:connector-curvature="0"
           id="path856"
           style="fill:none;stroke:#442c1a;stroke-width:150;stroke-linecap:round;stroke-linejoin:round;stroke-miterlimit:10;stroke-dasharray:none;stroke-opacity:1"
           d="m 3502.84,2633.62 c 0,0 472.75,-190.62 679.49,-941.21 C 4443.85,743.582 3783.5,358.039 3340.34,584.398 2897.08,810.77 3296,1239.68 3236.92,1597.1 c -43.16,260.84 -295.51,619.53 -295.51,619.53" /><path
           inkscape:connector-curvature="0"
           id="path858"
           style="fill:#b7a984;fill-opacity:1;fill-rule:nonzero;stroke:none"
           d="m 3820.32,2610.19 c 55.08,-344.34 -234.67,-676.96 -647.27,-743.08 -412.59,-66 -791.69,159.68 -846.87,504.01 -55.08,344.33 234.67,676.96 647.27,742.97 412.59,66.02 791.69,-159.57 846.87,-503.9" /><path
           inkscape:connector-curvature="0"
           id="path860"
           style="fill:none;stroke:#442c1a;stroke-width:150;stroke-linecap:round;stroke-linejoin:round;stroke-miterlimit:10;stroke-dasharray:none;stroke-opacity:1"
           d="m 3820.32,2610.19 c 55.08,-344.34 -234.67,-676.96 -647.27,-743.08 -412.59,-66 -791.69,159.68 -846.87,504.01 -55.08,344.33 234.67,676.96 647.27,742.97 412.59,66.02 791.69,-159.57 846.87,-503.9 z" /><path
           inkscape:connector-curvature="0"
           id="path862"
           style="fill:none;stroke:#442c1a;stroke-width:150;stroke-linecap:round;stroke-linejoin:round;stroke-miterlimit:10;stroke-dasharray:none;stroke-opacity:1"
           d="M 2507.33,2109.4 2185.65,1644.76" /><path
           inkscape:connector-curvature="0"
           id="path864"
           style="fill:none;stroke:#442c1a;stroke-width:150;stroke-linecap:round;stroke-linejoin:round;stroke-miterlimit:10;stroke-dasharray:none;stroke-opacity:1"
           d="m 3055.38,2061.75 c 0,0 -131.06,-595.7 -154.88,-631.45" /><path
           inkscape:connector-curvature="0"
           id="path866"
           style="fill:#d8c8a3;fill-opacity:1;fill-rule:nonzero;stroke:none"
           d="m 3539.85,3340.45 c 0,-873.62 -700.58,-1111.9 -1564.65,-1111.9 -864.25,0 -1564.747,317.57 -1564.747,1111.9 0,778.32 700.497,1111.92 1564.747,1111.92 864.07,0 1564.65,-317.57 1564.65,-1111.92" /><path
           inkscape:connector-curvature="0"
           id="path868"
           style="fill:none;stroke:#442c1a;stroke-width:150;stroke-linecap:round;stroke-linejoin:round;stroke-miterlimit:10;stroke-dasharray:none;stroke-opacity:1"
           d="m 3539.85,3340.45 c 0,-873.62 -700.58,-1111.9 -1564.65,-1111.9 -864.25,0 -1564.747,317.57 -1564.747,1111.9 0,778.32 700.497,1111.92 1564.747,1111.92 864.07,0 1564.65,-317.57 1564.65,-1111.92 z" /><g
           id="g870"><g
             clip-path="url(#clipPath876)"
             id="g872"><path
               inkscape:connector-curvature="0"
               id="path878"
               style="fill:#f57a8f;fill-opacity:1;fill-rule:nonzero;stroke:none"
               d="m 1518.47,3020.73 c 0,-338.86 -274.71,-613.47 -613.575,-613.47 -338.872,0 -613.582,274.61 -613.582,613.47 0,338.87 274.71,613.67 613.582,613.67 338.865,0 613.575,-274.8 613.575,-613.67" /><path
               inkscape:connector-curvature="0"
               id="path880"
               style="fill:#f57a8f;fill-opacity:1;fill-rule:nonzero;stroke:none"
               d="m 3722.56,3008.82 c 0,-338.87 -274.7,-613.48 -613.57,-613.48 -338.86,0 -613.57,274.61 -613.57,613.48 0,338.87 274.71,613.67 613.57,613.67 338.87,0 613.57,-274.8 613.57,-613.67" /></g></g><path
           inkscape:connector-curvature="0"
           id="path882"
           style="fill:none;stroke:#442c1a;stroke-width:150;stroke-linecap:round;stroke-linejoin:round;stroke-miterlimit:10;stroke-dasharray:none;stroke-opacity:1"
           d="m 3539.85,3340.45 c 0,-873.62 -700.58,-1111.9 -1564.65,-1111.9 -864.25,0 -1564.747,317.57 -1564.747,1111.9 0,778.32 700.497,1111.92 1564.747,1111.92 864.07,0 1564.65,-317.57 1564.65,-1111.92 z" /><path
           inkscape:connector-curvature="0"
           id="path884"
           style="fill:#442c1a;fill-opacity:1;fill-rule:nonzero;stroke:none"
           d="m 1375.5,3419.95 c 0,-217.18 -106.74,-393.16 -238.28,-393.16 -131.65,0 -238.286,175.98 -238.286,393.16 0,217.09 106.636,393.17 238.286,393.17 131.54,0 238.28,-176.08 238.28,-393.17" /><path
           inkscape:connector-curvature="0"
           id="path886"
           style="fill:#442c1a;fill-opacity:1;fill-rule:nonzero;stroke:none"
           d="m 2971.98,3396.12 c 0,-217.18 -106.74,-393.17 -238.28,-393.17 -131.64,0 -238.28,175.99 -238.28,393.17 0,217.09 106.64,393.17 238.28,393.17 131.54,0 238.28,-176.08 238.28,-393.17" /><path
           inkscape:connector-curvature="0"
           id="path888"
           style="fill:#d8c8a3;fill-opacity:1;fill-rule:nonzero;stroke:none"
           d="M 1625.69,3181.67 684.484,1716.24 2209.48,2967.22" /><path
           inkscape:connector-curvature="0"
           id="path890"
           style="fill:none;stroke:#442c1a;stroke-width:150;stroke-linecap:round;stroke-linejoin:round;stroke-miterlimit:10;stroke-dasharray:none;stroke-opacity:1"
           d="M 1625.69,3181.67 684.484,1716.24 2209.48,2967.22" /><path
           inkscape:connector-curvature="0"
           id="path892"
           style="fill:#d8c8a3;fill-opacity:1;fill-rule:nonzero;stroke:none"
           d="m 2221.4,2466.83 c 0,0 405.07,-83.4 440.81,262.11" /><path
           inkscape:connector-curvature="0"
           id="path894"
           style="fill:none;stroke:#442c1a;stroke-width:150;stroke-linecap:round;stroke-linejoin:round;stroke-miterlimit:10;stroke-dasharray:none;stroke-opacity:1"
           d="m 2221.4,2466.83 c 0,0 405.07,-83.4 440.81,262.11" /><path
           inkscape:connector-curvature="0"
           id="path896"
           style="fill:#d8c8a3;fill-opacity:1;fill-rule:nonzero;stroke:none"
           d="m 1315.93,5087.82 274.02,-881.55" /><path
           inkscape:connector-curvature="0"
           id="path898"
           style="fill:none;stroke:#442c1a;stroke-width:150;stroke-linecap:round;stroke-linejoin:round;stroke-miterlimit:10;stroke-dasharray:none;stroke-opacity:1"
           d="m 1315.93,5087.82 274.02,-881.55" /><path
           inkscape:connector-curvature="0"
           id="path900"
           style="fill:#d8c8a3;fill-opacity:1;fill-rule:nonzero;stroke:none"
           d="m 2495.42,5099.74 47.65,-881.54" /><path
           inkscape:connector-curvature="0"
           id="path902"
           style="fill:none;stroke:#442c1a;stroke-width:150;stroke-linecap:round;stroke-linejoin:round;stroke-miterlimit:10;stroke-dasharray:none;stroke-opacity:1"
           d="m 2495.42,5099.74 47.65,-881.54" /></g></g></g></svg>