<?xml version="1.0" encoding="UTF-8" standalone="no"?>
<svg
   xmlns:dc="http://purl.org/dc/elements/1.1/"
   xmlns:cc="http://creativecommons.org/ns#"
   xmlns:rdf="http://www.w3.org/1999/02/22-rdf-syntax-ns#"
   xmlns:svg="http://www.w3.org/2000/svg"
   xmlns="http://www.w3.org/2000/svg"
   xmlns:sodipodi="http://sodipodi.sourceforge.net/DTD/sodipodi-0.dtd"
   xmlns:inkscape="http://www.inkscape.org/namespaces/inkscape"
   id="svg2"
   height="506.103"
   width="267.18515"
   version="1"
   sodipodi:docname="ENFP-boy.svg"
   inkscape:version="1.0.2 (e86c870879, 2021-01-15)">
  <defs
     id="defs706" />
  <sodipodi:namedview
     pagecolor="#ffffff"
     bordercolor="#666666"
     borderopacity="1"
     objecttolerance="10"
     gridtolerance="10"
     guidetolerance="10"
     inkscape:pageopacity="0"
     inkscape:pageshadow="2"
     inkscape:window-width="1694"
     inkscape:window-height="1103"
     id="namedview704"
     showgrid="false"
     inkscape:zoom="1.3067132"
     inkscape:cx="314.71013"
     inkscape:cy="247.25999"
     inkscape:window-x="81"
     inkscape:window-y="36"
     inkscape:window-maximized="0"
     inkscape:current-layer="svg2"
     inkscape:document-rotation="0" />
  <metadata
     id="metadata1099">
    <rdf:RDF>
      <cc:Work
         rdf:about="">
        <dc:format>image/svg+xml</dc:format>
        <dc:type
           rdf:resource="http://purl.org/dc/dcmitype/StillImage" />
        <dc:title>Inkscape Logo</dc:title>
      </cc:Work>
    </rdf:RDF>
  </metadata>
  <title
     id="title7387">Inkscape Logo</title>
  <style
     id="style26">.specularity{opacity:.5}.low-specularity{opacity:.25}.full-specularity{opacity:1}.black{fill:#000}.white{fill:#fff}.outline-big{stroke-width:16;stroke:none;opacity:.1;fill:none}.outline-small{stroke-width:8}.outline-small,.stroke-highlight{fill:none;stroke:none;opacity:.2}.base-shadow{fill:#000;opacity:75}</style>
  <g
     word-spacing="0"
     letter-spacing="0"
     font-family="Sans"
     font-weight="400"
     id="g453"
     transform="matrix(-1,0,0,1,299.495,-33.98)">
    <text
       id="text7291"
       font-size="40px"
       line-height="125%"
       y="5958.8462"
       x="1563.6021" />
    <text
       id="text3990"
       font-size="21.941px"
       line-height="125%"
       y="535.28699"
       x="112.047"
       fill="#c6ae8b" />
    <text
       id="text4030"
       font-size="21.941px"
       line-height="125%"
       y="567.06897"
       x="460.207"
       fill="#c6ae8b" />
  </g>
  <ellipse
     id="path5574"
     style="isolation:auto;mix-blend-mode:normal"
     stroke-linecap="round"
     stroke-opacity="0"
     fill-opacity="0.104"
     rx="99.858002"
     ry="16.643"
     cy="489.45999"
     cx="-113.805"
     overflow="visible"
     stroke-width="10"
     transform="scale(-1,1)" />
  <style
     id="style26-0">.specularity{opacity:.5}.low-specularity{opacity:.25}.full-specularity{opacity:1}.black{fill:#000}.white{fill:#fff}.outline-big{stroke-width:16;stroke:none;opacity:.1;fill:none}.outline-small{stroke-width:8}.outline-small,.stroke-highlight{fill:none;stroke:none;opacity:.2}.base-shadow{fill:#000;opacity:75}</style>
  <style
     id="style26-1">.specularity{opacity:.5}.low-specularity{opacity:.25}.full-specularity{opacity:1}.black{fill:#000}.white{fill:#fff}.outline-big{stroke-width:16;stroke:none;opacity:.1;fill:none}.outline-small{stroke-width:8}.outline-small,.stroke-highlight{fill:none;stroke:none;opacity:.2}.base-shadow{fill:#000;opacity:75}</style>
  <style
     id="style26-8">.specularity{opacity:.5}.low-specularity{opacity:.25}.full-specularity{opacity:1}.black{fill:#000}.white{fill:#fff}.outline-big{stroke-width:16;stroke:none;opacity:.1;fill:none}.outline-small{stroke-width:8}.outline-small,.stroke-highlight{fill:none;stroke:none;opacity:.2}.base-shadow{fill:#000;opacity:75}</style>
  <style
     id="style26-2">.specularity{opacity:.5}.low-specularity{opacity:.25}.full-specularity{opacity:1}.black{fill:#000}.white{fill:#fff}.outline-big{stroke-width:16;stroke:none;opacity:.1;fill:none}.outline-small{stroke-width:8}.outline-small,.stroke-highlight{fill:none;stroke:none;opacity:.2}.base-shadow{fill:#000;opacity:75}</style>
  <g
     word-spacing="0"
     letter-spacing="0"
     font-family="Sans"
     font-weight="400"
     id="g475"
     transform="matrix(-1,0,0,1,299.495,-33.98)">
    <text
       id="text7291-3"
       font-size="40px"
       line-height="125%"
       y="5955.3608"
       x="2306.093" />
    <text
       id="text3990-5"
       font-size="21.941px"
       line-height="125%"
       y="531.802"
       x="854.53802"
       fill="#c6ae8b" />
    <text
       id="text4030-22"
       font-size="21.941px"
       line-height="125%"
       y="563.58398"
       x="1202.698"
       fill="#c6ae8b" />
    <text
       id="text7291-7"
       font-size="40px"
       line-height="125%"
       y="5960.627"
       x="3129.5339" />
    <text
       id="text3990-2"
       font-size="21.941px"
       line-height="125%"
       y="537.06799"
       x="1677.979"
       fill="#c6ae8b" />
    <text
       id="text4030-2"
       font-size="21.941px"
       line-height="125%"
       y="568.84998"
       x="2026.139"
       fill="#c6ae8b" />
    <text
       id="text7291-9"
       font-size="40px"
       line-height="125%"
       y="5946.5991"
       x="3173.075" />
    <text
       id="text3990-0"
       font-size="21.941px"
       line-height="125%"
       y="523.039"
       x="1721.52"
       fill="#c6ae8b" />
    <text
       id="text4030-3"
       font-size="21.941px"
       line-height="125%"
       y="554.82202"
       x="2069.6799"
       fill="#c6ae8b" />
    <text
       id="text7291-6"
       font-size="40px"
       line-height="125%"
       y="5948.5991"
       x="3231.075" />
    <text
       id="text3990-9"
       font-size="21.941px"
       line-height="125%"
       y="525.039"
       x="1779.52"
       fill="#c6ae8b" />
    <text
       id="text4030-6"
       font-size="21.941px"
       line-height="125%"
       y="556.82202"
       x="2127.6799"
       fill="#c6ae8b" />
  </g>
  <style
     id="style26-28">.specularity{opacity:.5}.low-specularity{opacity:.25}.full-specularity{opacity:1}.black{fill:#000}.white{fill:#fff}.outline-big{stroke-width:16;stroke:none;opacity:.1;fill:none}.outline-small{stroke-width:8}.outline-small,.stroke-highlight{fill:none;stroke:none;opacity:.2}.base-shadow{fill:#000;opacity:75}</style>
  <style
     id="style26-1-5">.specularity{opacity:.5}.low-specularity{opacity:.25}.full-specularity{opacity:1}.black{fill:#000}.white{fill:#fff}.outline-big{stroke-width:16;stroke:none;opacity:.1;fill:none}.outline-small{stroke-width:8}.outline-small,.stroke-highlight{fill:none;stroke:none;opacity:.2}.base-shadow{fill:#000;opacity:75}</style>
  <g
     word-spacing="0"
     letter-spacing="0"
     font-family="Sans"
     font-weight="400"
     id="g485"
     transform="matrix(-1,0,0,1,299.495,-33.98)">
    <text
       id="text7291-73"
       font-size="40px"
       line-height="125%"
       y="5961.0659"
       x="2296.708" />
    <text
       id="text3990-1"
       font-size="21.941px"
       line-height="125%"
       y="537.50702"
       x="845.15302"
       fill="#c6ae8b" />
    <text
       id="text4030-31"
       font-size="21.941px"
       line-height="125%"
       y="569.289"
       x="1193.313"
       fill="#c6ae8b" />
    <text
       id="text7291-7-0"
       font-size="40px"
       line-height="125%"
       y="5966.333"
       x="3120.1489" />
    <text
       id="text3990-2-6"
       font-size="21.941px"
       line-height="125%"
       y="542.77301"
       x="1668.594"
       fill="#c6ae8b" />
    <text
       id="text4030-2-0"
       font-size="21.941px"
       line-height="125%"
       y="574.55603"
       x="2016.754"
       fill="#c6ae8b" />
  </g>
  <style
     id="style26-3">.specularity{opacity:.5}.low-specularity{opacity:.25}.full-specularity{opacity:1}.black{fill:#000}.white{fill:#fff}.outline-big{stroke-width:16;stroke:none;opacity:.1;fill:none}.outline-small{stroke-width:8}.outline-small,.stroke-highlight{fill:none;stroke:none;opacity:.2}.base-shadow{fill:#000;opacity:75}</style>
  <style
     id="style26-0-6">.specularity{opacity:.5}.low-specularity{opacity:.25}.full-specularity{opacity:1}.black{fill:#000}.white{fill:#fff}.outline-big{stroke-width:16;stroke:none;opacity:.1;fill:none}.outline-small{stroke-width:8}.outline-small,.stroke-highlight{fill:none;stroke:none;opacity:.2}.base-shadow{fill:#000;opacity:75}</style>
  <style
     id="style26-1-56">.specularity{opacity:.5}.low-specularity{opacity:.25}.full-specularity{opacity:1}.black{fill:#000}.white{fill:#fff}.outline-big{stroke-width:16;stroke:none;opacity:.1;fill:none}.outline-small{stroke-width:8}.outline-small,.stroke-highlight{fill:none;stroke:none;opacity:.2}.base-shadow{fill:#000;opacity:75}</style>
  <style
     id="style26-8-9">.specularity{opacity:.5}.low-specularity{opacity:.25}.full-specularity{opacity:1}.black{fill:#000}.white{fill:#fff}.outline-big{stroke-width:16;stroke:none;opacity:.1;fill:none}.outline-small{stroke-width:8}.outline-small,.stroke-highlight{fill:none;stroke:none;opacity:.2}.base-shadow{fill:#000;opacity:75}</style>
  <style
     id="style26-2-3">.specularity{opacity:.5}.low-specularity{opacity:.25}.full-specularity{opacity:1}.black{fill:#000}.white{fill:#fff}.outline-big{stroke-width:16;stroke:none;opacity:.1;fill:none}.outline-small{stroke-width:8}.outline-small,.stroke-highlight{fill:none;stroke:none;opacity:.2}.base-shadow{fill:#000;opacity:75}</style>
  <g
     word-spacing="0"
     letter-spacing="0"
     font-family="Sans"
     font-weight="400"
     id="g507"
     transform="matrix(-1,0,0,1,299.495,-33.98)">
    <text
       id="text7291-1"
       font-size="40px"
       line-height="125%"
       y="5974.2119"
       x="2414.4221" />
    <text
       id="text3990-6"
       font-size="21.941px"
       line-height="125%"
       y="550.65302"
       x="962.867"
       fill="#c6ae8b" />
    <text
       id="text4030-20"
       font-size="21.941px"
       line-height="125%"
       y="582.435"
       x="1311.027"
       fill="#c6ae8b" />
    <text
       id="text7291-3-7"
       font-size="40px"
       line-height="125%"
       y="5970.7271"
       x="3156.9131" />
    <text
       id="text3990-5-5"
       font-size="21.941px"
       line-height="125%"
       y="547.16699"
       x="1705.359"
       fill="#c6ae8b" />
    <text
       id="text4030-22-5"
       font-size="21.941px"
       line-height="125%"
       y="578.95001"
       x="2053.5181"
       fill="#c6ae8b" />
    <text
       id="text7291-7-7"
       font-size="40px"
       line-height="125%"
       y="5975.9932"
       x="3980.354" />
    <text
       id="text3990-2-4"
       font-size="21.941px"
       line-height="125%"
       y="552.43402"
       x="2528.7991"
       fill="#c6ae8b" />
    <text
       id="text4030-2-07"
       font-size="21.941px"
       line-height="125%"
       y="584.216"
       x="2876.959"
       fill="#c6ae8b" />
    <text
       id="text7291-9-6"
       font-size="40px"
       line-height="125%"
       y="5961.9639"
       x="4023.895" />
    <text
       id="text3990-0-8"
       font-size="21.941px"
       line-height="125%"
       y="538.40503"
       x="2572.3411"
       fill="#c6ae8b" />
    <text
       id="text4030-3-3"
       font-size="21.941px"
       line-height="125%"
       y="570.18799"
       x="2920.5"
       fill="#c6ae8b" />
    <text
       id="text7291-6-4"
       font-size="40px"
       line-height="125%"
       y="5963.9639"
       x="4081.895" />
    <text
       id="text3990-9-2"
       font-size="21.941px"
       line-height="125%"
       y="540.40503"
       x="2630.3411"
       fill="#c6ae8b" />
    <text
       id="text4030-6-6"
       font-size="21.941px"
       line-height="125%"
       y="572.18799"
       x="2978.5"
       fill="#c6ae8b" />
  </g>
  <style
     id="style26-81">.specularity{opacity:.5}.low-specularity{opacity:.25}.full-specularity{opacity:1}.black{fill:#000}.white{fill:#fff}.outline-big{stroke-width:16;stroke:none;opacity:.1;fill:none}.outline-small{stroke-width:8}.outline-small,.stroke-highlight{fill:none;stroke:none;opacity:.2}.base-shadow{fill:#000;opacity:75}</style>
  <style
     id="style26-1-561">.specularity{opacity:.5}.low-specularity{opacity:.25}.full-specularity{opacity:1}.black{fill:#000}.white{fill:#fff}.outline-big{stroke-width:16;stroke:none;opacity:.1;fill:none}.outline-small{stroke-width:8}.outline-small,.stroke-highlight{fill:none;stroke:none;opacity:.2}.base-shadow{fill:#000;opacity:75}</style>
  <g
     word-spacing="0"
     letter-spacing="0"
     font-family="Sans"
     font-weight="400"
     id="g517"
     transform="matrix(-1,0,0,1,299.495,-33.98)">
    <text
       id="text7291-93"
       font-size="40px"
       line-height="125%"
       y="5974.084"
       x="3126.583" />
    <text
       id="text3990-8"
       font-size="21.941px"
       line-height="125%"
       y="550.52502"
       x="1675.028"
       fill="#c6ae8b" />
    <text
       id="text4030-5"
       font-size="21.941px"
       line-height="125%"
       y="582.30701"
       x="2023.188"
       fill="#c6ae8b" />
    <text
       id="text7291-7-1"
       font-size="40px"
       line-height="125%"
       y="5979.3501"
       x="3950.0239" />
    <text
       id="text3990-2-9"
       font-size="21.941px"
       line-height="125%"
       y="555.79102"
       x="2498.469"
       fill="#c6ae8b" />
    <text
       id="text4030-2-4"
       font-size="21.941px"
       line-height="125%"
       y="587.57397"
       x="2846.6289"
       fill="#c6ae8b" />
  </g>
  <style
     id="style26-32">.specularity{opacity:.5}.low-specularity{opacity:.25}.full-specularity{opacity:1}.black{fill:#000}.white{fill:#fff}.outline-big{stroke-width:16;stroke:none;opacity:.1;fill:none}.outline-small{stroke-width:8}.outline-small,.stroke-highlight{fill:none;stroke:none;opacity:.2}.base-shadow{fill:#000;opacity:75}</style>
  <style
     id="style26-0-2">.specularity{opacity:.5}.low-specularity{opacity:.25}.full-specularity{opacity:1}.black{fill:#000}.white{fill:#fff}.outline-big{stroke-width:16;stroke:none;opacity:.1;fill:none}.outline-small{stroke-width:8}.outline-small,.stroke-highlight{fill:none;stroke:none;opacity:.2}.base-shadow{fill:#000;opacity:75}</style>
  <style
     id="style26-1-54">.specularity{opacity:.5}.low-specularity{opacity:.25}.full-specularity{opacity:1}.black{fill:#000}.white{fill:#fff}.outline-big{stroke-width:16;stroke:none;opacity:.1;fill:none}.outline-small{stroke-width:8}.outline-small,.stroke-highlight{fill:none;stroke:none;opacity:.2}.base-shadow{fill:#000;opacity:75}</style>
  <style
     id="style26-8-7">.specularity{opacity:.5}.low-specularity{opacity:.25}.full-specularity{opacity:1}.black{fill:#000}.white{fill:#fff}.outline-big{stroke-width:16;stroke:none;opacity:.1;fill:none}.outline-small{stroke-width:8}.outline-small,.stroke-highlight{fill:none;stroke:none;opacity:.2}.base-shadow{fill:#000;opacity:75}</style>
  <style
     id="style26-2-4">.specularity{opacity:.5}.low-specularity{opacity:.25}.full-specularity{opacity:1}.black{fill:#000}.white{fill:#fff}.outline-big{stroke-width:16;stroke:none;opacity:.1;fill:none}.outline-small{stroke-width:8}.outline-small,.stroke-highlight{fill:none;stroke:none;opacity:.2}.base-shadow{fill:#000;opacity:75}</style>
  <style
     id="style26-30">.specularity{opacity:.5}.low-specularity{opacity:.25}.full-specularity{opacity:1}.black{fill:#000}.white{fill:#fff}.outline-big{stroke-width:16;stroke:none;opacity:.1;fill:none}.outline-small{stroke-width:8}.outline-small,.stroke-highlight{fill:none;stroke:none;opacity:.2}.base-shadow{fill:#000;opacity:75}</style>
  <style
     id="style26-0-7">.specularity{opacity:.5}.low-specularity{opacity:.25}.full-specularity{opacity:1}.black{fill:#000}.white{fill:#fff}.outline-big{stroke-width:16;stroke:none;opacity:.1;fill:none}.outline-small{stroke-width:8}.outline-small,.stroke-highlight{fill:none;stroke:none;opacity:.2}.base-shadow{fill:#000;opacity:75}</style>
  <style
     id="style26-1-7">.specularity{opacity:.5}.low-specularity{opacity:.25}.full-specularity{opacity:1}.black{fill:#000}.white{fill:#fff}.outline-big{stroke-width:16;stroke:none;opacity:.1;fill:none}.outline-small{stroke-width:8}.outline-small,.stroke-highlight{fill:none;stroke:none;opacity:.2}.base-shadow{fill:#000;opacity:75}</style>
  <style
     id="style26-8-5">.specularity{opacity:.5}.low-specularity{opacity:.25}.full-specularity{opacity:1}.black{fill:#000}.white{fill:#fff}.outline-big{stroke-width:16;stroke:none;opacity:.1;fill:none}.outline-small{stroke-width:8}.outline-small,.stroke-highlight{fill:none;stroke:none;opacity:.2}.base-shadow{fill:#000;opacity:75}</style>
  <style
     id="style26-2-48">.specularity{opacity:.5}.low-specularity{opacity:.25}.full-specularity{opacity:1}.black{fill:#000}.white{fill:#fff}.outline-big{stroke-width:16;stroke:none;opacity:.1;fill:none}.outline-small{stroke-width:8}.outline-small,.stroke-highlight{fill:none;stroke:none;opacity:.2}.base-shadow{fill:#000;opacity:75}</style>
  <style
     id="style26-28-7">.specularity{opacity:.5}.low-specularity{opacity:.25}.full-specularity{opacity:1}.black{fill:#000}.white{fill:#fff}.outline-big{stroke-width:16;stroke:none;opacity:.1;fill:none}.outline-small{stroke-width:8}.outline-small,.stroke-highlight{fill:none;stroke:none;opacity:.2}.base-shadow{fill:#000;opacity:75}</style>
  <style
     id="style26-1-5-2">.specularity{opacity:.5}.low-specularity{opacity:.25}.full-specularity{opacity:1}.black{fill:#000}.white{fill:#fff}.outline-big{stroke-width:16;stroke:none;opacity:.1;fill:none}.outline-small{stroke-width:8}.outline-small,.stroke-highlight{fill:none;stroke:none;opacity:.2}.base-shadow{fill:#000;opacity:75}</style>
  <style
     id="style26-3-0">.specularity{opacity:.5}.low-specularity{opacity:.25}.full-specularity{opacity:1}.black{fill:#000}.white{fill:#fff}.outline-big{stroke-width:16;stroke:none;opacity:.1;fill:none}.outline-small{stroke-width:8}.outline-small,.stroke-highlight{fill:none;stroke:none;opacity:.2}.base-shadow{fill:#000;opacity:75}</style>
  <style
     id="style26-0-6-3">.specularity{opacity:.5}.low-specularity{opacity:.25}.full-specularity{opacity:1}.black{fill:#000}.white{fill:#fff}.outline-big{stroke-width:16;stroke:none;opacity:.1;fill:none}.outline-small{stroke-width:8}.outline-small,.stroke-highlight{fill:none;stroke:none;opacity:.2}.base-shadow{fill:#000;opacity:75}</style>
  <style
     id="style26-1-56-4">.specularity{opacity:.5}.low-specularity{opacity:.25}.full-specularity{opacity:1}.black{fill:#000}.white{fill:#fff}.outline-big{stroke-width:16;stroke:none;opacity:.1;fill:none}.outline-small{stroke-width:8}.outline-small,.stroke-highlight{fill:none;stroke:none;opacity:.2}.base-shadow{fill:#000;opacity:75}</style>
  <style
     id="style26-8-9-0">.specularity{opacity:.5}.low-specularity{opacity:.25}.full-specularity{opacity:1}.black{fill:#000}.white{fill:#fff}.outline-big{stroke-width:16;stroke:none;opacity:.1;fill:none}.outline-small{stroke-width:8}.outline-small,.stroke-highlight{fill:none;stroke:none;opacity:.2}.base-shadow{fill:#000;opacity:75}</style>
  <style
     id="style26-2-3-3">.specularity{opacity:.5}.low-specularity{opacity:.25}.full-specularity{opacity:1}.black{fill:#000}.white{fill:#fff}.outline-big{stroke-width:16;stroke:none;opacity:.1;fill:none}.outline-small{stroke-width:8}.outline-small,.stroke-highlight{fill:none;stroke:none;opacity:.2}.base-shadow{fill:#000;opacity:75}</style>
  <style
     id="style26-81-6">.specularity{opacity:.5}.low-specularity{opacity:.25}.full-specularity{opacity:1}.black{fill:#000}.white{fill:#fff}.outline-big{stroke-width:16;stroke:none;opacity:.1;fill:none}.outline-small{stroke-width:8}.outline-small,.stroke-highlight{fill:none;stroke:none;opacity:.2}.base-shadow{fill:#000;opacity:75}</style>
  <style
     id="style26-1-561-0">.specularity{opacity:.5}.low-specularity{opacity:.25}.full-specularity{opacity:1}.black{fill:#000}.white{fill:#fff}.outline-big{stroke-width:16;stroke:none;opacity:.1;fill:none}.outline-small{stroke-width:8}.outline-small,.stroke-highlight{fill:none;stroke:none;opacity:.2}.base-shadow{fill:#000;opacity:75}</style>
  <g
     word-spacing="0"
     letter-spacing="0"
     font-family="Sans"
     font-weight="400"
     id="g580"
     transform="matrix(-1,0,0,1,299.495,-33.98)">
    <text
       id="text7291-0"
       font-size="40px"
       line-height="125%"
       y="5958.084"
       x="2348.583" />
    <text
       id="text3990-54"
       font-size="21.941px"
       line-height="125%"
       y="534.52502"
       x="897.02899"
       fill="#c6ae8b" />
    <text
       id="text4030-9"
       font-size="21.941px"
       line-height="125%"
       y="566.30701"
       x="1245.188"
       fill="#c6ae8b" />
    <text
       id="text7291-3-1"
       font-size="40px"
       line-height="125%"
       y="5954.5991"
       x="3091.075" />
    <text
       id="text3990-5-8"
       font-size="21.941px"
       line-height="125%"
       y="531.03998"
       x="1639.52"
       fill="#c6ae8b" />
    <text
       id="text4030-22-3"
       font-size="21.941px"
       line-height="125%"
       y="562.82202"
       x="1987.6801"
       fill="#c6ae8b" />
    <text
       id="text7291-7-8"
       font-size="40px"
       line-height="125%"
       y="5959.8652"
       x="3914.5149" />
    <text
       id="text3990-2-2"
       font-size="21.941px"
       line-height="125%"
       y="536.30603"
       x="2462.96"
       fill="#c6ae8b" />
    <text
       id="text4030-2-5"
       font-size="21.941px"
       line-height="125%"
       y="568.08801"
       x="2811.1201"
       fill="#c6ae8b" />
    <text
       id="text7291-9-1"
       font-size="40px"
       line-height="125%"
       y="5945.8359"
       x="3958.0559" />
    <text
       id="text3990-0-85"
       font-size="21.941px"
       line-height="125%"
       y="522.27802"
       x="2506.502"
       fill="#c6ae8b" />
    <text
       id="text4030-3-6"
       font-size="21.941px"
       line-height="125%"
       y="554.06"
       x="2854.6609"
       fill="#c6ae8b" />
    <text
       id="text7291-6-6"
       font-size="40px"
       line-height="125%"
       y="5947.8359"
       x="4016.0559" />
    <text
       id="text3990-9-5"
       font-size="21.941px"
       line-height="125%"
       y="524.27802"
       x="2564.502"
       fill="#c6ae8b" />
    <text
       id="text4030-6-62"
       font-size="21.941px"
       line-height="125%"
       y="556.06"
       x="2912.6609"
       fill="#c6ae8b" />
    <text
       id="text7291-73-4"
       font-size="40px"
       line-height="125%"
       y="5960.3042"
       x="3081.689" />
    <text
       id="text3990-1-6"
       font-size="21.941px"
       line-height="125%"
       y="536.745"
       x="1630.135"
       fill="#c6ae8b" />
    <text
       id="text4030-31-9"
       font-size="21.941px"
       line-height="125%"
       y="568.52698"
       x="1978.295"
       fill="#c6ae8b" />
    <text
       id="text7291-7-0-0"
       font-size="40px"
       line-height="125%"
       y="5965.5698"
       x="3905.1299" />
    <text
       id="text3990-2-6-1"
       font-size="21.941px"
       line-height="125%"
       y="542.01099"
       x="2453.575"
       fill="#c6ae8b" />
    <text
       id="text4030-2-0-1"
       font-size="21.941px"
       line-height="125%"
       y="573.79401"
       x="2801.7351"
       fill="#c6ae8b" />
    <text
       id="text7291-1-9"
       font-size="40px"
       line-height="125%"
       y="5973.4502"
       x="3199.4041" />
    <text
       id="text3990-6-9"
       font-size="21.941px"
       line-height="125%"
       y="549.89099"
       x="1747.849"
       fill="#c6ae8b" />
    <text
       id="text4030-20-9"
       font-size="21.941px"
       line-height="125%"
       y="581.67297"
       x="2096.0081"
       fill="#c6ae8b" />
    <text
       id="text7291-3-7-3"
       font-size="40px"
       line-height="125%"
       y="5969.9639"
       x="3941.895" />
    <text
       id="text3990-5-5-0"
       font-size="21.941px"
       line-height="125%"
       y="546.40601"
       x="2490.3401"
       fill="#c6ae8b" />
    <text
       id="text4030-22-5-6"
       font-size="21.941px"
       line-height="125%"
       y="578.18799"
       x="2838.5"
       fill="#c6ae8b" />
    <text
       id="text7291-7-7-4"
       font-size="40px"
       line-height="125%"
       y="5975.23"
       x="4765.335" />
    <text
       id="text3990-2-4-0"
       font-size="21.941px"
       line-height="125%"
       y="551.672"
       x="3313.781"
       fill="#c6ae8b" />
    <text
       id="text4030-2-07-6"
       font-size="21.941px"
       line-height="125%"
       y="583.45398"
       x="3661.9399"
       fill="#c6ae8b" />
    <text
       id="text7291-9-6-6"
       font-size="40px"
       line-height="125%"
       y="5961.2021"
       x="4808.877" />
    <text
       id="text3990-0-8-5"
       font-size="21.941px"
       line-height="125%"
       y="537.64301"
       x="3357.322"
       fill="#c6ae8b" />
    <text
       id="text4030-3-3-9"
       font-size="21.941px"
       line-height="125%"
       y="569.42603"
       x="3705.4819"
       fill="#c6ae8b" />
    <text
       id="text7291-6-4-7"
       font-size="40px"
       line-height="125%"
       y="5963.2021"
       x="4866.877" />
    <text
       id="text3990-9-2-8"
       font-size="21.941px"
       line-height="125%"
       y="539.64301"
       x="3415.322"
       fill="#c6ae8b" />
    <text
       id="text4030-6-6-9"
       font-size="21.941px"
       line-height="125%"
       y="571.42603"
       x="3763.4819"
       fill="#c6ae8b" />
    <text
       id="text7291-93-2"
       font-size="40px"
       line-height="125%"
       y="5973.3218"
       x="3911.5649" />
    <text
       id="text3990-8-6"
       font-size="21.941px"
       line-height="125%"
       y="549.763"
       x="2460.01"
       fill="#c6ae8b" />
    <text
       id="text4030-5-3"
       font-size="21.941px"
       line-height="125%"
       y="581.54498"
       x="2808.1699"
       fill="#c6ae8b" />
    <text
       id="text7291-7-1-1"
       font-size="40px"
       line-height="125%"
       y="5978.5879"
       x="4735.0049" />
    <text
       id="text3990-2-9-9"
       font-size="21.941px"
       line-height="125%"
       y="555.02899"
       x="3283.45"
       fill="#c6ae8b" />
    <text
       id="text4030-2-4-1"
       font-size="21.941px"
       line-height="125%"
       y="586.81201"
       x="3631.6101"
       fill="#c6ae8b" />
  </g>
  <g
     id="g7311"
     stroke-opacity="0"
     transform="matrix(-1,0,0,1,299.495,-33.98)">
    <g
       fill-rule="evenodd"
       id="g592">
      <path
         id="path4367"
         stroke-width="3.125"
         fill="#fff9e9"
         d="m 171.16,252.04 -25.56,7.516 c -0.908,25.8 8.909,44.601 4.18,68.69 -4.712,5.81 -7.826,14.157 -10.986,25.089 -1.263,4.367 2.064,16.217 0.682,21.412 l 71.67,-1.636 c -0.864,-4.142 3.651,-8.352 3,-12.403 -1.596,-9.91 -3.435,-19.926 -9.834,-31.896 l 1.336,-75.33 -20.736,0.98 z" />
      <path
         id="path4363"
         stroke-width="3.125"
         fill="#f8ded8"
         d="m 167.17,246.74 15.381,-1.497 0.02,8.756 2.116,0.58 -7.41,7.252 -12.286,-8.37 2.673,-0.69 z" />
      <path
         id="path4389"
         stroke-width="3.469"
         fill="#fff9e9"
         d="m 147.3,258.94 -39.832,13.414 -14.232,5.108 c -14.824,3.97 -0.302,19.157 7.481,15.517 l 53.543,-13.398 c 10.85,-2.062 2.897,-25.03 -6.96,-20.641 z" />
      <path
         id="path4393"
         stroke-width="3.125"
         fill="#fff9e9"
         d="m 173.06,351.95 -6.075,79.583 7.957,70.007 c -1.445,10.27 -15.421,10.543 -16.491,-3.98 l -16.136,-66.499 -4.597,-70.333 c 0.732,-21.541 36.115,-31.503 35.342,-8.778 z" />
      <path
         id="path7136"
         fill="#3d4c4f"
         d="m 174.3,493.62 -17.768,3.8 0.973,9.99 10.148,2.097 6.531,-0.75 3.65,-4.795 z" />
      <path
         id="path4401"
         stroke-width="3.469"
         fill="#fff9e9"
         d="m 193.3,254.2 51.565,-14.243 12.315,-5.292 c 15.251,-6.685 16.05,12.369 6.927,14.7 l -61.376,27.625 c -10.559,5.532 -20.826,-19.67 -9.431,-22.79 z" />
      <path
         id="path4983"
         stroke-width="2.957"
         fill="#fff9e9"
         d="m 178.82,348.47 3.267,70.782 3.457,100.54 c 1.172,9.347 15.06,10.7 16.5,-2.269 l 5.658,-92.166 6.03,-66.196 c -0.17,-19.421 -35.093,-31.182 -34.912,-10.694 z" />
      <path
         id="path7144"
         stroke-width="1.065"
         fill="#3d4c4f"
         d="m 183.55,519.08 1.203,8.486 9.624,2.651 11.329,-2.828 -0.3,-11.844 z" />
      <path
         id="path4391"
         stroke-width="3.482"
         fill="#fff9e9"
         d="m 93.605,277.06 c 6.958,-1.807 15.225,14.09 -1.857,19.773 l -46.79,13.63 c -12.437,5.456 -19.477,-11.82 -2.947,-15.256 z" />
      <path
         id="path5163-2"
         stroke-width="3.125"
         fill="#fff9e9"
         d="m 167.32,251.67 c -36.31,1.292 -72.8,-7.962 -77.895,-19.31 l -4.292,-11.468 c -8.136,-14.69 -13.293,-30.14 -17.83,-46 -9.798,-43.226 6.128,-78.23 28.17,-93.211 46.599,-37.546 128.22,-32.852 155.01,25.523 11.559,29.324 16.751,62.84 -2.578,109.79 -9.632,16.027 -37.048,29.938 -80.58,34.676 z" />
    </g>
    <g
       fill="#506567"
       id="g597">
      <path
         id="path5950"
         stroke-width="10"
         stroke-linecap="round"
         d="m 130.64,204.31 c 0.626,8.535 -1.625,15.94 -8.338,17.03 -6.713,1.09 -14.272,-4.687 -15.972,-13.08 -2.695,-13.306 2.703,-16.35 9.484,-17.245 6.807,-0.898 14.026,2.37 14.827,13.296 z" />
      <path
         id="path5952"
         stroke-width="3.125"
         fill-rule="evenodd"
         d="m 97.232,211.1 c 0.932,-23.934 17.034,-30.388 36.171,-21.08 -17.815,-22.22 -46.542,0.004 -36.17,21.08 z" />
      <path
         id="path5950-1"
         stroke-width="10"
         stroke-linecap="round"
         d="m 194.64,196.24 c 0.981,8.502 4.75,15.342 11.974,15.128 7.223,-0.215 14.015,-7.336 14.185,-15.905 0.268,-13.582 -5.956,-15.538 -13.213,-15.118 -7.284,0.421 -14.201,5.013 -12.946,15.896 z" />
    </g>
    <g
       fill-rule="evenodd"
       id="g617">
      <path
         id="path7166"
         fill="#f8ded8"
         d="m 190.56,121.6 -119.85,29.34 8.838,53.387 3.537,-20.86 5.789,-10.364 0.375,11.375 12.125,-15.625 3,9.75 8.5,-22.125 c 3.422,10.223 10.189,17.686 16.875,25.875 v -4.625 c 12.391,24.177 19.022,22.734 44.625,31.75 l 1.125,-39.5 2.125,-10.5 c 6.109,8.05 13.56,9.132 22.875,11.75 l 1.125,-2.125 33.938,11.402 2.437,7.723 c -4.226,11.601 -5.157,35.248 -6.049,44.117 5.78,-3.694 10.313,-7.714 13.582,-11.922 l 0.717,-3.82 -7,-5.25 17.127,-40.872 z" />
      <path
         id="path5980"
         stroke-width="3.125"
         fill="#506567"
         d="m 230.42,196.87 c -5.557,-23.327 -23.617,-26.582 -41.831,-13.776 14.36,-25.233 48.631,-8.909 41.83,13.776 z" />
      <path
         id="path4776"
         stroke-width="3.489"
         fill="#e59886"
         d="m 183.62,221.4 -31.015,6.572 c 2.774,23.05 40.492,16.612 31.016,-6.572 z" />
      <path
         id="path4812"
         fill="#4b9d79"
         d="m 111.37,143.87 c 5.817,18.466 8.14,24.965 20.505,38.184 l -0.353,-6.01 c 11.164,23.557 20.842,27.58 44.194,34.647 1.424,-15.337 -1.271,-29.907 -3.889,-44.9 l 6.01,17.677 c -0.064,-13.135 -2.401,-25.364 -6.01,-37.83 9.296,18.684 12.327,18.813 30.406,28.284 l -3.182,-9.9 c 11.187,8.947 23.8,12.884 37.123,17.324 l -6.01,-22.273 9.899,28.284 c -5.149,16.537 -5.422,33.836 -7.602,50.912 8.576,-10.503 9.807,-19.057 12.375,-31.467 l 7.424,-2.917 -2.651,9.104 -6.17,2.215 -3.15,17.533 c 23.943,-19.652 21.278,-29.38 28.765,-60.23 l 7.856,8.122 C 274.8,143.835 271.275,105.973 241.83,72.099 L 223.8,69.624 205.09,55.964 C 158.445,51.597 116.048,60.246 78.84,84.119 66.243,102.366 57.847,110.695 45.924,127.407 l 12.057,-5.458 c -11.869,23.417 -8.142,32.426 -6.364,58.337 l 2.121,16.97 2.829,-11.667 c 3.3,24.15 12.985,25.85 14.849,40.305 l -6.01,-24.749 22.273,33.234 c -3.562,-17.242 -5.633,-34.443 -6.364,-51.972 l 9.9,-13.788 -2.829,17.677 c 7.675,-7.459 10.97,-15.294 14.142,-25.102 l 0.708,26.516 c 4.5,-14.456 7.06,-28.852 8.131,-43.84 z" />
      <path
         id="path7180"
         fill="#45876a"
         d="m 70.09,96.191 c -6.05,7.955 -11.432,14.34 -17.393,22.102 39.511,23.45 78.543,30.401 122.62,41.469 -0.947,-4.716 -2.129,-9.404 -3.496,-14.125 3.895,7.828 6.696,12.382 9.96,15.748 l 0.648,0.162 49.593,4.428 -1.863,-6.903 2.434,6.953 43.627,3.895 a 386.8,386.8 0 0 0 -1.286,-14.557 C 198.579,146.817 137.614,126.006 70.084,96.191 Z" />
      <path
         id="path4851"
         fill="#506567"
         d="m 38.015,81.82 c 33.545,44.67 170.16,86.62 261.48,85.16 l -27,-34.5 -2,-55 c -38.772,-22.914 -78.293,-34.606 -118,-43.5 l -64,41 z" />
      <path
         id="path4403"
         stroke-width="3.482"
         fill="#fff9e9"
         d="m 252.7,240.52 c -0.125,7.912 17.915,13.488 19.433,-6.236 l 0.956,-62.707 c 2.388,-14.675 -16.073,-18.093 -15.534,0.496 z" />
      <path
         id="path4820"
         fill="#506567"
         d="m 146.11,333.11 -7.071,12.198 c -4.538,27.895 0.44,57.442 2.215,85.67 l 12.125,55.125 -0.75,3.875 3.125,8.875 c 7.971,1.73 15.73,0.561 22.125,-3.5 l -0.038,-18.435 -5.303,-5.657 -3.005,-39.244 -1.414,-1.591 5.657,-54.978 4.242,-0.177 2.298,60.281 2.393,64.676 c -0.202,6.53 -3.435,10.681 -1.955,13.5 l 1.875,5.875 c 15.184,3.108 16.716,2.916 24.625,-1.875 l 1,-54.5 1.75,-9 -1.5,-17 c 2.502,-42.736 8.599,-79.268 4.375,-95.625 -21.52,4.758 -47.632,-7.521 -66.77,-8.493 z" />
      <path
         id="path7146"
         fill="#f8ded8"
         d="m 114.85,269.86 -3.786,1.276 -0.672,10.173 0.557,9.102 13.166,-3.295 z" />
      <path
         id="path7151"
         fill="#f8ded8"
         d="m 231.81,250.16 0.328,13.588 4.488,-2.02 z" />
      <path
         id="path4818"
         fill="#ffffff"
         d="m 149,257.35 -35.375,10.875 c -2.354,6.62 3.36,17.758 4.375,27.125 l 18.25,-10.125 c 3.871,-0.33 6.848,0.013 9.375,-2.875 l -1.782,45 -7.11,23.875 26.316,13.878 15.556,-16.617 19.8,18.739 16.916,-19.696 -7.785,-19.46 -2.21,-22.274 0.619,-29.698 28.814,-4.95 c -2.208,-13 1.226,-16.162 -6.01,-26.87 l -34.249,9.198 -9.688,0.75 -8.062,7 -11.031,-8 z" />
      <path
         id="path7156"
         fill="#e9ecf5"
         d="m 151.94,262.6 v 10.562 l -1.688,2.563 -0.125,-1 -4.875,6.125 -4.438,1.312 0.188,-6.5 c -2.666,2.964 -3.888,5.826 -4.75,9.563 3.871,-0.33 6.848,0.013 9.375,-2.875 l -1.781,45 -1.104,3.7 6.572,-0.513 18.69,-52.06 3,-9.75 z" />
      <path
         id="path4814"
         fill="#506567"
         d="m 165.38,253.07 -16.971,3.494 -0.177,1.414 c 7.859,13.521 5.895,14.404 -2.298,27.224 -5.223,19.579 -8.505,25.718 -20.679,40.274 l 19.75,2.25 c 10.664,-17.096 16.889,-35.956 23.75,-54.75 l 5.125,-8.25 z" />
      <path
         id="path7161"
         fill="#e9ecf5"
         d="m 193.3,254.2 -10.8,16.53 c 1.228,21.761 -3.58,42.453 -7.756,63.619 11.85,1.952 23.053,0.314 34.756,-1.366 l -1.965,-4.91 -2.209,-22.273 0.62,-29.7 18.042,-3.099 -2.176,-1.646 -16,0.75 -3.937,-4 0.5,8.125 c -7.906,-4.879 -9.517,-10.28 -9.08,-22.026 z" />
      <path
         id="path4816"
         fill="#506567"
         d="m 185.7,254 -5.834,10.254 2.38,11.722 c 2.307,22.187 -0.04,45.197 -1.75,55 l 28.942,0.573 -0.497,-9.073 -1.445,-4.5 c -2.347,-11.8 -1.659,-23.725 -1.552,-35.675 -10.868,-6.221 -16.019,-16.11 -12.073,-29.075 z" />
      <path
         id="path4822"
         fill="#506567"
         d="m 52.386,289.02 -1.524,8.077 2.168,6.486 3.28,5.15 -10.935,2.119 -4.75,1.125 -6.375,-6.5 0.125,-8.25 4.875,-2.625 2.125,0.25 z" />
      <path
         id="path4828"
         fill="#4b9d79"
         d="m 52.387,289.02 -3.364,1.78 -1.382,6.688 2.343,6.762 3.66,4.998 2.667,-0.516 -3.28,-5.15 -2.168,-6.486 z" />
      <path
         id="path4822-5"
         fill="#506567"
         d="m 255.25,184.71 7.177,-4.005 h 6.84 l 5.924,1.48 -1.456,-11.044 -0.438,-4.861 -8.185,-3.987 -7.785,2.733 -0.945,5.455 0.91,1.936 z" />
    </g>
    <g
       fill-rule="evenodd"
       fill="#4b9d79"
       id="g622">
      <path
         id="path4828-3"
         d="m 255.25,184.71 0.624,-3.755 5.905,-3.43 7.156,0.08 5.9,1.888 0.356,2.692 -5.924,-1.479 h -6.84 l -7.177,4.003 z" />
      <path
         id="path4651"
         d="m 93.264,71.926 -4.764,3.05 -4.414,1.807 c 61.16,30.027 124.25,45.37 190.3,58.108 l -1.889,-2.414 -0.254,-6.979 C 199.931,117.287 129.203,90.064 93.263,71.926 Z" />
      <path
         id="path4653"
         d="m 107.09,63.066 -8.104,5.194 c 61.74,27.499 116.81,44.881 173.08,52.357 l -0.33,-9.11 c -59.858,-3.273 -112.52,-23.874 -164.65,-48.44 z" />
    </g>
    <g
       fill="#ffffff"
       id="g627">
      <path
         id="path4663"
         fill-rule="evenodd"
         d="m 206.18,308.04 -14.555,0.412 -1.236,4.155 16.173,-0.588 a 95.664,95.664 0 0 1 -0.382,-3.979 z" />
      <path
         id="path4665"
         fill-rule="evenodd"
         d="m 205.84,301.29 -14.215,0.404 -1.236,4.155 15.603,-0.569 c -0.071,-1.329 -0.12,-2.659 -0.152,-3.99 z" />
      <circle
         id="circle4675"
         style="isolation:auto;mix-blend-mode:normal"
         stroke-linecap="round"
         cx="233.31"
         cy="126.54"
         r="12.744"
         overflow="visible"
         stroke-width="12.137" />
    </g>
    <g
       stroke-linecap="round"
       id="g632">
      <circle
         id="circle4677"
         style="isolation:auto;mix-blend-mode:normal"
         stroke-width="10.282"
         cy="126.54"
         cx="233.31"
         overflow="visible"
         r="10.796"
         fill="#4b9d79" />
      <circle
         id="circle4681"
         style="isolation:auto;mix-blend-mode:normal"
         stroke-width="9.032"
         cy="133.23"
         cx="258.25"
         overflow="visible"
         r="9.4840002"
         fill="#ffffff" />
      <circle
         id="circle4683"
         style="isolation:auto;mix-blend-mode:normal"
         cx="258.25"
         cy="133.23"
         r="8.0349998"
         overflow="visible"
         stroke-width="7.652"
         fill="#4b9d79" />
    </g>
    <g
       fill-rule="evenodd"
       id="g638">
      <path
         id="path4685"
         fill="#4b9d79"
         d="m 215,363.85 5.38,-0.396 10.12,4.521 -8.5,31.125 -8.375,3.875 -1.375,-6.5 z" />
      <path
         id="path7139"
         fill="#475657"
         d="m 168.12,430.42 -12.803,4.74 -8.687,-0.625 -5.375,-3.562 12.125,55.125 -0.75,3.875 3.125,8.875 c 7.971,1.73 15.73,0.56 22.125,-3.5 l -0.037,-18.436 -5.305,-5.656 -3.004,-39.244 z m 13.069,28.658 1.521,41.145 a 21.371,21.371 0 0 1 -0.191,2.242 l 9.465,0.08 z" />
      <path
         id="path7175"
         fill="#45876a"
         d="m 220.38,363.46 -5.38,0.397 -2.75,32.625 1.375,6.5 8.375,-3.875 -7.393,-3.946 5.774,-31.7 z" />
      <path
         id="path4661"
         fill="#4b9d79"
         d="m 142.88,327.84 -2.517,7.657 c 21.528,30.027 45.395,39.874 75.749,54.491 l 1.06,-8.132 C 181.058,370.08 168.299,356.599 142.88,327.84 Z" />
    </g>
  </g>
</svg>
