<?xml version="1.0" encoding="UTF-8" standalone="no"?>
<svg id="svg2" xmlns:rdf="http://www.w3.org/1999/02/22-rdf-syntax-ns#" xmlns="http://www.w3.org/2000/svg" height="562.48" width="694.04" version="1" xmlns:cc="http://creativecommons.org/ns#" xmlns:xlink="http://www.w3.org/1999/xlink" xmlns:dc="http://purl.org/dc/elements/1.1/">
 <metadata id="metadata1099">
  <rdf:RDF>
   <cc:Work rdf:about="">
    <dc:format>image/svg+xml</dc:format>
    <dc:type rdf:resource="http://purl.org/dc/dcmitype/StillImage"/>
    <dc:title>Inkscape Logo</dc:title>
   </cc:Work>
  </rdf:RDF>
 </metadata>
 <title id="title7387">Inkscape Logo</title>
 <style id="style26">.specularity{opacity:.5}.low-specularity{opacity:.25}.full-specularity{opacity:1}.black{fill:#000}.white{fill:#fff}.outline-big{stroke-width:16;stroke:none;opacity:.1;fill:none}.outline-small{stroke-width:8}.outline-small,.stroke-highlight{fill:none;stroke:none;opacity:.2}.base-shadow{fill:#000;opacity:75}</style>
 <g word-spacing="0" letter-spacing="0" font-family="Sans" font-weight="400">
  <text id="text7291" font-size="40" line-height="125%" y="5958.846" x="1563.602"/>
  <text id="text3990" font-size="21.941" line-height="125%" y="535.287" x="112.047" fill="#c6ae8b"/>
  <text id="text4030" font-size="21.941" line-height="125%" y="567.069" x="460.207" fill="#c6ae8b"/>
 </g>
 <path id="rect4962" d="m0 0h336.24v562.48h-336.24z" overflow="visible" stroke-width="3.9" fill="#72c38d"/>
 <ellipse id="path5574" style="isolation:auto;mix-blend-mode:normal" stroke-linecap="round" stroke-opacity="0" fill-opacity=".104" rx="99.858" ry="16.643" cy="523.44" cx="185.69" overflow="visible" stroke-width="10"/>
 <path id="rect4979" d="m357.8 0h336.24v562.48h-336.24z" overflow="visible" stroke-width="3.9" fill="#72c38d"/>
 <ellipse id="ellipse5578" style="isolation:auto;mix-blend-mode:normal" stroke-linecap="round" stroke-opacity="0" fill-opacity=".104" rx="99.858" ry="16.643" cy="519.48" cx="530.2" overflow="visible" stroke-width="10"/>
 <style id="style26-0">.specularity{opacity:.5}.low-specularity{opacity:.25}.full-specularity{opacity:1}.black{fill:#000}.white{fill:#fff}.outline-big{stroke-width:16;stroke:none;opacity:.1;fill:none}.outline-small{stroke-width:8}.outline-small,.stroke-highlight{fill:none;stroke:none;opacity:.2}.base-shadow{fill:#000;opacity:75}</style>
 <style id="style26-1">.specularity{opacity:.5}.low-specularity{opacity:.25}.full-specularity{opacity:1}.black{fill:#000}.white{fill:#fff}.outline-big{stroke-width:16;stroke:none;opacity:.1;fill:none}.outline-small{stroke-width:8}.outline-small,.stroke-highlight{fill:none;stroke:none;opacity:.2}.base-shadow{fill:#000;opacity:75}</style>
 <style id="style26-8">.specularity{opacity:.5}.low-specularity{opacity:.25}.full-specularity{opacity:1}.black{fill:#000}.white{fill:#fff}.outline-big{stroke-width:16;stroke:none;opacity:.1;fill:none}.outline-small{stroke-width:8}.outline-small,.stroke-highlight{fill:none;stroke:none;opacity:.2}.base-shadow{fill:#000;opacity:75}</style>
 <style id="style26-2">.specularity{opacity:.5}.low-specularity{opacity:.25}.full-specularity{opacity:1}.black{fill:#000}.white{fill:#fff}.outline-big{stroke-width:16;stroke:none;opacity:.1;fill:none}.outline-small{stroke-width:8}.outline-small,.stroke-highlight{fill:none;stroke:none;opacity:.2}.base-shadow{fill:#000;opacity:75}</style>
 <g word-spacing="0" letter-spacing="0" font-family="Sans" font-weight="400">
  <text id="text7291-3" font-size="40" line-height="125%" y="5955.361" x="2306.093"/>
  <text id="text3990-5" font-size="21.941" line-height="125%" y="531.802" x="854.538" fill="#c6ae8b"/>
  <text id="text4030-22" font-size="21.941" line-height="125%" y="563.584" x="1202.698" fill="#c6ae8b"/>
  <text id="text7291-7" font-size="40" line-height="125%" y="5960.627" x="3129.534"/>
  <text id="text3990-2" font-size="21.941" line-height="125%" y="537.068" x="1677.979" fill="#c6ae8b"/>
  <text id="text4030-2" font-size="21.941" line-height="125%" y="568.85" x="2026.139" fill="#c6ae8b"/>
  <text id="text7291-9" font-size="40" line-height="125%" y="5946.599" x="3173.075"/>
  <text id="text3990-0" font-size="21.941" line-height="125%" y="523.039" x="1721.52" fill="#c6ae8b"/>
  <text id="text4030-3" font-size="21.941" line-height="125%" y="554.822" x="2069.68" fill="#c6ae8b"/>
  <text id="text7291-6" font-size="40" line-height="125%" y="5948.599" x="3231.075"/>
  <text id="text3990-9" font-size="21.941" line-height="125%" y="525.039" x="1779.52" fill="#c6ae8b"/>
  <text id="text4030-6" font-size="21.941" line-height="125%" y="556.822" x="2127.68" fill="#c6ae8b"/>
 </g>
 <style id="style26-28">.specularity{opacity:.5}.low-specularity{opacity:.25}.full-specularity{opacity:1}.black{fill:#000}.white{fill:#fff}.outline-big{stroke-width:16;stroke:none;opacity:.1;fill:none}.outline-small{stroke-width:8}.outline-small,.stroke-highlight{fill:none;stroke:none;opacity:.2}.base-shadow{fill:#000;opacity:75}</style>
 <style id="style26-1-5">.specularity{opacity:.5}.low-specularity{opacity:.25}.full-specularity{opacity:1}.black{fill:#000}.white{fill:#fff}.outline-big{stroke-width:16;stroke:none;opacity:.1;fill:none}.outline-small{stroke-width:8}.outline-small,.stroke-highlight{fill:none;stroke:none;opacity:.2}.base-shadow{fill:#000;opacity:75}</style>
 <g word-spacing="0" letter-spacing="0" font-family="Sans" font-weight="400">
  <text id="text7291-73" font-size="40" line-height="125%" y="5961.066" x="2296.708"/>
  <text id="text3990-1" font-size="21.941" line-height="125%" y="537.507" x="845.153" fill="#c6ae8b"/>
  <text id="text4030-31" font-size="21.941" line-height="125%" y="569.289" x="1193.313" fill="#c6ae8b"/>
  <text id="text7291-7-0" font-size="40" line-height="125%" y="5966.333" x="3120.149"/>
  <text id="text3990-2-6" font-size="21.941" line-height="125%" y="542.773" x="1668.594" fill="#c6ae8b"/>
  <text id="text4030-2-0" font-size="21.941" line-height="125%" y="574.556" x="2016.754" fill="#c6ae8b"/>
 </g>
 <style id="style26-3">.specularity{opacity:.5}.low-specularity{opacity:.25}.full-specularity{opacity:1}.black{fill:#000}.white{fill:#fff}.outline-big{stroke-width:16;stroke:none;opacity:.1;fill:none}.outline-small{stroke-width:8}.outline-small,.stroke-highlight{fill:none;stroke:none;opacity:.2}.base-shadow{fill:#000;opacity:75}</style>
 <style id="style26-0-6">.specularity{opacity:.5}.low-specularity{opacity:.25}.full-specularity{opacity:1}.black{fill:#000}.white{fill:#fff}.outline-big{stroke-width:16;stroke:none;opacity:.1;fill:none}.outline-small{stroke-width:8}.outline-small,.stroke-highlight{fill:none;stroke:none;opacity:.2}.base-shadow{fill:#000;opacity:75}</style>
 <style id="style26-1-56">.specularity{opacity:.5}.low-specularity{opacity:.25}.full-specularity{opacity:1}.black{fill:#000}.white{fill:#fff}.outline-big{stroke-width:16;stroke:none;opacity:.1;fill:none}.outline-small{stroke-width:8}.outline-small,.stroke-highlight{fill:none;stroke:none;opacity:.2}.base-shadow{fill:#000;opacity:75}</style>
 <style id="style26-8-9">.specularity{opacity:.5}.low-specularity{opacity:.25}.full-specularity{opacity:1}.black{fill:#000}.white{fill:#fff}.outline-big{stroke-width:16;stroke:none;opacity:.1;fill:none}.outline-small{stroke-width:8}.outline-small,.stroke-highlight{fill:none;stroke:none;opacity:.2}.base-shadow{fill:#000;opacity:75}</style>
 <style id="style26-2-3">.specularity{opacity:.5}.low-specularity{opacity:.25}.full-specularity{opacity:1}.black{fill:#000}.white{fill:#fff}.outline-big{stroke-width:16;stroke:none;opacity:.1;fill:none}.outline-small{stroke-width:8}.outline-small,.stroke-highlight{fill:none;stroke:none;opacity:.2}.base-shadow{fill:#000;opacity:75}</style>
 <g word-spacing="0" letter-spacing="0" font-family="Sans" font-weight="400">
  <text id="text7291-1" font-size="40" line-height="125%" y="5974.212" x="2414.422"/>
  <text id="text3990-6" font-size="21.941" line-height="125%" y="550.653" x="962.867" fill="#c6ae8b"/>
  <text id="text4030-20" font-size="21.941" line-height="125%" y="582.435" x="1311.027" fill="#c6ae8b"/>
  <text id="text7291-3-7" font-size="40" line-height="125%" y="5970.727" x="3156.913"/>
  <text id="text3990-5-5" font-size="21.941" line-height="125%" y="547.167" x="1705.359" fill="#c6ae8b"/>
  <text id="text4030-22-5" font-size="21.941" line-height="125%" y="578.95" x="2053.518" fill="#c6ae8b"/>
  <text id="text7291-7-7" font-size="40" line-height="125%" y="5975.993" x="3980.354"/>
  <text id="text3990-2-4" font-size="21.941" line-height="125%" y="552.434" x="2528.799" fill="#c6ae8b"/>
  <text id="text4030-2-07" font-size="21.941" line-height="125%" y="584.216" x="2876.959" fill="#c6ae8b"/>
  <text id="text7291-9-6" font-size="40" line-height="125%" y="5961.964" x="4023.895"/>
  <text id="text3990-0-8" font-size="21.941" line-height="125%" y="538.405" x="2572.341" fill="#c6ae8b"/>
  <text id="text4030-3-3" font-size="21.941" line-height="125%" y="570.188" x="2920.5" fill="#c6ae8b"/>
  <text id="text7291-6-4" font-size="40" line-height="125%" y="5963.964" x="4081.895"/>
  <text id="text3990-9-2" font-size="21.941" line-height="125%" y="540.405" x="2630.341" fill="#c6ae8b"/>
  <text id="text4030-6-6" font-size="21.941" line-height="125%" y="572.188" x="2978.5" fill="#c6ae8b"/>
 </g>
 <style id="style26-81">.specularity{opacity:.5}.low-specularity{opacity:.25}.full-specularity{opacity:1}.black{fill:#000}.white{fill:#fff}.outline-big{stroke-width:16;stroke:none;opacity:.1;fill:none}.outline-small{stroke-width:8}.outline-small,.stroke-highlight{fill:none;stroke:none;opacity:.2}.base-shadow{fill:#000;opacity:75}</style>
 <style id="style26-1-561">.specularity{opacity:.5}.low-specularity{opacity:.25}.full-specularity{opacity:1}.black{fill:#000}.white{fill:#fff}.outline-big{stroke-width:16;stroke:none;opacity:.1;fill:none}.outline-small{stroke-width:8}.outline-small,.stroke-highlight{fill:none;stroke:none;opacity:.2}.base-shadow{fill:#000;opacity:75}</style>
 <g word-spacing="0" letter-spacing="0" font-family="Sans" font-weight="400">
  <text id="text7291-93" font-size="40" line-height="125%" y="5974.084" x="3126.583"/>
  <text id="text3990-8" font-size="21.941" line-height="125%" y="550.525" x="1675.028" fill="#c6ae8b"/>
  <text id="text4030-5" font-size="21.941" line-height="125%" y="582.307" x="2023.188" fill="#c6ae8b"/>
  <text id="text7291-7-1" font-size="40" line-height="125%" y="5979.35" x="3950.024"/>
  <text id="text3990-2-9" font-size="21.941" line-height="125%" y="555.791" x="2498.469" fill="#c6ae8b"/>
  <text id="text4030-2-4" font-size="21.941" line-height="125%" y="587.574" x="2846.629" fill="#c6ae8b"/>
 </g>
 <style id="style26-32">.specularity{opacity:.5}.low-specularity{opacity:.25}.full-specularity{opacity:1}.black{fill:#000}.white{fill:#fff}.outline-big{stroke-width:16;stroke:none;opacity:.1;fill:none}.outline-small{stroke-width:8}.outline-small,.stroke-highlight{fill:none;stroke:none;opacity:.2}.base-shadow{fill:#000;opacity:75}</style>
 <style id="style26-0-2">.specularity{opacity:.5}.low-specularity{opacity:.25}.full-specularity{opacity:1}.black{fill:#000}.white{fill:#fff}.outline-big{stroke-width:16;stroke:none;opacity:.1;fill:none}.outline-small{stroke-width:8}.outline-small,.stroke-highlight{fill:none;stroke:none;opacity:.2}.base-shadow{fill:#000;opacity:75}</style>
 <style id="style26-1-54">.specularity{opacity:.5}.low-specularity{opacity:.25}.full-specularity{opacity:1}.black{fill:#000}.white{fill:#fff}.outline-big{stroke-width:16;stroke:none;opacity:.1;fill:none}.outline-small{stroke-width:8}.outline-small,.stroke-highlight{fill:none;stroke:none;opacity:.2}.base-shadow{fill:#000;opacity:75}</style>
 <style id="style26-8-7">.specularity{opacity:.5}.low-specularity{opacity:.25}.full-specularity{opacity:1}.black{fill:#000}.white{fill:#fff}.outline-big{stroke-width:16;stroke:none;opacity:.1;fill:none}.outline-small{stroke-width:8}.outline-small,.stroke-highlight{fill:none;stroke:none;opacity:.2}.base-shadow{fill:#000;opacity:75}</style>
 <style id="style26-2-4">.specularity{opacity:.5}.low-specularity{opacity:.25}.full-specularity{opacity:1}.black{fill:#000}.white{fill:#fff}.outline-big{stroke-width:16;stroke:none;opacity:.1;fill:none}.outline-small{stroke-width:8}.outline-small,.stroke-highlight{fill:none;stroke:none;opacity:.2}.base-shadow{fill:#000;opacity:75}</style>
 <style id="style26-30">.specularity{opacity:.5}.low-specularity{opacity:.25}.full-specularity{opacity:1}.black{fill:#000}.white{fill:#fff}.outline-big{stroke-width:16;stroke:none;opacity:.1;fill:none}.outline-small{stroke-width:8}.outline-small,.stroke-highlight{fill:none;stroke:none;opacity:.2}.base-shadow{fill:#000;opacity:75}</style>
 <style id="style26-0-7">.specularity{opacity:.5}.low-specularity{opacity:.25}.full-specularity{opacity:1}.black{fill:#000}.white{fill:#fff}.outline-big{stroke-width:16;stroke:none;opacity:.1;fill:none}.outline-small{stroke-width:8}.outline-small,.stroke-highlight{fill:none;stroke:none;opacity:.2}.base-shadow{fill:#000;opacity:75}</style>
 <style id="style26-1-7">.specularity{opacity:.5}.low-specularity{opacity:.25}.full-specularity{opacity:1}.black{fill:#000}.white{fill:#fff}.outline-big{stroke-width:16;stroke:none;opacity:.1;fill:none}.outline-small{stroke-width:8}.outline-small,.stroke-highlight{fill:none;stroke:none;opacity:.2}.base-shadow{fill:#000;opacity:75}</style>
 <style id="style26-8-5">.specularity{opacity:.5}.low-specularity{opacity:.25}.full-specularity{opacity:1}.black{fill:#000}.white{fill:#fff}.outline-big{stroke-width:16;stroke:none;opacity:.1;fill:none}.outline-small{stroke-width:8}.outline-small,.stroke-highlight{fill:none;stroke:none;opacity:.2}.base-shadow{fill:#000;opacity:75}</style>
 <style id="style26-2-48">.specularity{opacity:.5}.low-specularity{opacity:.25}.full-specularity{opacity:1}.black{fill:#000}.white{fill:#fff}.outline-big{stroke-width:16;stroke:none;opacity:.1;fill:none}.outline-small{stroke-width:8}.outline-small,.stroke-highlight{fill:none;stroke:none;opacity:.2}.base-shadow{fill:#000;opacity:75}</style>
 <style id="style26-28-7">.specularity{opacity:.5}.low-specularity{opacity:.25}.full-specularity{opacity:1}.black{fill:#000}.white{fill:#fff}.outline-big{stroke-width:16;stroke:none;opacity:.1;fill:none}.outline-small{stroke-width:8}.outline-small,.stroke-highlight{fill:none;stroke:none;opacity:.2}.base-shadow{fill:#000;opacity:75}</style>
 <style id="style26-1-5-2">.specularity{opacity:.5}.low-specularity{opacity:.25}.full-specularity{opacity:1}.black{fill:#000}.white{fill:#fff}.outline-big{stroke-width:16;stroke:none;opacity:.1;fill:none}.outline-small{stroke-width:8}.outline-small,.stroke-highlight{fill:none;stroke:none;opacity:.2}.base-shadow{fill:#000;opacity:75}</style>
 <style id="style26-3-0">.specularity{opacity:.5}.low-specularity{opacity:.25}.full-specularity{opacity:1}.black{fill:#000}.white{fill:#fff}.outline-big{stroke-width:16;stroke:none;opacity:.1;fill:none}.outline-small{stroke-width:8}.outline-small,.stroke-highlight{fill:none;stroke:none;opacity:.2}.base-shadow{fill:#000;opacity:75}</style>
 <style id="style26-0-6-3">.specularity{opacity:.5}.low-specularity{opacity:.25}.full-specularity{opacity:1}.black{fill:#000}.white{fill:#fff}.outline-big{stroke-width:16;stroke:none;opacity:.1;fill:none}.outline-small{stroke-width:8}.outline-small,.stroke-highlight{fill:none;stroke:none;opacity:.2}.base-shadow{fill:#000;opacity:75}</style>
 <style id="style26-1-56-4">.specularity{opacity:.5}.low-specularity{opacity:.25}.full-specularity{opacity:1}.black{fill:#000}.white{fill:#fff}.outline-big{stroke-width:16;stroke:none;opacity:.1;fill:none}.outline-small{stroke-width:8}.outline-small,.stroke-highlight{fill:none;stroke:none;opacity:.2}.base-shadow{fill:#000;opacity:75}</style>
 <style id="style26-8-9-0">.specularity{opacity:.5}.low-specularity{opacity:.25}.full-specularity{opacity:1}.black{fill:#000}.white{fill:#fff}.outline-big{stroke-width:16;stroke:none;opacity:.1;fill:none}.outline-small{stroke-width:8}.outline-small,.stroke-highlight{fill:none;stroke:none;opacity:.2}.base-shadow{fill:#000;opacity:75}</style>
 <style id="style26-2-3-3">.specularity{opacity:.5}.low-specularity{opacity:.25}.full-specularity{opacity:1}.black{fill:#000}.white{fill:#fff}.outline-big{stroke-width:16;stroke:none;opacity:.1;fill:none}.outline-small{stroke-width:8}.outline-small,.stroke-highlight{fill:none;stroke:none;opacity:.2}.base-shadow{fill:#000;opacity:75}</style>
 <style id="style26-81-6">.specularity{opacity:.5}.low-specularity{opacity:.25}.full-specularity{opacity:1}.black{fill:#000}.white{fill:#fff}.outline-big{stroke-width:16;stroke:none;opacity:.1;fill:none}.outline-small{stroke-width:8}.outline-small,.stroke-highlight{fill:none;stroke:none;opacity:.2}.base-shadow{fill:#000;opacity:75}</style>
 <style id="style26-1-561-0">.specularity{opacity:.5}.low-specularity{opacity:.25}.full-specularity{opacity:1}.black{fill:#000}.white{fill:#fff}.outline-big{stroke-width:16;stroke:none;opacity:.1;fill:none}.outline-small{stroke-width:8}.outline-small,.stroke-highlight{fill:none;stroke:none;opacity:.2}.base-shadow{fill:#000;opacity:75}</style>
 <g word-spacing="0" letter-spacing="0" font-family="Sans" font-weight="400">
  <text id="text7291-0" font-size="40" line-height="125%" y="5958.084" x="2348.583"/>
  <text id="text3990-54" font-size="21.941" line-height="125%" y="534.525" x="897.029" fill="#c6ae8b"/>
  <text id="text4030-9" font-size="21.941" line-height="125%" y="566.307" x="1245.188" fill="#c6ae8b"/>
  <text id="text7291-3-1" font-size="40" line-height="125%" y="5954.599" x="3091.075"/>
  <text id="text3990-5-8" font-size="21.941" line-height="125%" y="531.04" x="1639.52" fill="#c6ae8b"/>
  <text id="text4030-22-3" font-size="21.941" line-height="125%" y="562.822" x="1987.68" fill="#c6ae8b"/>
  <text id="text7291-7-8" font-size="40" line-height="125%" y="5959.865" x="3914.515"/>
  <text id="text3990-2-2" font-size="21.941" line-height="125%" y="536.306" x="2462.96" fill="#c6ae8b"/>
  <text id="text4030-2-5" font-size="21.941" line-height="125%" y="568.088" x="2811.12" fill="#c6ae8b"/>
  <text id="text7291-9-1" font-size="40" line-height="125%" y="5945.836" x="3958.056"/>
  <text id="text3990-0-85" font-size="21.941" line-height="125%" y="522.278" x="2506.502" fill="#c6ae8b"/>
  <text id="text4030-3-6" font-size="21.941" line-height="125%" y="554.06" x="2854.661" fill="#c6ae8b"/>
  <text id="text7291-6-6" font-size="40" line-height="125%" y="5947.836" x="4016.056"/>
  <text id="text3990-9-5" font-size="21.941" line-height="125%" y="524.278" x="2564.502" fill="#c6ae8b"/>
  <text id="text4030-6-62" font-size="21.941" line-height="125%" y="556.06" x="2912.661" fill="#c6ae8b"/>
  <text id="text7291-73-4" font-size="40" line-height="125%" y="5960.304" x="3081.689"/>
  <text id="text3990-1-6" font-size="21.941" line-height="125%" y="536.745" x="1630.135" fill="#c6ae8b"/>
  <text id="text4030-31-9" font-size="21.941" line-height="125%" y="568.527" x="1978.295" fill="#c6ae8b"/>
  <text id="text7291-7-0-0" font-size="40" line-height="125%" y="5965.57" x="3905.13"/>
  <text id="text3990-2-6-1" font-size="21.941" line-height="125%" y="542.011" x="2453.575" fill="#c6ae8b"/>
  <text id="text4030-2-0-1" font-size="21.941" line-height="125%" y="573.794" x="2801.735" fill="#c6ae8b"/>
  <text id="text7291-1-9" font-size="40" line-height="125%" y="5973.45" x="3199.404"/>
  <text id="text3990-6-9" font-size="21.941" line-height="125%" y="549.891" x="1747.849" fill="#c6ae8b"/>
  <text id="text4030-20-9" font-size="21.941" line-height="125%" y="581.673" x="2096.008" fill="#c6ae8b"/>
  <text id="text7291-3-7-3" font-size="40" line-height="125%" y="5969.964" x="3941.895"/>
  <text id="text3990-5-5-0" font-size="21.941" line-height="125%" y="546.406" x="2490.34" fill="#c6ae8b"/>
  <text id="text4030-22-5-6" font-size="21.941" line-height="125%" y="578.188" x="2838.5" fill="#c6ae8b"/>
  <text id="text7291-7-7-4" font-size="40" line-height="125%" y="5975.23" x="4765.335"/>
  <text id="text3990-2-4-0" font-size="21.941" line-height="125%" y="551.672" x="3313.781" fill="#c6ae8b"/>
  <text id="text4030-2-07-6" font-size="21.941" line-height="125%" y="583.454" x="3661.94" fill="#c6ae8b"/>
  <text id="text7291-9-6-6" font-size="40" line-height="125%" y="5961.202" x="4808.877"/>
  <text id="text3990-0-8-5" font-size="21.941" line-height="125%" y="537.643" x="3357.322" fill="#c6ae8b"/>
  <text id="text4030-3-3-9" font-size="21.941" line-height="125%" y="569.426" x="3705.482" fill="#c6ae8b"/>
  <text id="text7291-6-4-7" font-size="40" line-height="125%" y="5963.202" x="4866.877"/>
  <text id="text3990-9-2-8" font-size="21.941" line-height="125%" y="539.643" x="3415.322" fill="#c6ae8b"/>
  <text id="text4030-6-6-9" font-size="21.941" line-height="125%" y="571.426" x="3763.482" fill="#c6ae8b"/>
  <text id="text7291-93-2" font-size="40" line-height="125%" y="5973.322" x="3911.565"/>
  <text id="text3990-8-6" font-size="21.941" line-height="125%" y="549.763" x="2460.01" fill="#c6ae8b"/>
  <text id="text4030-5-3" font-size="21.941" line-height="125%" y="581.545" x="2808.17" fill="#c6ae8b"/>
  <text id="text7291-7-1-1" font-size="40" line-height="125%" y="5978.588" x="4735.005"/>
  <text id="text3990-2-9-9" font-size="21.941" line-height="125%" y="555.029" x="3283.45" fill="#c6ae8b"/>
  <text id="text4030-2-4-1" font-size="21.941" line-height="125%" y="586.812" x="3631.61" fill="#c6ae8b"/>
 </g>
 <g id="g7311" stroke-opacity="0">
  <g fill-rule="evenodd">
   <path id="path4367" stroke-width="3.125" fill="#fff9e9" d="m171.16 252.04l-25.56 7.516c-0.908 25.8 8.909 44.601 4.18 68.69-4.712 5.81-7.826 14.157-10.986 25.089-1.263 4.367 2.064 16.217 0.682 21.412l71.67-1.636c-0.864-4.142 3.651-8.352 3-12.403-1.596-9.91-3.435-19.926-9.834-31.896l1.336-75.33-20.736 0.98z"/>
   <path id="path4363" stroke-width="3.125" fill="#f8ded8" d="m167.17 246.74l15.381-1.497 0.02 8.756 2.116 0.58-7.41 7.252-12.286-8.37 2.673-0.69z"/>
   <path id="path4389" stroke-width="3.469" fill="#fff9e9" d="m147.3 258.94l-39.832 13.414-14.232 5.108c-14.824 3.97-0.302 19.157 7.481 15.517l53.543-13.398c10.85-2.062 2.897-25.03-6.96-20.641z"/>
   <path id="path4393" stroke-width="3.125" fill="#fff9e9" d="m173.06 351.95l-6.075 79.583 7.957 70.007c-1.445 10.27-15.421 10.543-16.491-3.98l-16.136-66.499-4.597-70.333c0.732-21.541 36.115-31.503 35.342-8.778z"/>
   <path id="path7136" fill="#3d4c4f" d="m174.3 493.62l-17.768 3.8 0.973 9.99 10.148 2.097 6.531-0.75 3.65-4.795-3.534-10.342z"/>
   <path id="path4401" stroke-width="3.469" fill="#fff9e9" d="m193.3 254.2l51.565-14.243 12.315-5.292c15.251-6.685 16.05 12.369 6.927 14.7l-61.376 27.625c-10.559 5.532-20.826-19.67-9.431-22.79z"/>
   <path id="path4983" stroke-width="2.957" fill="#fff9e9" d="m178.82 348.47l3.267 70.782 3.457 100.54c1.172 9.347 15.06 10.7 16.5-2.269l5.658-92.166 6.03-66.196c-0.17-19.421-35.093-31.182-34.912-10.694z"/>
   <path id="path7144" stroke-width="1.065" fill="#3d4c4f" d="m183.55 519.08l1.203 8.486 9.624 2.651 11.329-2.828-0.3-11.844z"/>
   <path id="path4391" stroke-width="3.482" fill="#fff9e9" d="m93.605 277.06c6.958-1.807 15.225 14.09-1.857 19.773l-46.79 13.63c-12.437 5.456-19.477-11.82-2.947-15.256z"/>
   <path id="path5163-2" stroke-width="3.125" fill="#fff9e9" d="m167.32 251.67c-36.31 1.292-72.8-7.962-77.895-19.31l-4.292-11.468c-8.136-14.69-13.293-30.14-17.83-46-9.798-43.226 6.128-78.23 28.17-93.211 46.599-37.546 128.22-32.852 155.01 25.523 11.559 29.324 16.751 62.84-2.578 109.79-9.632 16.027-37.048 29.938-80.58 34.676z"/>
  </g>
  <g fill="#506567">
   <path id="path5950" stroke-width="10" stroke-linecap="round" d="m130.64 204.31c0.626 8.535-1.625 15.94-8.338 17.03s-14.272-4.687-15.972-13.08c-2.695-13.306 2.703-16.35 9.484-17.245 6.807-0.898 14.026 2.37 14.827 13.296z"/>
   <path id="path5952" stroke-width="3.125" fill-rule="evenodd" d="m97.232 211.1c0.932-23.934 17.034-30.388 36.171-21.08-17.815-22.22-46.542 0.004-36.17 21.08z"/>
   <path id="path5950-1" stroke-width="10" stroke-linecap="round" d="m194.64 196.24c0.981 8.502 4.75 15.342 11.974 15.128 7.223-0.215 14.015-7.336 14.185-15.905 0.268-13.582-5.956-15.538-13.213-15.118-7.284 0.421-14.201 5.013-12.946 15.896z"/>
  </g>
  <g fill-rule="evenodd">
   <path id="path7166" fill="#f8ded8" d="m190.56 121.6l-119.85 29.34 8.838 53.387 3.537-20.86 5.789-10.364 0.375 11.375 12.125-15.625 3 9.75 8.5-22.125c3.422 10.223 10.189 17.686 16.875 25.875v-4.625c12.391 24.177 19.022 22.734 44.625 31.75l1.125-39.5 2.125-10.5c6.109 8.05 13.56 9.132 22.875 11.75l1.125-2.125 33.938 11.402 2.437 7.723c-4.226 11.601-5.157 35.248-6.049 44.117 5.78-3.694 10.313-7.714 13.582-11.922l0.717-3.82-7-5.25 17.127-40.872z"/>
   <path id="path5980" stroke-width="3.125" fill="#506567" d="m230.42 196.87c-5.557-23.327-23.617-26.582-41.831-13.776 14.36-25.233 48.631-8.909 41.83 13.776z"/>
   <path id="path4776" stroke-width="3.489" fill="#e59886" d="m183.62 221.4l-31.015 6.572c2.774 23.05 40.492 16.612 31.016-6.572z"/>
   <path id="path4812" fill="#4b9d79" d="m111.37 143.87c5.817 18.466 8.14 24.965 20.505 38.184l-0.353-6.01c11.164 23.557 20.842 27.58 44.194 34.647 1.424-15.337-1.271-29.907-3.889-44.9l6.01 17.677c-0.064-13.135-2.401-25.364-6.01-37.83 9.296 18.684 12.327 18.813 30.406 28.284l-3.182-9.9c11.187 8.947 23.8 12.884 37.123 17.324l-6.01-22.273 9.899 28.284c-5.149 16.537-5.422 33.836-7.602 50.912 8.576-10.503 9.807-19.057 12.375-31.467l7.424-2.917-2.651 9.104-6.17 2.215-3.15 17.533c23.943-19.652 21.278-29.38 28.765-60.23l7.856 8.122c-2.11-36.794-5.635-74.656-35.08-108.53l-18.03-2.475-18.71-13.66c-46.645-4.367-89.042 4.282-126.25 28.155-12.597 18.247-20.993 26.576-32.916 43.288l12.057-5.458c-11.869 23.417-8.142 32.426-6.364 58.337l2.121 16.97 2.829-11.667c3.3 24.15 12.985 25.85 14.849 40.305l-6.01-24.749 22.273 33.234c-3.562-17.242-5.633-34.443-6.364-51.972l9.9-13.788-2.829 17.677c7.675-7.459 10.97-15.294 14.142-25.102l0.708 26.516c4.5-14.456 7.06-28.852 8.131-43.84z"/>
   <path id="path7180" fill="#45876a" d="m70.09 96.191c-6.05 7.955-11.432 14.34-17.393 22.102 39.511 23.45 78.543 30.401 122.62 41.469-0.947-4.716-2.129-9.404-3.496-14.125 3.895 7.828 6.696 12.382 9.96 15.748l0.648 0.162 49.593 4.428-1.863-6.903 2.434 6.953 43.627 3.895a386.8 386.8 0 0 0 -1.286 -14.557c-76.355-8.546-137.32-29.357-204.85-59.172z"/>
   <path id="path4851" fill="#506567" d="m38.015 81.82c33.545 44.67 170.16 86.62 261.48 85.16l-27-34.5-2-55c-38.772-22.914-78.293-34.606-118-43.5l-64 41z"/>
   <path id="path4403" stroke-width="3.482" fill="#fff9e9" d="m252.7 240.52c-0.125 7.912 17.915 13.488 19.433-6.236l0.956-62.707c2.388-14.675-16.073-18.093-15.534 0.496z"/>
   <path id="path4820" fill="#506567" d="m146.11 333.11l-7.071 12.198c-4.538 27.895 0.44 57.442 2.215 85.67l12.125 55.125-0.75 3.875 3.125 8.875c7.971 1.73 15.73 0.561 22.125-3.5l-0.038-18.435-5.303-5.657-3.005-39.244-1.414-1.591 5.657-54.978 4.242-0.177 2.298 60.281 2.393 64.676c-0.202 6.53-3.435 10.681-1.955 13.5l1.875 5.875c15.184 3.108 16.716 2.916 24.625-1.875l1-54.5 1.75-9-1.5-17c2.502-42.736 8.599-79.268 4.375-95.625-21.52 4.758-47.632-7.521-66.77-8.493z"/>
   <path id="path7146" fill="#f8ded8" d="m114.85 269.86l-3.786 1.276-0.672 10.173 0.557 9.102 13.166-3.295-9.265-17.256z"/>
   <path id="path7151" fill="#f8ded8" d="m231.81 250.16l0.328 13.588 4.488-2.02-4.816-11.568z"/>
   <path id="path4818" fill="#fff" d="m149 257.35l-35.375 10.875c-2.354 6.62 3.36 17.758 4.375 27.125l18.25-10.125c3.871-0.33 6.848 0.013 9.375-2.875l-1.782 45-7.11 23.875 26.316 13.878 15.556-16.617 19.8 18.739 16.916-19.696-7.785-19.46-2.21-22.274 0.619-29.698 28.814-4.95c-2.208-13 1.226-16.162-6.01-26.87l-34.249 9.198-9.688 0.75-8.062 7-11.031-8z"/>
   <path id="path7156" fill="#e9ecf5" d="m151.94 262.6v10.562l-1.688 2.563-0.125-1-4.875 6.125-4.438 1.312 0.188-6.5c-2.666 2.964-3.888 5.826-4.75 9.563 3.871-0.33 6.848 0.013 9.375-2.875l-1.781 45-1.104 3.7 6.572-0.513 18.69-52.06 3-9.75z"/>
   <path id="path4814" fill="#506567" d="m165.38 253.07l-16.971 3.494-0.177 1.414c7.859 13.521 5.895 14.404-2.298 27.224-5.223 19.579-8.505 25.718-20.679 40.274l19.75 2.25c10.664-17.096 16.889-35.956 23.75-54.75l5.125-8.25z"/>
   <path id="path7161" fill="#e9ecf5" d="m193.3 254.2l-10.8 16.53c1.228 21.761-3.58 42.453-7.756 63.619 11.85 1.952 23.053 0.314 34.756-1.366l-1.965-4.91-2.209-22.273 0.62-29.7 18.042-3.099-2.176-1.646-16 0.75-3.937-4 0.5 8.125c-7.906-4.879-9.517-10.28-9.08-22.026z"/>
   <path id="path4816" fill="#506567" d="m185.7 254l-5.834 10.254 2.38 11.722c2.307 22.187-0.04 45.197-1.75 55l28.942 0.573-0.497-9.073-1.445-4.5c-2.347-11.8-1.659-23.725-1.552-35.675-10.868-6.221-16.019-16.11-12.073-29.075z"/>
   <path id="path4822" fill="#506567" d="m52.386 289.02l-1.524 8.077 2.168 6.486 3.28 5.15-10.935 2.119-4.75 1.125-6.375-6.5 0.125-8.25 4.875-2.625 2.125 0.25z"/>
   <path id="path4828" fill="#4b9d79" d="m52.387 289.02l-3.364 1.78-1.382 6.688 2.343 6.762 3.66 4.998 2.667-0.516-3.28-5.15-2.168-6.486 1.524-8.076z"/>
   <path id="path4822-5" fill="#506567" d="m255.25 184.71l7.177-4.005h6.84l5.924 1.48-1.456-11.044-0.438-4.861-8.185-3.987-7.785 2.733-0.945 5.455 0.91 1.936z"/>
  </g>
  <g fill-rule="evenodd" fill="#4b9d79">
   <path id="path4828-3" d="m255.25 184.71l0.624-3.755 5.905-3.43 7.156 0.08 5.9 1.888 0.356 2.692-5.924-1.479h-6.84l-7.177 4.003z"/>
   <path id="path4651" d="m93.264 71.926l-4.764 3.05-4.414 1.807c61.16 30.027 124.25 45.37 190.3 58.108l-1.889-2.414-0.254-6.979c-72.312-8.211-143.04-35.434-178.98-53.572z"/>
   <path id="path4653" d="m107.09 63.066l-8.104 5.194c61.74 27.499 116.81 44.881 173.08 52.357l-0.33-9.11c-59.858-3.273-112.52-23.874-164.65-48.44z"/>
  </g>
  <g fill="#fff">
   <path id="path4663" fill-rule="evenodd" d="m206.18 308.04l-14.555 0.412-1.236 4.155 16.173-0.588a95.664 95.664 0 0 1 -0.382 -3.979z"/>
   <path id="path4665" fill-rule="evenodd" d="m205.84 301.29l-14.215 0.404-1.236 4.155 15.603-0.569c-0.071-1.329-0.12-2.659-0.152-3.99z"/>
   <circle id="circle4675" style="isolation:auto;mix-blend-mode:normal" stroke-linecap="round" cx="233.31" cy="126.54" r="12.744" overflow="visible" stroke-width="12.137"/>
  </g>
  <g stroke-linecap="round">
   <circle id="circle4677" style="isolation:auto;mix-blend-mode:normal" stroke-width="10.282" cy="126.54" cx="233.31" overflow="visible" r="10.796" fill="#4b9d79"/>
   <circle id="circle4681" style="isolation:auto;mix-blend-mode:normal" stroke-width="9.032" cy="133.23" cx="258.25" overflow="visible" r="9.484" fill="#fff"/>
   <circle id="circle4683" style="isolation:auto;mix-blend-mode:normal" cx="258.25" cy="133.23" r="8.035" overflow="visible" stroke-width="7.652" fill="#4b9d79"/>
  </g>
  <g fill-rule="evenodd">
   <path id="path4685" fill="#4b9d79" d="m215 363.85l5.38-0.396 10.12 4.521-8.5 31.125-8.375 3.875-1.375-6.5z"/>
   <path id="path7139" fill="#475657" d="m168.12 430.42l-12.803 4.74-8.687-0.625-5.375-3.562 12.125 55.125-0.75 3.875 3.125 8.875c7.971 1.73 15.73 0.56 22.125-3.5l-0.037-18.436-5.305-5.656-3.004-39.244-1.414-1.592zm13.069 28.658l1.521 41.145a21.371 21.371 0 0 1 -0.191 2.242l9.465 0.08-10.795-43.467z"/>
   <path id="path7175" fill="#45876a" d="m220.38 363.46l-5.38 0.397-2.75 32.625 1.375 6.5 8.375-3.875-7.393-3.946 5.774-31.7z"/>
   <path id="path4661" fill="#4b9d79" d="m142.88 327.84l-2.517 7.657c21.528 30.027 45.395 39.874 75.749 54.491l1.06-8.132c-36.114-11.776-48.873-25.257-74.292-54.016z"/>
  </g>
 </g>
 <g id="g7258" stroke-opacity="0">
  <g fill-rule="evenodd">
   <path id="path7198" fill="#45876a" d="m613.34 245.46c1.579 22.341 0.204 22.082-10.25 40.75l-7.255-22.353c-6.026 9.06-10.505 18.894-20.006 26.217l-6.49-15.864-16.5 13-32.25-15-11.75 15c-6.34-4.83-8.28-11.859-10-19-4.68 6.629-9.216 13.525-14.81 20.17l-7.702-38.633-27.12 21.07c-1.787-14.2 0.706-26.931 2.37-40.268l-42.777 20.02c4.911-29.69 19.127-50.957 28.204-71.719l118.34 62.61z"/>
   <path id="path5183-3-4" stroke-width="2.905" fill="#f8e0d9" d="m536.58 359.62l-3.637 65.323-26.284 32.648c-3.17 9.332 5.093 16.056 17.733 3.337l29.641-27.852 9.836-60.807c2.098-18.963-24.826-33.404-27.039-13.4z"/>
   <path id="path7081" fill="#e9ecf5" d="m527.5 429.72c1.783 12.381 7.145 13.6 13.17 16.793l-2.829 7.602-4.773 2.475-5.303 8.662-2.387-1.414-1.414 1.767-3.624-1.944-2.563 3.005-5.569 1.768-5.391-11.402 4.33-5.48 0.885-5.569 3.977-1.237 4.862-6.364 0.707-2.917z"/>
   <path id="path6143-5-2" stroke-width="1.098" fill="#3d4c4f" d="m521.49 462.42l-1.552 0.079-0.309 0.253c-1.605-2.902-3.822-5.136-6.147-7.435l0.168-0.235-2.094-5.19-1.528-0.444c-2.277 1.436-4.556 2.867-6.836 4.298-1.506 9.342-0.29 9.889 5.32 16.915 2.532 0.826 3.817-0.048 5.419-0.49 2.254-2.229 4.765-4.077 7.353-5.88zm-3.228 3.162l-0.462 0.378c-3.16 2.306-5.68-2.571-6.855-6.172l1.144-1.597c2.562 1.782 4.469 4.858 6.173 7.39z"/>
   <path id="path5237-9-7" stroke-width="2.905" fill="#fff9e9" d="m503.61 366.17l-5.86 61.695c-11.082 17.703-11.27 52.776-16.059 80.364-0.353 9.247 12.893 12.772 16.355 0.43 2.617-16.165 7.471-48.75 20.51-73.63l22.555-59.817c2.93-18.852-34.411-28.93-37.501-9.042z"/>
   <path id="path5179-7-0" stroke-width="2.478" fill="#f8e0d9" d="m539.81 294.05l43.618 2.873 9.857 1.265c12.212 1.65 13.558-15.779 6.33-15.694l-49.182-7.104c-8.496-1.723-23.372 16.023-10.623 18.66z"/>
   <path id="path4304-3-8" stroke-width="3.069" fill="#fff9e9" d="m510.54 270.87l-7.723 4.106c3.45 25.54 10.959 45.784 4.413 59.8-5.144 8.966-9.467 28.35-2.382 38.962l30.274 12.315 28.264-15.74c-4.857-20.338-3.643-36.387-6.304-43.679l-4.6-15.881 8.345-17.503-13.29-17.723-8.224-3.761z"/>
   <path id="path4363-7-6" stroke-width="3.391" fill="#f8ded8" d="m542.42 279.23c-0.776 1.284-1.248 2.752-3.208 3.326-8.907-1.91-12.46-8.129-17.698-13.148l10.71-1.824 3.136-1.704 7.124 9.667z"/>
   <path id="path5175-6-4" stroke-width="3.408" fill="#fff9e9" d="m595.26 281.47l39.254 4.003 8.886 0.245c9.833 1.27 5.033 14.102-2.941 13.067l-46.31-0.597c-10.699 0.89-9.266-17.758 1.111-16.718z"/>
   <path id="path5181-4-7" stroke-width="2.476" fill="#fff9e9" d="m568.7 305.42c-8.77-2.944-6.223-19.164 7.194-14.94l42.197 14.198c10.317 2.311 7.883 17.502-4.242 12.222z"/>
   <path id="path4692" fill="#fff" d="m507.35 306.86l2.774 4.59-2.213 17.723c16.52 3.49 34.243 12.027 49.842-0.812l-3.912-17.082 8.309-16.97-13.965-18.915-3.448-1.194-1.104 7.292-1.133 1.862-13.875-3.875-12.375-9-7.375-0.437 4.063 1.5 2.187 9.375-6.438 12.562-3 3.25z"/>
   <path id="path4685-0" fill="#4b9d79" d="m493.2 336.43l-4.222-3.358-10.909-1.965-10.508 30.506 4.737 7.92 4.798-4.597z"/>
   <path id="path7250" fill-opacity=".094" fill="#354474" d="m532.63 292.36l-24.19 32.586-0.527 4.223c0.365 0.077 0.733 0.168 1.1 0.25-0.413 1.875-0.996 3.664-1.787 5.36a32.683 32.683 0 0 0 -1.114 2.148l9.9 2.457 13.966-19.889 5.663-6.37 12.048-2.462 0.673 20.854 2.916-1.946-0.683-29.783z"/>
   <path id="path4696" fill="#506567" d="m507 269.91l2.74-0.265 4.507 1.945 3.36 12.286-9.458 14.319-3.006-0.177 0.708 3.712-1.415 2.298 2.848 7.06c-3.851 13.09-14.033 11.213-26.185 17.112l19.472 7.352 13.146-1.648c21.006-9.814 19.145-22.637 22.508-44.109l-19.768-19.177-4.729-1.083z"/>
   <path id="path7245" fill="#475657" d="m533.61 287.26l-19.527 1.937-5.94 8.994-3.005-0.177 0.707 3.712-1.414 2.3 2.847 7.058 13.063-7.766 14.457-3.205c0.415-3.229 0.84-6.604 1.422-10.322l-2.61-2.531z"/>
   <path id="path7190" fill="#f8e0d9" d="m501.54 387.99v0.004l-1.12 11.772 5.142 1.148 26.51-1.72 1.872-4.964-32.404-6.24z"/>
   <path id="path7175-4" fill="#45876a" d="m488.98 333.07l4.223 3.36-16.105 28.505-4.797 4.597-4.737-7.92 8.33 0.905 13.086-29.446z"/>
   <path id="path4694" fill="#506567" d="m504.91 338.59l0.492-3.65c21.978 7.077 44.652 11.498 56.47 2.286l0.042 1.976c3.452 20.624 2.508 41.187 1.905 61.954l-20.124-5.237c-13.748-0.622-25.653 1.447-39 0l-12-9-26.5-7.75-7.891-17.932c15.535-7.55 29.251-8.185 46.606-22.647z"/>
   <path id="path5445" fill="#4b9d79" d="m558.5 326.6l0.83 10.012-11.33 3.49c-26.052 10.107-45.294 10.547-72.5 11.75l8.125-9.25c27.765 1.414 48.648-7.77 74.875-16z"/>
   <path id="path4698" fill="#506567" d="m546.09 274.51l7.747 11.225-5.973 4.595 0.632 17.606 1.26 15.34-0.09 13.11 8.09 2.297 2.905-5.48-0.813-6.279-2.475-1.414 0.088-3.359-3.491-10.695 8.53-15.821-5.923-10.607-8.286-9.922z"/>
   <path id="path5388" fill="#e9ecf5" d="m562.56 276.98l2.343-0.062 2.25-0.438 2.198 1.169 13.021 1.706h3.63l1.75 0.625 11.25 0.375 21.25 3.125 5.625-0.375 3.125 1.625 12.25-0.375c0.21 7.176 1.296 12.583-5.537 16.455l-11.166-0.638-4.547 0.433-23.75-1.375-5.75 0.875-30.375-4.5-3-3.125 1.313-8.5z"/>
   <path id="path5201-5-6" stroke-width="3.42" fill="#fff9e9" d="m510.8 270.62c-7.511-2.002-17.803 14.634 0.634 20.773l56.497 12.861c13.419 5.768 21.068-11.013 3.223-14.922z"/>
   <path id="path4284-3-6-8" stroke-width="3.125" fill="#fff9e9" d="m574.83 273.76c21.207-8.629 40.375-21.485 43.156-33.608l-0.697-11.016c5.11-16 7.15-32.161 8.501-48.6 1.166-44.307-21.292-75.526-45.835-85.913-53.036-27.719-132.16-7.172-147.03 55.311-5.608 31.018 0.761 60.127 31.45 96.962 34.828 22.652 69.314 31.595 110.46 26.864z"/>
   <path id="path4780" stroke-width=".899" fill="#506567" d="m498.75 195.54l33.328 22.319 3.168 5.557-3.343 1.912-37.225 10.465-4.588-2.859 3.778-4.153 30.81-8.493-29.321-20.123z"/>
   <path id="path4780-6" stroke-width=".632" fill="#506567" d="m613.33 205.23l-22.588 17.14-2.127 3.71 2.295 1.701 25.46 6.52 3.12-1.299-2.866-3.588-19.355-5.252 19.286-14.812z"/>
   <path id="path4776-7" stroke-width="3.489" fill="#e59886" d="m541.04 244.61l30.18 4.161c-1.652 27.96-40.463 26.817-30.18-4.161z"/>
   <path id="path5386" fill="#506567" d="m561.31 276.6l-4 7.813 1 11.375 2.062 0.187-1.438-10.937 4.336-8.188z"/>
   <path id="path7185" fill="#f8e0d9" d="m597.86 139.63l-114.55 12.727-25.102 57.628 20.79 15.12 0.625-24.25 36.25-27.625-4.5 21 15.5-3.875 27.12-9.12-11 47.75 42.838-21.116 29.7-23.334 4.77 33.698c2.97-12.433 4.432-24.977 5.477-37.688 0.102-3.853 0.015-7.6-0.226-11.25l-27.7-29.66z"/>
   <path id="path4687" fill="#4b9d79" d="m476.41 81.998c-46.657 14.479-65.958 49.057-90.888 88.004l21.996-2.654c-14.103 25.252-7.728 51.855-11.863 77.652l28.899-29.795c-7.338 22.608 3.836 41.242 6.798 61.59l18.28-29.32c8.965 16.12 16.366 28.569 21.877 46.105 13.214-26.519 7.985-63.938 6.556-93.254 12.792-11.94 26.503-15.05 43.65-40.357-1.987 14.223-6.298 25.394-13.718 38.008 23.93-5.345 47.57-19.38 54.717-30.024-8.207 20.153-12.788 41.133-17.467 62.274 28.934-12.21 55.724-29.288 71.777-56.317 5.484 12.672 3.945 44.745 4.873 49.686 17.123-23.944 27.27-58.076 10.7-83.684 25.836 7.964 28.58-0.802 23.242-14.074 0.13 28.511-36.472-9.478-47.89-21.285l-10.653-4.285-25.176-14.942c-32.039-8.308-62.894-4.402-95.71-3.328z"/>
   <path id="path5395-0" fill="#506567" d="m572.77 297.97l-2.651-7.696 4.82-12.032 2.939-0.042-4.576 12.237 2.598 8.448z"/>
   <path id="path5395-0-6" stroke-width=".984" fill="#506567" d="m607.06 280.93c-5.892 8.063-3.863 12.362-2.077 19.078l2.87 0.643c-3.063-10.226-3.686-10.439 2.468-19.943z"/>
   <path id="path5384" fill="#fff" d="m520.9 293.62l1.982 2.911 3.982-0.873c8.386 2.787 17.825 3.84 25.258 5.755l1.687 0.062 8.625 5.375 2.5-1.437 18.938 7.125c7.762-0.453 14.515 3.828 21.5 6.75l10.002 0.336c3.274-5.032 4.115-9.903 3.685-15.586l-12.31-4.44-9-4.625-1.875 1.125-19.5-6.25-2.875-2.375h-2.625l-33.032-9.345-5.48-3.005-4.426 0.538-6.125 7.687z"/>
  </g>
  <g fill-rule="evenodd" fill="#506567">
   <path id="path5382" d="m527.02 275.03c-6.979 6.89-6.645 9.083-7.086 18.388l1.956 1.906c-0.129-11.342 0.446-11.574 7.255-19.794z"/>
   <path id="path5390" d="m570.1 308.01c-0.991-10.186 2.145-11.344 7.69-18.296l2.828 0.795c-7.28 8.669-9.18 11.351-7.778 19.269z"/>
   <path id="path5393" d="m576.03 309.95c-0.525-11.365 2.317-11.75 7.69-18.296l2.828 0.796c-7.738 8.42-8.848 8.575-7.778 19.268z"/>
   <path id="path5395" d="m534.75 297.75c-1.494-9.307 2.034-11.15 7.69-18.296l2.828 0.795c-7.238 8.587-7.882 8.898-7.778 19.269z"/>
   <path id="path5395-0-6-1" stroke-width=".97" d="m613.98 281.99c-5.801 7.036-3.654 9.787-2.083 18.46l2.877 0.622c-2.49-10.76-3.837-11.146 2.475-19.297z"/>
  </g>
  <g fill-rule="evenodd">
   <path id="path7218" fill="#45876a" d="m598.04 100.47c-61.775-8.14-105.04 26.568-133.79 70.631l24.75-58.12 61.75-22.5 41.364 5.31z"/>
   <path id="path5443" fill="#506567" d="m459.62 200.08c-5.942-97.048 46.06-121.02 113.14-116.67 8.961 3.994 18.352 10 25.28 17.06-82.303-20.294-135.89 46.283-138.42 99.613z"/>
   <path id="path7220" fill="#f8e0d9" d="m490.03 449.07a162.03 162.03 0 0 0 -1.197 6.094l19.285 6.178c0.689-2.274 1.41-4.549 2.188-6.813-8.97 1.262-13.917-2.592-20.276-5.459z"/>
   <path id="path7064" fill="#fff" d="m488.43 451.11c7.538 5.335 17.809 7.455 21.567 4.95l-2.652 10.076v12.02l-3.359 3.36 0.973 9.81-3.89 6.718 1.326 3.27-3.447 3.536-1.149 6.364-5.126 0.707-10.784-5.215 0.177-4.95-2.475-1.59 1.503-6.276-1.945-6.364 3.27-3.89-0.265-3.005 3.536-17.5 0.884-8.044z"/>
   <path id="path7234" fill="#e9ecf5" d="m479.6 500.16l2.474 1.592-0.097 2.717 16.927 0.668 0.053-0.291 3.445-3.537-14.318-0.309-8.484-0.84z"/>
   <path id="path6143-5" stroke-width="1.098" fill="#506567" d="m498.43 502.59l-1.032 1.161-0.037 0.398c-3.194-0.891-6.341-0.877-9.61-0.831l-0.05-0.285-5.168-2.147-1.389 0.778c-0.573 2.63-1.151 5.258-1.73 7.887 5.604 7.625 6.846 7.142 15.79 8.07 2.364-1.226 2.642-2.755 3.45-4.207-0.008-3.17 0.435-6.256 0.965-9.366zm-0.01 4.518l-0.054 0.594c-0.573 3.87-5.817 2.247-9.208 0.56l-0.336-1.936c3.067-0.577 6.597 0.22 9.598 0.782z"/>
  </g>
  <g stroke-linecap="round">
   <circle id="circle4675-0" style="isolation:auto;mix-blend-mode:normal" cx="489.75" cy="127.23" r="12.744" overflow="visible" stroke-width="12.137" fill="#fff"/>
   <circle id="circle4677-2" style="isolation:auto;mix-blend-mode:normal" stroke-width="10.282" cy="127.23" cx="489.75" overflow="visible" r="10.796" fill="#4b9d79"/>
   <circle id="circle4675-0-8" style="isolation:auto;mix-blend-mode:normal" cx="509.12" cy="110.1" r="9.78" overflow="visible" stroke-width="9.315" fill="#fff"/>
   <circle id="circle4677-2-3" style="isolation:auto;mix-blend-mode:normal" stroke-width="7.891" cy="110.1" cx="509.12" overflow="visible" r="8.286" fill="#4b9d79"/>
  </g>
  <g fill-rule="evenodd" fill="#e9ecf5">
   <path id="path7227" d="m507.29 478.21c-6.622 1.2-13.304 0.517-19.98 0.267l16.677 3.035z"/>
   <path id="path7239" d="m479.15 487.52l15.534 7.328 6.387 3.19-19.976-4.154z"/>
   <path id="path7241" d="m482.42 483.63l10.951 0.967-11.217-3.973z"/>
  </g>
  <path id="path7243" fill-rule="evenodd" fill="#475657" d="m504.7 395.92l10.253-43.63-48.753 26.88 26.5 7.75z"/>
 </g>
</svg>