<?xml version="1.0" encoding="UTF-8" standalone="no"?>
<!-- Created with Inkscape (http://www.inkscape.org/) -->

<svg
   xmlns:dc="http://purl.org/dc/elements/1.1/"
   xmlns:cc="http://creativecommons.org/ns#"
   xmlns:rdf="http://www.w3.org/1999/02/22-rdf-syntax-ns#"
   xmlns:svg="http://www.w3.org/2000/svg"
   xmlns="http://www.w3.org/2000/svg"
   xmlns:sodipodi="http://sodipodi.sourceforge.net/DTD/sodipodi-0.dtd"
   xmlns:inkscape="http://www.inkscape.org/namespaces/inkscape"
   version="1.1"
   id="svg6899"
   xml:space="preserve"
   width="546.6413"
   height="494.30942"
   viewBox="0 0 546.64127 494.30942"
   sodipodi:docname="sprites.svg"
   inkscape:version="0.92.4 (5da689c313, 2019-01-14)"><metadata
     id="metadata6905"><rdf:RDF><cc:Work
         rdf:about=""><dc:format>image/svg+xml</dc:format><dc:type
           rdf:resource="http://purl.org/dc/dcmitype/StillImage" /><dc:title></dc:title></cc:Work></rdf:RDF></metadata><defs
     id="defs6903"><clipPath
       clipPathUnits="userSpaceOnUse"
       id="clipPath6915"><path
         d="M 0,612.288 H 858.897 V 0 H 0 Z"
         id="path6913"
         inkscape:connector-curvature="0" /></clipPath></defs><sodipodi:namedview
     pagecolor="#ffffff"
     bordercolor="#666666"
     borderopacity="1"
     objecttolerance="10"
     gridtolerance="10"
     guidetolerance="10"
     inkscape:pageopacity="0"
     inkscape:pageshadow="2"
     inkscape:window-width="1920"
     inkscape:window-height="1136"
     id="namedview6901"
     showgrid="false"
     inkscape:zoom="1.0999726"
     inkscape:cx="294.62582"
     inkscape:cy="263.62852"
     inkscape:window-x="0"
     inkscape:window-y="36"
     inkscape:window-maximized="1"
     inkscape:current-layer="g6907" /><g
     id="g6907"
     inkscape:groupmode="layer"
     inkscape:label="publicdomainq-0034874nuryjp"
     transform="matrix(1.3333333,0,0,-1.3333333,-277.9722,638.87293)"><g
       id="g6909"
       transform="matrix(-1,0,0,1,826.93928,0)"><g
         id="g6911"
         clip-path="url(#clipPath6915)"><g
           id="g6917"
           transform="translate(499.1396,395.5195)"><path
             d="m 0,0 c 0,0 -37.385,60.898 -78.582,77.861 -41.199,16.963 -72.254,-8.619 -83.922,-10.952 -11.668,-2.333 -37.191,7.539 -44.283,3.321 -7.09,-4.219 -15.764,-16.964 -8.852,-30.517 6.912,-13.553 79.565,-80.049 79.565,-80.049 0,0 -3.449,-44.978 4.629,-49.196 8.078,-4.219 30.562,22.213 30.562,22.213 0,0 62.873,-55.332 71.627,-68.75 8.75,-13.418 26.881,-38.729 23.381,-51.565 -3.502,-12.834 -35.096,-31.056 -42.678,-38.638 -7.584,-7.586 -35.914,-34.225 -26.883,-52.284 5.766,-11.527 70.325,29.934 70.325,29.934 0,0 41.648,-47.932 63.367,-36.797 23.115,11.85 -28.408,54.523 -28.768,64.488 -0.359,9.963 9.7,34.651 13.416,54.256 7.223,38.072 -21.498,116.817 -21.498,116.817 0,0 41.914,8.618 40.928,17.054 C 61.348,-24.366 52.73,-12.791 0,0"
             style="fill:#00a0e9;fill-opacity:1;fill-rule:nonzero;stroke:none"
             id="path6919"
             inkscape:connector-curvature="0" /></g><g
           id="g6921"
           transform="translate(289.6885,430.2822)"><path
             d="m 0,0 c 0,0 50.314,-21.209 63.518,-23.685 13.201,-2.475 38.777,-3.299 51.152,-21.451 12.377,-18.152 41.254,-75.455 52.805,-91.358 11.55,-15.901 22.228,-44.365 22.228,-44.365 0,0 -14.125,18.822 -31.383,35.599 -17.572,17.082 -35.377,32.856 -37.873,35.769 -4.951,5.775 -44.357,34.392 -44.357,34.392 l -28.836,26.522 -33.242,32.73 z"
             style="fill:#ffffff;fill-opacity:1;fill-rule:nonzero;stroke:none"
             id="path6923"
             inkscape:connector-curvature="0" /></g><g
           id="g6925"
           transform="translate(283.501,435.2329)"><path
             d="m 0,0 c 0,0 42.064,-20.384 61.041,-18.734 l 18.977,1.649"
             style="fill:none;stroke:#5a3200;stroke-width:5;stroke-linecap:round;stroke-linejoin:round;stroke-miterlimit:10;stroke-dasharray:none;stroke-opacity:1"
             id="path6927"
             inkscape:connector-curvature="0" /></g><g
           id="g6929"
           transform="translate(390.9736,417.083)"><path
             d="m 0,0 c -0.793,-4.896 -5.445,-8.216 -10.395,-7.416 -4.947,0.802 -8.316,5.419 -7.523,10.317 0.793,4.895 5.445,8.214 10.395,7.413 C -2.574,9.514 0.795,4.896 0,0"
             style="fill:#5a3200;fill-opacity:1;fill-rule:nonzero;stroke:none"
             id="path6931"
             inkscape:connector-curvature="0" /></g><g
           id="g6933"
           transform="translate(583.8994,158.8799)"><path
             d="M 0,0 C 0,0 10.77,38.443 27.828,25.725 44.883,13.004 0,0 0,0"
             style="fill:#89daf8;fill-opacity:1;fill-rule:nonzero;stroke:none"
             id="path6935"
             inkscape:connector-curvature="0" /></g><g
           id="g6937"
           transform="translate(595.6084,145.9893)"><path
             d="M 0,0 C 0,0 20.771,18.742 22.74,2.811 24.709,-13.121 0,0 0,0"
             style="fill:#89daf8;fill-opacity:1;fill-rule:nonzero;stroke:none"
             id="path6939"
             inkscape:connector-curvature="0" /></g><g
           id="g6941"
           transform="translate(243.04,448.4263)"><path
             d="M 0,0 C 0,0 -10.771,38.443 -27.828,25.724 -44.885,13.004 0,0 0,0"
             style="fill:#89daf8;fill-opacity:1;fill-rule:nonzero;stroke:none"
             id="path6943"
             inkscape:connector-curvature="0" /></g><g
           id="g6945"
           transform="translate(231.3291,435.5356)"><path
             d="M 0,0 C 0,0 -20.771,18.741 -22.738,2.811 -24.709,-13.121 0,0 0,0"
             style="fill:#89daf8;fill-opacity:1;fill-rule:nonzero;stroke:none"
             id="path6947"
             inkscape:connector-curvature="0" /></g></g></g></g></svg>