<?xml version="1.0" encoding="UTF-8" standalone="no"?>
<svg xmlns:dc="http://purl.org/dc/elements/1.1/" xmlns:cc="http://creativecommons.org/ns#" xmlns:rdf="http://www.w3.org/1999/02/22-rdf-syntax-ns#" xmlns:svg="http://www.w3.org/2000/svg" xmlns="http://www.w3.org/2000/svg" xmlns:sodipodi="http://sodipodi.sourceforge.net/DTD/sodipodi-0.dtd" xmlns:inkscape="http://www.inkscape.org/namespaces/inkscape" id="svg2" height="562.48" width="694.04" version="1" inkscape:version="0.91 r13725" sodipodi:docname="INTP.svg" inkscape:export-filename="./INTP.png" inkscape:export-xdpi="90" inkscape:export-ydpi="90">
  <defs id="defs209"/>
  <sodipodi:namedview pagecolor="#ffffff" bordercolor="#666666" borderopacity="1" objecttolerance="10" gridtolerance="10" guidetolerance="10" inkscape:pageopacity="0" inkscape:pageshadow="2" inkscape:window-width="1366" inkscape:window-height="712" id="namedview207" showgrid="false" inkscape:zoom="0.59336227" inkscape:cx="285.12125" inkscape:cy="336.061" inkscape:window-x="0" inkscape:window-y="28" inkscape:window-maximized="1" inkscape:current-layer="svg2" inkscape:object-nodes="false"/>
  <metadata id="metadata647">
    <rdf:RDF>
      <cc:Work rdf:about="">
        <dc:format>image/svg+xml</dc:format>
        <dc:type rdf:resource="http://purl.org/dc/dcmitype/StillImage"/>
        <dc:title>Inkscape Logo</dc:title>
      </cc:Work>
    </rdf:RDF>
  </metadata>
  <title id="title7387">Inkscape Logo</title>
  <style id="style26">.specularity{opacity:.5}.low-specularity{opacity:.25}.full-specularity{opacity:1}.black{fill:#000}.white{fill:#fff}.outline-big{stroke-width:16;stroke:none;opacity:.1;fill:none}.outline-small{stroke-width:8}.outline-small,.stroke-highlight{fill:none;stroke:none;opacity:.2}.base-shadow{fill:#000;opacity:75}</style>
  <path id="rect4979" stroke-width="3.9" d="m357.8 0h336.24v562.48h-336.24z" overflow="visible" fill="#54a0a9" style="fill:#c38f8f;fill-opacity:1"/>
  <path style="fill:#463333;fill-opacity:1;fill-rule:evenodd;stroke:#000000;stroke-width:1px;stroke-linecap:butt;stroke-linejoin:miter;stroke-opacity:0" d="m 447.87141,175.70109 c -0.94829,46.10847 -9.55388,89.7353 -2.10664,135.24622 l 5.05594,-25.27967 c 5.94193,29.56377 10.8786,39.75392 27.3863,62.77784 l 16.01046,-42.55411 16.43178,48.4527 18.95975,-30.75693 8.00523,32.02091 26.96497,-40.02614 5.89859,44.66074 12.63984,-39.18348 8.00522,38.76216 c 11.31437,-14.4013 13.43651,-20.34124 21.48771,-37.70884 l 2.52798,26.75431 c 7.33924,-15.13885 14.16662,-27.3883 15.89078,-35.78906 l 8.54623,20.94111 c 5.92111,-16.48849 4.53401,-28.91687 5.89858,-42.87395 L 629.88501,189.60491 559.10194,123.03512 454.61266,147.05081 Z" id="path4924" inkscape:connector-curvature="0" sodipodi:nodetypes="ccccccccccccccccccccc"/>
  <g word-spacing="0" letter-spacing="0" font-family="Sans" id="g6">
    <text id="text7291" font-size="40" line-height="125%" y="5958.846" x="1563.602"/>
    <text id="text3990" font-size="21.941" line-height="125%" y="535.287" x="112.047" fill="#c6ae8b"/>
    <text id="text4030" font-size="21.941" line-height="125%" y="567.069" x="460.207" fill="#c6ae8b"/>
  </g>
  <path id="rect4962" d="m0 0h336.24v562.48h-336.24z" overflow="visible" style="fill:#c38f8f;fill-opacity:1" stroke-width="3.9" fill="#54a0a9"/>
  <ellipse id="path5574" style="overflow:visible;isolation:auto;mix-blend-mode:normal;solid-color:#000000;fill-opacity:0.15700001;stroke-width:10;stroke-linecap:round;stroke-opacity:0" rx="101.62" ry="16.938" cy="524.91058" cx="540.21124" overflow="visible"/>
  <ellipse id="ellipse5578" style="overflow:visible;isolation:auto;mix-blend-mode:normal;solid-color:#000000;fill-opacity:0.15700001;stroke-width:10;stroke-linecap:round;stroke-opacity:0" rx="98.306473" ry="16.384411" cy="511.02612" cx="167.3279" overflow="visible"/>
  <style id="style26-1">.specularity{opacity:.5}.low-specularity{opacity:.25}.full-specularity{opacity:1}.black{fill:#000}.white{fill:#fff}.outline-big{stroke-width:16;stroke:none;opacity:.1;fill:none}.outline-small{stroke-width:8}.outline-small,.stroke-highlight{fill:none;stroke:none;opacity:.2}.base-shadow{fill:#000;opacity:75}</style>
  <g word-spacing="0" letter-spacing="0" font-family="Sans" id="g16">
    <text id="text7291-7" font-size="40" line-height="125%" y="5964.112" x="2387.043"/>
    <text id="text3990-2" font-size="21.941" line-height="125%" y="540.553" x="935.488" fill="#c6ae8b"/>
    <text id="text4030-2" font-size="21.941" line-height="125%" y="572.336" x="1283.647" fill="#c6ae8b"/>
  </g>
  <style id="style26-8">.specularity{opacity:.5}.low-specularity{opacity:.25}.full-specularity{opacity:1}.black{fill:#000}.white{fill:#fff}.outline-big{stroke-width:16;stroke:none;opacity:.1;fill:none}.outline-small{stroke-width:8}.outline-small,.stroke-highlight{fill:none;stroke:none;opacity:.2}.base-shadow{fill:#000;opacity:75}</style>
  <g word-spacing="0" letter-spacing="0" font-family="Sans" id="g22">
    <text id="text7291-9" font-size="40" line-height="125%" y="5950.084" x="2430.584"/>
    <text id="text3990-0" font-size="21.941" line-height="125%" y="526.525" x="979.029" fill="#c6ae8b"/>
    <text id="text4030-3" font-size="21.941" line-height="125%" y="558.307" x="1327.189" fill="#c6ae8b"/>
  </g>
  <style id="style26-2">.specularity{opacity:.5}.low-specularity{opacity:.25}.full-specularity{opacity:1}.black{fill:#000}.white{fill:#fff}.outline-big{stroke-width:16;stroke:none;opacity:.1;fill:none}.outline-small{stroke-width:8}.outline-small,.stroke-highlight{fill:none;stroke:none;opacity:.2}.base-shadow{fill:#000;opacity:75}</style>
  <g word-spacing="0" letter-spacing="0" font-family="Sans" id="g28">
    <text id="text7291-6" font-size="40" line-height="125%" y="5952.084" x="2488.584"/>
    <text id="text3990-9" font-size="21.941" line-height="125%" y="528.525" x="1037.029" fill="#c6ae8b"/>
    <text id="text4030-6" font-size="21.941" line-height="125%" y="560.307" x="1385.189" fill="#c6ae8b"/>
  </g>
  <style id="style26-5">.specularity{opacity:.5}.low-specularity{opacity:.25}.full-specularity{opacity:1}.black{fill:#000}.white{fill:#fff}.outline-big{stroke-width:16;stroke:none;opacity:.1;fill:none}.outline-small{stroke-width:8}.outline-small,.stroke-highlight{fill:none;stroke:none;opacity:.2}.base-shadow{fill:#000;opacity:75}</style>
  <style id="style26-0">.specularity{opacity:.5}.low-specularity{opacity:.25}.full-specularity{opacity:1}.black{fill:#000}.white{fill:#fff}.outline-big{stroke-width:16;stroke:none;opacity:.1;fill:none}.outline-small{stroke-width:8}.outline-small,.stroke-highlight{fill:none;stroke:none;opacity:.2}.base-shadow{fill:#000;opacity:75}</style>
  <style id="style26-1-6">.specularity{opacity:.5}.low-specularity{opacity:.25}.full-specularity{opacity:1}.black{fill:#000}.white{fill:#fff}.outline-big{stroke-width:16;stroke:none;opacity:.1;fill:none}.outline-small{stroke-width:8}.outline-small,.stroke-highlight{fill:none;stroke:none;opacity:.2}.base-shadow{fill:#000;opacity:75}</style>
  <style id="style26-8-5">.specularity{opacity:.5}.low-specularity{opacity:.25}.full-specularity{opacity:1}.black{fill:#000}.white{fill:#fff}.outline-big{stroke-width:16;stroke:none;opacity:.1;fill:none}.outline-small{stroke-width:8}.outline-small,.stroke-highlight{fill:none;stroke:none;opacity:.2}.base-shadow{fill:#000;opacity:75}</style>
  <style id="style26-2-6">.specularity{opacity:.5}.low-specularity{opacity:.25}.full-specularity{opacity:1}.black{fill:#000}.white{fill:#fff}.outline-big{stroke-width:16;stroke:none;opacity:.1;fill:none}.outline-small{stroke-width:8}.outline-small,.stroke-highlight{fill:none;stroke:none;opacity:.2}.base-shadow{fill:#000;opacity:75}</style>
  <style id="style26-28">.specularity{opacity:.5}.low-specularity{opacity:.25}.full-specularity{opacity:1}.black{fill:#000}.white{fill:#fff}.outline-big{stroke-width:16;stroke:none;opacity:.1;fill:none}.outline-small{stroke-width:8}.outline-small,.stroke-highlight{fill:none;stroke:none;opacity:.2}.base-shadow{fill:#000;opacity:75}</style>
  <style id="style26-1-5">.specularity{opacity:.5}.low-specularity{opacity:.25}.full-specularity{opacity:1}.black{fill:#000}.white{fill:#fff}.outline-big{stroke-width:16;stroke:none;opacity:.1;fill:none}.outline-small{stroke-width:8}.outline-small,.stroke-highlight{fill:none;stroke:none;opacity:.2}.base-shadow{fill:#000;opacity:75}</style>
  <style id="style26-3">.specularity{opacity:.5}.low-specularity{opacity:.25}.full-specularity{opacity:1}.black{fill:#000}.white{fill:#fff}.outline-big{stroke-width:16;stroke:none;opacity:.1;fill:none}.outline-small{stroke-width:8}.outline-small,.stroke-highlight{fill:none;stroke:none;opacity:.2}.base-shadow{fill:#000;opacity:75}</style>
  <style id="style26-0-6">.specularity{opacity:.5}.low-specularity{opacity:.25}.full-specularity{opacity:1}.black{fill:#000}.white{fill:#fff}.outline-big{stroke-width:16;stroke:none;opacity:.1;fill:none}.outline-small{stroke-width:8}.outline-small,.stroke-highlight{fill:none;stroke:none;opacity:.2}.base-shadow{fill:#000;opacity:75}</style>
  <style id="style26-1-56">.specularity{opacity:.5}.low-specularity{opacity:.25}.full-specularity{opacity:1}.black{fill:#000}.white{fill:#fff}.outline-big{stroke-width:16;stroke:none;opacity:.1;fill:none}.outline-small{stroke-width:8}.outline-small,.stroke-highlight{fill:none;stroke:none;opacity:.2}.base-shadow{fill:#000;opacity:75}</style>
  <style id="style26-8-9">.specularity{opacity:.5}.low-specularity{opacity:.25}.full-specularity{opacity:1}.black{fill:#000}.white{fill:#fff}.outline-big{stroke-width:16;stroke:none;opacity:.1;fill:none}.outline-small{stroke-width:8}.outline-small,.stroke-highlight{fill:none;stroke:none;opacity:.2}.base-shadow{fill:#000;opacity:75}</style>
  <style id="style26-2-3">.specularity{opacity:.5}.low-specularity{opacity:.25}.full-specularity{opacity:1}.black{fill:#000}.white{fill:#fff}.outline-big{stroke-width:16;stroke:none;opacity:.1;fill:none}.outline-small{stroke-width:8}.outline-small,.stroke-highlight{fill:none;stroke:none;opacity:.2}.base-shadow{fill:#000;opacity:75}</style>
  <style id="style26-81">.specularity{opacity:.5}.low-specularity{opacity:.25}.full-specularity{opacity:1}.black{fill:#000}.white{fill:#fff}.outline-big{stroke-width:16;stroke:none;opacity:.1;fill:none}.outline-small{stroke-width:8}.outline-small,.stroke-highlight{fill:none;stroke:none;opacity:.2}.base-shadow{fill:#000;opacity:75}</style>
  <style id="style26-1-561">.specularity{opacity:.5}.low-specularity{opacity:.25}.full-specularity{opacity:1}.black{fill:#000}.white{fill:#fff}.outline-big{stroke-width:16;stroke:none;opacity:.1;fill:none}.outline-small{stroke-width:8}.outline-small,.stroke-highlight{fill:none;stroke:none;opacity:.2}.base-shadow{fill:#000;opacity:75}</style>
  <g word-spacing="0" letter-spacing="0" font-family="Sans" id="g47">
    <text id="text7291-36" font-size="40" line-height="125%" y="5968.056" x="2300.51"/>
    <text id="text3990-06" font-size="21.941" line-height="125%" y="544.497" x="848.955" fill="#c6ae8b"/>
    <text id="text4030-0" font-size="21.941" line-height="125%" y="576.279" x="1197.115" fill="#c6ae8b"/>
    <text id="text7291-3" font-size="40" line-height="125%" y="5964.57" x="3043.001"/>
    <text id="text3990-5" font-size="21.941" line-height="125%" y="541.011" x="1591.447" fill="#c6ae8b"/>
    <text id="text4030-22" font-size="21.941" line-height="125%" y="572.793" x="1939.606" fill="#c6ae8b"/>
    <text id="text7291-7-9" font-size="40" line-height="125%" y="5969.836" x="3866.442"/>
    <text id="text3990-2-45" font-size="21.941" line-height="125%" y="546.277" x="2414.887" fill="#c6ae8b"/>
    <text id="text4030-2-5" font-size="21.941" line-height="125%" y="578.06" x="2763.047" fill="#c6ae8b"/>
    <text id="text7291-9-7" font-size="40" line-height="125%" y="5955.808" x="3909.983"/>
    <text id="text3990-0-4" font-size="21.941" line-height="125%" y="532.249" x="2458.429" fill="#c6ae8b"/>
    <text id="text4030-3-0" font-size="21.941" line-height="125%" y="564.031" x="2806.588" fill="#c6ae8b"/>
    <text id="text7291-6-8" font-size="40" line-height="125%" y="5957.808" x="3967.983"/>
    <text id="text3990-9-8" font-size="21.941" line-height="125%" y="534.249" x="2516.429" fill="#c6ae8b"/>
    <text id="text4030-6-4" font-size="21.941" line-height="125%" y="566.031" x="2864.588" fill="#c6ae8b"/>
    <text id="text7291-73" font-size="40" line-height="125%" y="5970.276" x="3033.617"/>
    <text id="text3990-1" font-size="21.941" line-height="125%" y="546.717" x="1582.062" fill="#c6ae8b"/>
    <text id="text4030-31" font-size="21.941" line-height="125%" y="578.499" x="1930.221" fill="#c6ae8b"/>
    <text id="text7291-7-0" font-size="40" line-height="125%" y="5975.542" x="3857.057"/>
    <text id="text3990-2-6" font-size="21.941" line-height="125%" y="551.983" x="2405.502" fill="#c6ae8b"/>
    <text id="text4030-2-0" font-size="21.941" line-height="125%" y="583.765" x="2753.662" fill="#c6ae8b"/>
    <text id="text7291-1" font-size="40" line-height="125%" y="5983.421" x="3151.331"/>
    <text id="text3990-6" font-size="21.941" line-height="125%" y="559.862" x="1699.776" fill="#c6ae8b"/>
    <text id="text4030-20" font-size="21.941" line-height="125%" y="591.645" x="2047.935" fill="#c6ae8b"/>
    <text id="text7291-3-7" font-size="40" line-height="125%" y="5979.936" x="3893.822"/>
    <text id="text3990-5-5" font-size="21.941" line-height="125%" y="556.377" x="2442.267" fill="#c6ae8b"/>
    <text id="text4030-22-5" font-size="21.941" line-height="125%" y="588.159" x="2790.427" fill="#c6ae8b"/>
    <text id="text7291-7-7" font-size="40" line-height="125%" y="5985.202" x="4717.262"/>
    <text id="text3990-2-4" font-size="21.941" line-height="125%" y="561.643" x="3265.708" fill="#c6ae8b"/>
    <text id="text4030-2-07" font-size="21.941" line-height="125%" y="593.425" x="3613.867" fill="#c6ae8b"/>
    <text id="text7291-9-6" font-size="40" line-height="125%" y="5971.174" x="4760.804"/>
    <text id="text3990-0-8" font-size="21.941" line-height="125%" y="547.615" x="3309.249" fill="#c6ae8b"/>
    <text id="text4030-3-3" font-size="21.941" line-height="125%" y="579.397" x="3657.409" fill="#c6ae8b"/>
    <text id="text7291-6-4" font-size="40" line-height="125%" y="5973.174" x="4818.804"/>
    <text id="text3990-9-2" font-size="21.941" line-height="125%" y="549.615" x="3367.249" fill="#c6ae8b"/>
    <text id="text4030-6-6" font-size="21.941" line-height="125%" y="581.397" x="3715.409" fill="#c6ae8b"/>
    <text id="text7291-93" font-size="40" line-height="125%" y="5983.293" x="3863.492"/>
    <text id="text3990-8" font-size="21.941" line-height="125%" y="559.735" x="2411.937" fill="#c6ae8b"/>
    <text id="text4030-5" font-size="21.941" line-height="125%" y="591.517" x="2760.097" fill="#c6ae8b"/>
    <text id="text7291-7-1" font-size="40" line-height="125%" y="5988.56" x="4686.932"/>
    <text id="text3990-2-9" font-size="21.941" line-height="125%" y="565.001" x="3235.377" fill="#c6ae8b"/>
    <text id="text4030-2-4" font-size="21.941" line-height="125%" y="596.783" x="3583.537" fill="#c6ae8b"/>
  </g>
  <path id="path4367" d="m 529.57125,250.54062 -15.212,7.386 -9.342,13.055 -1.885,61.837 -9.14,33.21 26.126,12.027 20.072,0.04 26.267,-20.3 -8.763,-37.896 13.44,-39.558 -3.277,-24.19 -24.114,-5.368 z" inkscape:connector-curvature="0" style="fill:#fff9e9;fill-rule:evenodd;stroke-width:3.125;stroke-opacity:0" inkscape:transform-center-x="-0.84265553" inkscape:transform-center-y="-45.503398"/>
  <path id="path4389" d="m 509.98219,254.70311 -49.1591,-6.82748 -16.53263,-2.90183 c -16.41535,-4.20898 -11.69936,16.66114 -2.15257,17.50664 l 62.14411,13.95577 c 11.51258,3.82167 17.65746,-20.47059 5.69893,-21.73375 z" inkscape:connector-curvature="0" style="fill:#f8ded8;fill-opacity:1;fill-rule:evenodd;stroke-width:3.4690001;stroke-opacity:0" inkscape:transform-center-x="26.152565" inkscape:transform-center-y="-1.8833948"/>
  <path id="path4393" d="m 528.70858,360.03507 -3.7858,76.09558 -3.57404,73.71996 c -0.752,10.52891 -12.60496,11.38495 -15.6806,4.04589 l -6.29993,-74.78754 -6.24612,-67.67574 c -0.75658,-21.92189 34.78143,-34.52306 35.57933,-11.39558 z" inkscape:connector-curvature="0" style="fill:#fff9e9;fill-rule:evenodd;stroke-width:3.125;stroke-opacity:0" inkscape:transform-center-x="-3.1716336" inkscape:transform-center-y="65.433675"/>
  <path id="path4983" d="m 530.71125,360.58062 13.224,67.476 16.324,90.783 c 4.408,8.513 18.147,4.917 14.957,-7.974 l -4.67,-85.993 -2.733,-66.37 c -7,-18.485 -44.485,-17.424 -37.1,2.077 z" inkscape:connector-curvature="0" style="fill:#fff9e9;fill-rule:evenodd;stroke-width:2.95700002;stroke-opacity:0"/>
  <path style="fill:#bca7a7;fill-opacity:1;fill-rule:evenodd;stroke:#000000;stroke-width:1px;stroke-linecap:butt;stroke-linejoin:miter;stroke-opacity:0" d="m 501.12268,282.01625 18.51307,-25.16141 -17.09203,-3.71508 -39.76377,-9.17723 c -8.06783,21.50815 -7.15383,17.45638 0.65689,38.08712 z" id="path4888" inkscape:connector-curvature="0" inkscape:transform-center-x="24.003861" inkscape:transform-center-y="-6.714148" sodipodi:nodetypes="cccccc"/>
  <path id="path4391" d="m 447.14144,261.44993 c -5.07263,6.25425 -24.27853,-2.22419 -12.57435,-18.60451 l 41.71792,-48.50658 c 7.72601,-13.01015 24.36194,-3.61328 11.79458,10.53701 z" inkscape:connector-curvature="0" style="fill:#f8ded8;fill-opacity:1;fill-rule:evenodd;stroke-width:3.48200011;stroke-opacity:0" inkscape:transform-center-x="-21.831991" inkscape:transform-center-y="-28.098558"/>
  <path style="fill:#f8ded8;fill-opacity:1;fill-rule:evenodd;stroke:#000000;stroke-width:1px;stroke-linecap:butt;stroke-linejoin:miter;stroke-opacity:0" d="M 494.39648 385.23438 L 496.50586 408.0918 C 509.13157 412.21975 516.64564 413.90232 526.16992 411.04297 L 527.2207 389.92383 L 494.39648 385.23438 z " id="path4963"/>
  <path style="fill:#f8ded8;fill-opacity:1;fill-rule:evenodd;stroke:#000000;stroke-width:1px;stroke-linecap:butt;stroke-linejoin:miter;stroke-opacity:0" d="M 538.15234 398.54883 L 541.06055 413.38867 C 553.49399 413.71499 560.85579 418.17036 570.03516 412.4375 L 569.50977 399.71094 L 538.15234 398.54883 z " id="path4968"/>
  <path style="fill:#c8b7b7;fill-rule:evenodd;stroke:#000000;stroke-width:1px;stroke-linecap:butt;stroke-linejoin:miter;stroke-opacity:0" d="m 520.14798,253.62654 0.74481,9.53356 1.04273,5.66055 18.47127,-4.17093 20.40778,-10.72525 7.89498,1.48962 3.1282,27.11105 c -6.29361,15.75671 -8.54163,31.45808 -10.08268,48.00988 l 13.12543,74.41848 c -17.82532,17.10727 -36.52869,-6.95788 -57.55682,-4.27945 -8.06637,-1.45552 -8.05272,-0.66055 -28.47886,-12.10816 l 8.512,-42.73196 c 6.56298,-14.71667 5.0115,-21.66542 4.61834,-38.88654 -2.97357,-4.7087 -5.94713,-5.57904 -8.9207,-16.34035 9.59193,-10.22257 15.77315,-22.09901 22.13725,-34.38645 z" id="path4884" inkscape:connector-curvature="0" sodipodi:nodetypes="cccccccccccccccc"/>
  <path id="path4981" d="m 557.43125,241.95062 c -0.583,0.805 -2.184,11 -2.184,11 l 6.103,1.63 -24.85,7.788 -15.598,-8.262 7.08,-2.77 2.917,-8.664 z" inkscape:connector-curvature="0" style="fill:#f8ded8;fill-rule:evenodd;stroke-opacity:0"/>
  <path id="path4284-3-9-0" d="m 512.43925,249.7272 c -22.18393,-7.12226 -49.18858,-14.82117 -52.94592,-26.90903 l -0.14205,-11.23341 c -6.42012,-15.84125 -9.73613,-32.08418 -12.37602,-48.65993 -4.60126,-44.87243 15.77975,-78.284698 39.8832,-90.719245 51.68092,-32.219482 133.56226,-17.473271 153.47487,44.785445 8.08408,31.04313 2.89989,55.55314 -25.39754,95.3014 -29.81538,29.59289 -58.38892,34.78383 -102.4968,37.43279 z" inkscape:connector-curvature="0" style="fill:#fff9e9;fill-rule:evenodd;stroke-width:3.125;stroke-opacity:0" inkscape:transform-center-x="-7.9595313" inkscape:transform-center-y="-86.816053"/>
  <path style="fill:#f8ded8;fill-rule:evenodd;stroke:#000000;stroke-width:1px;stroke-linecap:butt;stroke-linejoin:miter;stroke-opacity:0;fill-opacity:1" d="M 482.33789 115.89258 L 448.07812 167.73047 L 454.51758 197.77539 C 455.13531 199.82978 455.79469 201.87816 456.49609 203.91992 L 457.01562 201.24805 L 458.95117 204.07812 L 488.14844 161.47461 L 496.19141 180.98828 L 501.55469 177.86133 L 520.32422 206.3125 L 534.47461 163.11328 L 548.17969 185.16016 L 555.03125 172.05078 L 565.45898 183.52148 L 576.48242 181.58398 L 579.01562 175.62695 L 602.99805 187.0957 L 601.38086 224.1543 C 605.90945 220.7096 610.40843 216.78631 614.93555 212.29297 C 616.882 209.55887 618.70852 206.90363 620.43945 204.30664 L 630.40625 168.32617 L 599.125 118.57422 L 482.33789 115.89258 z " id="path4985"/>
  <path id="path4305-6-3" style="overflow:visible;isolation:auto;mix-blend-mode:normal;solid-color:#000000;fill:#463333;stroke-width:10;stroke-linecap:round;stroke-opacity:0;fill-opacity:1" d="m 467.73063,199.97734 c 2.00747,8.14741 4.69153,14.75021 8.48455,14.48279 3.79284,-0.26841 6.14502,-7.18636 5.25178,-15.4525 -0.95026,-8.82615 -4.33037,-14.29879 -8.4818,-14.48206 -4.81955,-0.2133 -8.8959,0.66374 -5.25453,15.45177 z" overflow="visible" inkscape:connector-curvature="0" inkscape:transform-center-x="74.856333" inkscape:transform-center-y="-36.438846"/>
  <path style="fill:#afa3a3;fill-opacity:1;fill-rule:evenodd;stroke:#000000;stroke-width:1px;stroke-linecap:butt;stroke-linejoin:miter;stroke-opacity:0" d="m 557.11719,272.00391 c -7.70149,19.8417 -18.47116,16.56906 -38.13477,18.17382 -8.82251,-0.79925 -17.28393,-1.23854 -25.92773,0.42969 1.53271,7.50461 4.60735,12.80647 8.91992,16.33985 0.39316,17.22112 1.94579,24.17004 -4.61719,38.88671 8.61852,-1.29819 17.64878,-7.94903 26.82609,-16.51152 l -13.83976,-1.00996 c 5.15537,-6.85124 8.1575,-14.4626 20.25781,-19.96094 17.29367,-5.65383 14.49527,-3.25562 18.17383,32.17578 l -11.16211,15.08008 17.1211,-10.01562 c -4.48392,23.94846 -7.09448,49.17407 8.63867,55.71093 l 7.42383,-19.5 -9.04102,-51.26757 c 1.15789,-12.43644 2.71558,-24.39348 6.08789,-36.25391 z" id="path4951" inkscape:connector-curvature="0" sodipodi:nodetypes="cccccccccccccccc"/>
  <path id="path4401" d="m 576.05549,257.24268 c 1.54752,18.92927 -1.51346,38.96157 -2.88264,59.11522 -0.51288,17.18153 -17.60124,14.11669 -17.69613,3.60757 l -1.40676,-59.93706 c -3.16597,-12.9145 15.89831,-19.35668 21.98651,-2.78556 z" inkscape:connector-curvature="0" style="fill:#f8ded8;fill-rule:evenodd;stroke-width:3.4690001;stroke-opacity:0;fill-opacity:1" inkscape:transform-center-x="-0.65465251" inkscape:transform-center-y="29.557801"/>
  <path id="path4403" d="m 573.0934,321.72773 c -0.0335,-4.98161 -17.30628,-13.87448 -18.05669,5.67619 l 0.28342,60.40199 c -1.57944,18.18393 15.73806,23.89716 14.42496,0.58714 z" inkscape:connector-curvature="0" style="fill:#fff9e9;fill-rule:evenodd;stroke-width:3.48200011;stroke-opacity:0" inkscape:transform-center-x="0.1501954" inkscape:transform-center-y="100.36075" sodipodi:nodetypes="ccccc"/>
  <path id="path5175" d="m 195.86314,388.56065 c 8.99308,18.15094 12.61284,26.80645 22.23257,44.63537 8.50753,13.67242 -9.86666,19.09756 -13.36032,10.68795 l -26.93525,-43.93946 c -6.7528,-9.34076 13.50521,-21.85185 18.06784,-11.37651 z" inkscape:connector-curvature="0" style="fill:#f8ded8;fill-rule:evenodd;stroke-width:3.40799999;stroke-opacity:0" inkscape:transform-center-x="-8.6285208" inkscape:transform-center-y="21.676093"/>
  <path id="path4304-3" d="m 170.83172,383.37427 16.068,1.45833 c 2.98022,25.19531 -0.73375,48.23407 8.9458,59.98822 7.05034,7.26394 8.87672,17.37167 15.10816,34.4836 l -31.22904,15.04142 -34.22948,-0.80784 c -1.28144,-6.44028 -3.43151,-10.27528 -2.14854,-16.89128 1.58454,-8.18068 2.70193,-19.05971 2.97457,-27.34758 0.52693,-16.00984 -3.17597,-35.98838 -2.62505,-56.03579 l 13.87063,-7.56362 z" inkscape:connector-curvature="0" style="fill:#f8ded8;fill-opacity:1;fill-rule:evenodd;stroke-width:3.06900001;stroke-opacity:0" inkscape:transform-center-x="2.4186075" inkscape:transform-center-y="-44.903155"/>
  <path id="path4363-7" d="m 162.48563,382.77339 -3.65367,2.16127 19.56136,5.14934 5.6542,-9.46809 -8.38539,-0.61937 -15.51249,-0.31425 z" inkscape:connector-curvature="0" style="fill:#f8ded8;fill-rule:evenodd;stroke-width:3.39100003;stroke-opacity:0" inkscape:transform-center-x="22.586411" inkscape:transform-center-y="-93.773147"/>
  <path id="path5163-7" d="m 175.63258,384.44007 c 34.35331,-9.95771 65.63353,-29.83041 66.91008,-42.00938 l -1.4952,-13.95449 c 3.09148,-16.24326 5.14764,-30.37133 4.51347,-46.59765 -4.12844,-43.43706 -29.78452,-71.27706 -55.00481,-78.50998 -55.12455,-20.78359 -130.010219,8.70198 -137.11243,71.53076 -1.792926,30.97963 0.828606,54.59332 33.343874,92.56119 13.901326,12.03768 34.001216,20.67183 88.848676,16.97781 z" inkscape:connector-curvature="0" style="fill:#fff9e9;fill-rule:evenodd;stroke-width:3.125;stroke-opacity:0" inkscape:transform-center-x="9.3397016" inkscape:transform-center-y="-78.710661"/>
  <path id="path4305-9-5" d="m 145.99406,332.49501 c 1.36042,9.33671 -0.62937,17.65258 -8.16097,19.36496 -7.53138,1.71334 -16.54532,-4.0592 -19.11195,-13.16058 -4.07089,-14.42428 1.82035,-18.18551 9.44423,-19.68834 7.65267,-1.51041 16.0892,1.53084 17.82869,13.48396 z" inkscape:connector-curvature="0" style="fill:#644848;fill-opacity:1;stroke-width:10;stroke-linecap:round;stroke-opacity:0" inkscape:transform-center-x="24.953457" inkscape:transform-center-y="-34.930847"/>
  <path style="fill:#fff9e9;fill-opacity:1;fill-rule:evenodd;stroke:#000000;stroke-width:0.98446262px;stroke-linecap:butt;stroke-linejoin:miter;stroke-opacity:0" d="m 111.52145,328.96855 37.1797,-6.82542 -1.94452,-6.86994 -10.64941,-4.58252 -21.5318,5.24415 z" id="path4814" inkscape:connector-curvature="0" sodipodi:nodetypes="cccccc" inkscape:transform-center-x="28.576279" inkscape:transform-center-y="-49.914664"/>
  <path style="fill:#f8ded8;fill-opacity:1;fill-rule:evenodd;stroke:#000000;stroke-width:1px;stroke-linecap:butt;stroke-linejoin:miter;stroke-opacity:0" d="m 105.76367,248.76562 -21.45117,49.75391 9.117188,26.96289 8.214842,-6.8457 10.21875,-5.05664 1.1582,6.63672 c 9.02286,-7.40769 19.0717,-13.26538 25.49024,-23.06836 l 2.94922,10.42773 4.95117,-3.89648 c 4.10223,15.0742 5.41938,23.10137 14.74609,34.75976 l 2.73828,-3.26562 9.0586,18.43359 18.32812,-37.60351 1.47461,2.52734 1.26367,-15.9043 2.2129,-9.79687 6.8457,10.95508 c 9.28532,-3.78727 13.53823,-3.57152 19.06445,-11.37696 l 14.00977,16.74805 2.3164,-3.37109 3.63477,16.96093 c 1.45501,-8.14932 2.58062,-15.87444 3.15234,-23.74414 l -18.24023,-47.85156 z" id="path4928" inkscape:connector-curvature="0" sodipodi:nodetypes="cccccccccccccccccccccccc"/>
  <path id="path4303-1-6" d="m 103.16655,338.70728 2.54796,-5.83199 c 17.96441,-6.665 31.78257,-7.2311 47.59556,-8.23549 -2.91804,-10.45992 -45.25412,-0.85259 -52.07373,2.46849 0.13626,5.80814 -0.36208,7.14964 1.93021,11.59899 z" inkscape:connector-curvature="0" style="fill:#644848;fill-opacity:1;fill-rule:evenodd;stroke-width:3.125;stroke-opacity:0" sodipodi:nodetypes="ccccc" inkscape:transform-center-x="25.908545" inkscape:transform-center-y="-41.400736"/>
  <path id="path5648" d="m 236.00666,327.9638 c -9.5819,0.57291 -28.27443,5.37892 -33.99515,5.5964 2.08215,4.34406 32.20793,-0.18601 33.99515,-5.5964 z" inkscape:connector-curvature="0" style="fill:#644848;fill-opacity:1;fill-rule:evenodd;stroke-width:3.125;stroke-opacity:0" sodipodi:nodetypes="ccc" inkscape:transform-center-x="-57.988071" inkscape:transform-center-y="-37.578912"/>
  <style id="style26-7">.specularity{opacity:.5}.low-specularity{opacity:.25}.full-specularity{opacity:1}.black{fill:#000}.white{fill:#fff}.outline-big{stroke-width:16;stroke:none;opacity:.1;fill:none}.outline-small{stroke-width:8}.outline-small,.stroke-highlight{fill:none;stroke:none;opacity:.2}.base-shadow{fill:#000;opacity:75}</style>
  <style id="style26-1-0">.specularity{opacity:.5}.low-specularity{opacity:.25}.full-specularity{opacity:1}.black{fill:#000}.white{fill:#fff}.outline-big{stroke-width:16;stroke:none;opacity:.1;fill:none}.outline-small{stroke-width:8}.outline-small,.stroke-highlight{fill:none;stroke:none;opacity:.2}.base-shadow{fill:#000;opacity:75}</style>
  <style id="style26-2-2">.specularity{opacity:.5}.low-specularity{opacity:.25}.full-specularity{opacity:1}.black{fill:#000}.white{fill:#fff}.outline-big{stroke-width:16;stroke:none;opacity:.1;fill:none}.outline-small{stroke-width:8}.outline-small,.stroke-highlight{fill:none;stroke:none;opacity:.2}.base-shadow{fill:#000;opacity:75}</style>
  <style id="style26-25">.specularity{opacity:.5}.low-specularity{opacity:.25}.full-specularity{opacity:1}.black{fill:#000}.white{fill:#fff}.outline-big{stroke-width:16;stroke:none;opacity:.1;fill:none}.outline-small{stroke-width:8}.outline-small,.stroke-highlight{fill:none;stroke:none;opacity:.2}.base-shadow{fill:#000;opacity:75}</style>
  <style id="style26-0-2">.specularity{opacity:.5}.low-specularity{opacity:.25}.full-specularity{opacity:1}.black{fill:#000}.white{fill:#fff}.outline-big{stroke-width:16;stroke:none;opacity:.1;fill:none}.outline-small{stroke-width:8}.outline-small,.stroke-highlight{fill:none;stroke:none;opacity:.2}.base-shadow{fill:#000;opacity:75}</style>
  <style id="style26-1-8">.specularity{opacity:.5}.low-specularity{opacity:.25}.full-specularity{opacity:1}.black{fill:#000}.white{fill:#fff}.outline-big{stroke-width:16;stroke:none;opacity:.1;fill:none}.outline-small{stroke-width:8}.outline-small,.stroke-highlight{fill:none;stroke:none;opacity:.2}.base-shadow{fill:#000;opacity:75}</style>
  <style id="style26-8-3">.specularity{opacity:.5}.low-specularity{opacity:.25}.full-specularity{opacity:1}.black{fill:#000}.white{fill:#fff}.outline-big{stroke-width:16;stroke:none;opacity:.1;fill:none}.outline-small{stroke-width:8}.outline-small,.stroke-highlight{fill:none;stroke:none;opacity:.2}.base-shadow{fill:#000;opacity:75}</style>
  <style id="style26-2-6-7">.specularity{opacity:.5}.low-specularity{opacity:.25}.full-specularity{opacity:1}.black{fill:#000}.white{fill:#fff}.outline-big{stroke-width:16;stroke:none;opacity:.1;fill:none}.outline-small{stroke-width:8}.outline-small,.stroke-highlight{fill:none;stroke:none;opacity:.2}.base-shadow{fill:#000;opacity:75}</style>
  <style id="style26-28-5">.specularity{opacity:.5}.low-specularity{opacity:.25}.full-specularity{opacity:1}.black{fill:#000}.white{fill:#fff}.outline-big{stroke-width:16;stroke:none;opacity:.1;fill:none}.outline-small{stroke-width:8}.outline-small,.stroke-highlight{fill:none;stroke:none;opacity:.2}.base-shadow{fill:#000;opacity:75}</style>
  <style id="style26-1-5-9">.specularity{opacity:.5}.low-specularity{opacity:.25}.full-specularity{opacity:1}.black{fill:#000}.white{fill:#fff}.outline-big{stroke-width:16;stroke:none;opacity:.1;fill:none}.outline-small{stroke-width:8}.outline-small,.stroke-highlight{fill:none;stroke:none;opacity:.2}.base-shadow{fill:#000;opacity:75}</style>
  <path style="fill:#fff9e9;fill-opacity:1;fill-rule:evenodd;stroke:#000000;stroke-width:1px;stroke-linecap:butt;stroke-linejoin:miter;stroke-opacity:0" d="m 496.53744,190.34229 -33.31551,-0.0504 -0.18802,-8.67619 8.57891,-6.3291 18.13909,-0.89438 z" id="path4848-2" inkscape:connector-curvature="0"/>
  <path id="path4303-1-6-6-9" d="m 461.14316,204.57501 1.30085,-13.20783 c 11.33433,1.09117 23.88791,3.73731 33.25265,1.78529 2.17771,-0.45392 1.1991,-1.64154 3.41576,-3.12716 -9.11089,0.72588 -38.38041,-3.50045 -39.76106,-5.50417 -1.38125,6.86854 1.64558,15.09198 1.7918,20.05387 z" inkscape:connector-curvature="0" style="fill:#463333;fill-rule:evenodd;stroke-width:3.125;stroke-opacity:0;fill-opacity:1" sodipodi:nodetypes="ccscccc" inkscape:transform-center-x="3.2924304" inkscape:transform-center-y="-53.822737"/>
  <path style="fill:#644848;fill-opacity:1;fill-rule:evenodd;stroke:#000000;stroke-width:0.98446262px;stroke-linecap:butt;stroke-linejoin:miter;stroke-opacity:0" d="m 191.0552,268.47226 c 3.3907,16.93628 3.60321,33.93667 3.86838,51.10801 l -2.87038,-4.18669 -15.96342,38.74406 -11.79732,-22.98967 -3.1752,7.71366 c -6.98873,-14.263 -11.16741,-28.9234 -14.41483,-44.31048 l -5.0258,19.82479 c -1.73247,-10.34996 -0.89727,-20.6165 -0.33845,-31.01195 -7.07803,24.24416 -10.2274,23.26417 -29.53605,38.79888 l 3.97874,-12.75064 -18.810058,14.53178 -1.932106,-10.19639 4.649106,46.97384 -9.147948,-15.72366 -16.818922,-1.64821 5.842204,11.9436 13.452858,-2.11192 2.497847,1.76343 18.033999,29.85743 -10.78852,-5.27359 -3.904497,6.22316 -19.275783,-23.585 -0.196037,7.15755 C 56.179626,348.54372 56.306606,343.82289 47.063958,315.41424 l -1.866424,12.85657 C 34.587112,293.6293 42.683209,265.92073 57.545733,234.26258 l 51.497057,-47.42746 -4.8602,12.46209 35.54186,-11.98233 43.75248,9.44286 c 32.62543,-2.16665 41.30676,16.64084 67.79764,30.19605 l -10.13551,2.3424 c 13.6012,18.15923 14.44393,41.15704 24.41358,60.8303 l -16.61005,-1.72885 c 4.62798,24.27116 6.41927,21.53879 -3.88142,41.6694 l -6.93711,-35.45176 -0.8474,16.89859 c -6.12767,-7.96567 -11.58437,-16.02083 -15.68046,-25.13912 -0.81731,11.75853 -0.92226,13.09864 -6.89248,33.99169 l -8.09526,-17.99821 -4.00564,1.90038 c -4.52568,-11.71551 -7.96993,-23.77167 -11.54762,-35.79635 z" id="path4880" inkscape:connector-curvature="0" sodipodi:nodetypes="ccccccccccccccccccccccccccccccccccccccccccc"/>
  <path style="fill:#c8b7b7;fill-opacity:1;fill-rule:evenodd;stroke:#000000;stroke-width:1px;stroke-linecap:butt;stroke-linejoin:miter;stroke-opacity:0" d="m 555.09932,248.80146 c 7.08806,-2.04514 10.44367,-1.78504 15.25674,-0.0337 11.47724,3.22218 12.31225,37.65088 14.65754,50.38242 -14.94544,12.7488 -15.92695,9.44966 -35.6022,9.26916 2.32375,-20.28961 -1.75288,-40.5508 5.68792,-59.61788 z" id="path4886" inkscape:connector-curvature="0" sodipodi:nodetypes="ccccc"/>
  <path style="fill:#506567;fill-opacity:1;fill-rule:evenodd;stroke:#000000;stroke-width:0.98446262px;stroke-linecap:butt;stroke-linejoin:miter;stroke-opacity:0" d="m 182.56301,473.36871 19.35746,-10.55861 54.55282,17.59768 c 13.93491,4.28413 8.05862,31.45752 -3.51953,29.32948 l -80.18591,-0.72281 -3.82114,-20.13391 6.46431,-12.68155 z" id="path4892" inkscape:connector-curvature="0" sodipodi:nodetypes="cccccccc"/>
  <path style="fill:#475657;fill-opacity:1;fill-rule:evenodd;stroke:#000000;stroke-width:1px;stroke-linecap:butt;stroke-linejoin:miter;stroke-opacity:0" d="m 196.98789,467.99928 -8.10547,4.42187 36.00195,4.95117 28.96485,5.26563 -41.71094,-9.16406 -15.15039,-5.47461 z" id="path4946" inkscape:connector-curvature="0"/>
  <path style="fill:#c3b0b0;fill-opacity:1;fill-rule:evenodd;stroke:#000000;stroke-width:0.98446262px;stroke-linecap:butt;stroke-linejoin:miter;stroke-opacity:0" d="m 185.71583,384.30494 4.14782,-0.0519 4.82183,0.82956 15.39876,26.49417 c -5.85125,10.38653 -11.88288,10.38524 -22.81298,14.51735 l -9.33258,-30.27905 z" id="path4914" inkscape:connector-curvature="0" sodipodi:nodetypes="ccccccc"/>
  <path style="fill:#c8b7b7;fill-opacity:1;fill-rule:evenodd;stroke:#000000;stroke-width:0.98446262px;stroke-linecap:butt;stroke-linejoin:miter;stroke-opacity:0" d="m 159.79199,385.03081 18.25039,5.18477 4.04412,-6.42911 4.76999,0.31108 2.07389,5.08108 0.82957,30.90121 5.9579,21.37599 2.83635,1.73976 -0.84272,2.30563 4.28453,4.65028 6.94758,13.99887 c -7.54199,-1.87505 -9.51278,5.06905 -14.71417,7.94109 -12.96932,1.92601 -14.21015,-4.47606 -21.00583,-10.31653 l -27.12977,9.38543 1.17318,-35.92861 -2.19971,-47.29378 0.73323,-2.12638 4.6194,-0.5866 z" id="path4912" inkscape:connector-curvature="0" sodipodi:nodetypes="ccccccccccccccccccc"/>
  <path style="fill:#3d4c4f;fill-opacity:1;fill-rule:evenodd;stroke:#000000;stroke-width:0.98446262px;stroke-linecap:butt;stroke-linejoin:miter;stroke-opacity:0" d="m 173.16869,497.54027 2.385,5.08108 -0.20739,12.96191 -10.16215,-0.10369 -2.90346,-11.61388 2.69607,-7.25868 z" id="path4920" inkscape:connector-curvature="0"/>
  <path style="fill:#afa3a3;fill-opacity:1;fill-rule:evenodd;stroke:#000000;stroke-width:1px;stroke-linecap:butt;stroke-linejoin:miter;stroke-opacity:0" d="m 159.78906,418.38672 -2.84375,12.95508 2.84375,23.59375 11.78516,7.41015 1.64844,-0.57031 c 1.67972,1.44362 3.01927,2.91888 4.28125,4.29688 8.64216,6.80306 15.7385,7.0412 19.90502,2.78217 0.94079,-1.09073 1.22561,-2.87957 2.08956,-4.17554 l -3.47505,2.05352 1.05351,-2.52662 c -1.01207,0.95761 -2.20445,1.57593 -3.42408,2.21049 0.12898,-4.40244 2.71078,-6.93944 4.37057,-10.84793 -3.96033,4.00997 -6.61868,4.11255 -11.58594,2.52734 l 13.98828,-9.64648 -2.6289,-2.85352 c -0.99724,0.44976 -13.4816,6.07841 -13.88672,6.17969 -0.42133,0.10533 6.74023,-7.68945 6.74023,-7.68945 -5.75234,3.80248 -11.68106,4.16163 -18.32812,4.95117 -4.84185,-9.9988 -8.35928,-19.76215 -9.79493,-30.65039 z" id="path4933" inkscape:connector-curvature="0" sodipodi:nodetypes="cccccccccccccccscccc"/>
  <path style="fill:#506567;fill-opacity:1;fill-rule:evenodd;stroke:#000000;stroke-width:0.98446262px;stroke-linecap:butt;stroke-linejoin:miter;stroke-opacity:0" d="m 184.67125,483.36958 -14.39381,-47.54721 -10.49307,-5.9596 -18.54367,4.27794 -6.758,35.95587 -5.39216,37.74511 18.66517,9.53997 25.71645,-0.41478 -2.0739,-14.72475 9.53996,-3.11085 z" id="path4890" inkscape:connector-curvature="0" sodipodi:nodetypes="ccccccccccc"/>
  <path id="path5179" d="m 143.67244,391.56971 -2.94973,37.87973 -1.19978,9.65359 c -1.57675,11.96204 17.52757,12.98488 17.29821,5.92295 l 6.85112,-48.18197 c 2.27285,-9.76351 -19.10605,-16.81552 -19.99923,-5.27542 z" inkscape:connector-curvature="0" style="fill:#f8ded8;fill-opacity:1;fill-rule:evenodd;stroke-width:2.47799993;stroke-opacity:0" inkscape:transform-center-x="-0.76410866" inkscape:transform-center-y="27.877651"/>
  <path id="path5201" d="m 219.74832,434.22686 c -3.24819,-5.75868 -19.4838,-2.12824 -12.25817,12.73365 l 24.20803,39.69346 c 4.46808,11.58923 19.22266,6.26637 10.99115,-6.91102 z" inkscape:connector-curvature="0" style="fill:#fff9e9;fill-rule:evenodd;stroke-width:3.42000008;stroke-opacity:0" inkscape:transform-center-x="-35.649389" inkscape:transform-center-y="67.76546"/>
  <path style="fill:#c8b7b7;fill-opacity:1;fill-rule:evenodd;stroke:#000000;stroke-width:0.98446262px;stroke-linecap:butt;stroke-linejoin:miter;stroke-opacity:0" d="m 144.04076,386.25152 -6.45248,31.2359 c 8.95418,-1.387 16.05205,0.3158 24.34346,3.0796 l 2.93294,-28.00966 -4.25277,-6.15919 -11.58514,-1.09985 z" id="path4916" inkscape:connector-curvature="0" sodipodi:nodetypes="ccccccc"/>
  <path id="path5181" d="m 157.20809,440.32629 c 1.05495,6.07027 -15.15343,16.54295 -18.71141,1.55835 l -9.6991,-47.57754 c -3.61447,-10.99685 12.03347,-17.23151 13.87187,-2.86938 z" inkscape:connector-curvature="0" style="fill:#fff9e9;fill-rule:evenodd;stroke-width:2.47600007;stroke-opacity:0" inkscape:transform-center-x="5.6104314" inkscape:transform-center-y="-23.943652"/>
  <path style="fill:#3d4c4f;fill-opacity:1;fill-rule:evenodd;stroke:#000000;stroke-width:1.03435028px;stroke-linecap:butt;stroke-linejoin:miter;stroke-opacity:0" d="m 135.02976,508.14181 -7.79637,7.60043 -0.32485,5.55416 15.43032,2.77707 15.75515,-0.14617 0.32484,-7.60042 z" id="path4918" inkscape:connector-curvature="0"/>
  <path id="path4305-4-6" d="m 551.878,195.37212 c 1.98245,9.85467 6.92976,17.62497 15.0324,16.98551 8.10264,-0.63945 15.0058,-9.30458 14.30869,-19.29996 -1.10554,-15.84515 -7.97643,-16.15264 -16.09494,-15.27139 -8.14962,0.88283 -15.78542,4.9696 -13.24726,17.58596 z" inkscape:connector-curvature="0" style="fill:#463333;stroke-width:10;stroke-linecap:round;stroke-opacity:0;fill-opacity:1" inkscape:transform-center-x="-38.203035" inkscape:transform-center-y="-47.566815" sodipodi:nodetypes="cscccc"/>
  <path style="fill:#fff9e9;fill-opacity:1;fill-rule:evenodd;stroke:#000000;stroke-width:1px;stroke-linecap:butt;stroke-linejoin:miter;stroke-opacity:0" d="m 548.84887,186.09161 33.30095,-0.98616 -1.09843,-6.96499 -7.71057,-7.7987 -18.15706,-0.38452 z" id="path4848" inkscape:connector-curvature="0" sodipodi:nodetypes="cccccc"/>
  <path style="fill:#644848;fill-opacity:1;fill-rule:evenodd;stroke:#000000;stroke-width:1px;stroke-linecap:butt;stroke-linejoin:miter;stroke-opacity:0" d="m 493.91955,146.68936 c -0.21779,13.57653 1.4114,26.74795 6.19651,39.1236 l 5.89858,-8.84788 16.43179,37.07684 c 3.80249,-22.72801 7.4211,-45.48421 10.95451,-68.2551 1.8862,17.03323 9.17519,31.74605 16.01047,47.18871 l 5.05593,-27.38629 9.9012,19.17041 16.22112,0.84265 -8.00523,-30.12494 c 15.70393,21.64853 13.85412,19.66667 32.02091,30.75693 -1.70509,49.53029 -0.57876,80.63831 -5.27824,120.09444 l 15.9418,-21.69868 5.47982,22.60818 9.67739,-9.66498 5.89238,26.10992 6.78102,-11.26046 5.93731,25.69403 c -1.32327,-13.06949 4.6934,-29.66247 3.72303,-42.6501 C 648.5087,238.5687 652.44437,188.15016 652.21538,130.61902 624.75315,51.609941 567.35274,49.932033 493.79614,58.150647 450.56461,77.089246 442.22278,90.652179 430.62251,133.0434 c -3.79921,31.23864 2.47969,43.85344 12.19297,72.99329 l -0.84266,-29.91427 11.80595,31.54483 c 0.83431,-14.15699 4.05483,-27.73065 7.38308,-41.43469 l -2.88065,35.22578 c 15.27645,-18.02221 25.54054,-34.0219 35.63835,-54.76898 z" id="path4922" inkscape:connector-curvature="0" sodipodi:nodetypes="ccccccccccccccccccsccccccccc"/>
  <path id="path4303-1-6-6" d="m 596.94676,201.75868 -0.0667,-13.27165 c -15.48666,0.017 -32.82369,1.46701 -45.25308,-1.35979 -2.89036,-0.65735 -1.41293,-1.74735 -4.22367,-3.43546 12.24299,1.58218 52.41613,0.13605 54.54262,-1.72848 0.9889,6.96821 -4.16458,14.86942 -4.99922,19.79538 z" inkscape:connector-curvature="0" style="fill:#463333;fill-rule:evenodd;stroke-width:3.125;stroke-opacity:0;fill-opacity:1" sodipodi:nodetypes="ccscccc" inkscape:transform-center-x="-12.116344" inkscape:transform-center-y="-51.498002"/>
  <path style="fill:#644848;fill-opacity:1;fill-rule:evenodd;stroke:#000000;stroke-width:1px;stroke-linecap:butt;stroke-linejoin:miter;stroke-opacity:0" d="m 448.61926,88.972073 c -12.44675,24.892807 -21.15483,32.392497 -46.14502,39.411047 36.45391,3.0528 39.31536,-4.28147 46.14502,-39.411047 z" id="path4926" inkscape:connector-curvature="0" sodipodi:nodetypes="ccc"/>
  <path style="fill:#475657;fill-opacity:1;fill-rule:evenodd;stroke:#000000;stroke-width:1px;stroke-linecap:butt;stroke-linejoin:miter;stroke-opacity:0" d="m 169.52988,449.24895 -2.12222,5.21289 3.67632,43.77058 c 7.56169,-5.55018 7.12716,-8.81682 8.82227,-17.70117 l 2.15039,-5.79883 -4.99805,-16.50781 c -5.38875,0.43507 -7.21034,-0.3998 -7.52871,-8.97566 z" id="path4938" inkscape:connector-curvature="0" sodipodi:nodetypes="ccccccc"/>
  <path style="fill:#afa3a3;fill-opacity:1;fill-rule:evenodd;stroke:#000000;stroke-width:1px;stroke-linecap:butt;stroke-linejoin:miter;stroke-opacity:0" d="m 502.64402,362.98128 c 11.38264,11.94005 23.33787,9.85024 36.23419,9.05855 -19.44825,7.16967 -29.3527,4.35623 -36.23419,-9.05855 z" id="path4961" inkscape:connector-curvature="0" sodipodi:nodetypes="ccc"/>
  <path style="fill:#644848;fill-opacity:1;fill-rule:evenodd;stroke:#000000;stroke-width:1px;stroke-linecap:butt;stroke-linejoin:miter;stroke-opacity:0" d="m 524.38298,235.62042 c -2.72938,-0.53884 -3.17581,-1.00759 -8.26976,0.3735 4.37633,-2.61623 5.9879,-1.23321 8.26976,-0.3735 z" id="path4979" inkscape:connector-curvature="0" sodipodi:nodetypes="ccc"/>
  <path style="fill:#f8ded8;fill-opacity:1;fill-rule:evenodd;stroke:#000000;stroke-width:1px;stroke-linecap:butt;stroke-linejoin:miter;stroke-opacity:0" d="m 530.90007,225.67722 c -7.58858,4.93056 -9.9425,8.62853 -7.29913,17.27957 -0.4846,-6.9013 3.11571,-12.1997 7.29913,-17.27957 z" id="path4977" inkscape:connector-curvature="0" sodipodi:nodetypes="ccc"/>
  <path style="fill:#644848;fill-opacity:1;fill-rule:evenodd;stroke:#000000;stroke-width:1px;stroke-linecap:butt;stroke-linejoin:miter;stroke-opacity:0" d="m 162.0705,372.85153 c 5.1595,-7.12459 11.141,-3.98283 13.65493,0.99007 -4.38794,-5.60597 -8.5486,-5.18315 -13.65493,-0.99007 z" id="path4982" inkscape:connector-curvature="0" sodipodi:nodetypes="ccc"/>
</svg>