<?xml version="1.0" encoding="UTF-8" standalone="no"?>
<svg id="svg2" xmlns:rdf="http://www.w3.org/1999/02/22-rdf-syntax-ns#" xmlns="http://www.w3.org/2000/svg" height="562.48" width="694.04" version="1" xmlns:cc="http://creativecommons.org/ns#" xmlns:dc="http://purl.org/dc/elements/1.1/">
 <metadata id="metadata143">
  <rdf:RDF>
   <cc:Work rdf:about="">
    <dc:format>image/svg+xml</dc:format>
    <dc:type rdf:resource="http://purl.org/dc/dcmitype/StillImage"/>
    <dc:title>Inkscape Logo</dc:title>
   </cc:Work>
  </rdf:RDF>
 </metadata>
 <title id="title7387">Inkscape Logo</title>
 <style id="style26">.specularity{opacity:.5}.low-specularity{opacity:.25}.full-specularity{opacity:1}.black{fill:#000}.white{fill:#fff}.outline-big{stroke-width:16;stroke:none;opacity:.1;fill:none}.outline-small{stroke-width:8}.outline-small,.stroke-highlight{fill:none;stroke:none;opacity:.2}.base-shadow{fill:#000;opacity:75}</style>
 <path id="rect4962" d="m-694.04 0h336.24v562.48h-336.24z" transform="scale(-1 1)" overflow="visible" stroke-width="3.9" fill="#72c38d"/>
 <path id="path5093" d="m601.24 198.45l5.477 29.071 2.528 38.341-8.005-17.696-8.427 41.29-6.32-24.858-4.634-11.797-8.848 43.818-5.899-24.016-10.112-13.482-11.797 39.605-56.88-5.056-9.268-33.706s-4.635 38.34-4.214 40.026c0.422 1.685-8.847-19.803-8.847-19.803l-5.056-22.33-11.376 29.914-8.006-38.34-13.06 18.96-13.062-42.555-8.848 6.32-3.792-18.538-7.162-32.443 29.493-48.031 149.99-0.421z" stroke-opacity="0" fill-rule="evenodd" stroke="#000" fill="#dbb78c"/>
 <ellipse id="path5574" style="isolation:auto;mix-blend-mode:normal" stroke-opacity="0" fill-opacity=".157" cx="-518.72" rx="99.858" ry="16.643" transform="scale(-1 1)" cy="522.84" stroke-linecap="round" overflow="visible" stroke-width="10"/>
 <path id="rect4979" d="m-336.24 0h336.24v562.48h-336.24z" transform="scale(-1 1)" overflow="visible" stroke-width="3.9" fill="#72c38d"/>
 <ellipse id="ellipse5578" style="isolation:auto;mix-blend-mode:normal" stroke-opacity="0" fill-opacity=".157" cx="-159.87" rx="128.86" ry="16.643" transform="scale(-1 1)" cy="517.89" stroke-linecap="round" overflow="visible" stroke-width="10"/>
 <style id="style26-1">.specularity{opacity:.5}.low-specularity{opacity:.25}.full-specularity{opacity:1}.black{fill:#000}.white{fill:#fff}.outline-big{stroke-width:16;stroke:none;opacity:.1;fill:none}.outline-small{stroke-width:8}.outline-small,.stroke-highlight{fill:none;stroke:none;opacity:.2}.base-shadow{fill:#000;opacity:75}</style>
 <style id="style26-8">.specularity{opacity:.5}.low-specularity{opacity:.25}.full-specularity{opacity:1}.black{fill:#000}.white{fill:#fff}.outline-big{stroke-width:16;stroke:none;opacity:.1;fill:none}.outline-small{stroke-width:8}.outline-small,.stroke-highlight{fill:none;stroke:none;opacity:.2}.base-shadow{fill:#000;opacity:75}</style>
 <style id="style26-2">.specularity{opacity:.5}.low-specularity{opacity:.25}.full-specularity{opacity:1}.black{fill:#000}.white{fill:#fff}.outline-big{stroke-width:16;stroke:none;opacity:.1;fill:none}.outline-small{stroke-width:8}.outline-small,.stroke-highlight{fill:none;stroke:none;opacity:.2}.base-shadow{fill:#000;opacity:75}</style>
 <style id="style26-06">.specularity{opacity:.5}.low-specularity{opacity:.25}.full-specularity{opacity:1}.black{fill:#000}.white{fill:#fff}.outline-big{stroke-width:16;stroke:none;opacity:.1;fill:none}.outline-small{stroke-width:8}.outline-small,.stroke-highlight{fill:none;stroke:none;opacity:.2}.base-shadow{fill:#000;opacity:75}</style>
 <style id="style26-0">.specularity{opacity:.5}.low-specularity{opacity:.25}.full-specularity{opacity:1}.black{fill:#000}.white{fill:#fff}.outline-big{stroke-width:16;stroke:none;opacity:.1;fill:none}.outline-small{stroke-width:8}.outline-small,.stroke-highlight{fill:none;stroke:none;opacity:.2}.base-shadow{fill:#000;opacity:75}</style>
 <style id="style26-1-74">.specularity{opacity:.5}.low-specularity{opacity:.25}.full-specularity{opacity:1}.black{fill:#000}.white{fill:#fff}.outline-big{stroke-width:16;stroke:none;opacity:.1;fill:none}.outline-small{stroke-width:8}.outline-small,.stroke-highlight{fill:none;stroke:none;opacity:.2}.base-shadow{fill:#000;opacity:75}</style>
 <style id="style26-8-52">.specularity{opacity:.5}.low-specularity{opacity:.25}.full-specularity{opacity:1}.black{fill:#000}.white{fill:#fff}.outline-big{stroke-width:16;stroke:none;opacity:.1;fill:none}.outline-small{stroke-width:8}.outline-small,.stroke-highlight{fill:none;stroke:none;opacity:.2}.base-shadow{fill:#000;opacity:75}</style>
 <style id="style26-2-5">.specularity{opacity:.5}.low-specularity{opacity:.25}.full-specularity{opacity:1}.black{fill:#000}.white{fill:#fff}.outline-big{stroke-width:16;stroke:none;opacity:.1;fill:none}.outline-small{stroke-width:8}.outline-small,.stroke-highlight{fill:none;stroke:none;opacity:.2}.base-shadow{fill:#000;opacity:75}</style>
 <style id="style26-28">.specularity{opacity:.5}.low-specularity{opacity:.25}.full-specularity{opacity:1}.black{fill:#000}.white{fill:#fff}.outline-big{stroke-width:16;stroke:none;opacity:.1;fill:none}.outline-small{stroke-width:8}.outline-small,.stroke-highlight{fill:none;stroke:none;opacity:.2}.base-shadow{fill:#000;opacity:75}</style>
 <style id="style26-1-5">.specularity{opacity:.5}.low-specularity{opacity:.25}.full-specularity{opacity:1}.black{fill:#000}.white{fill:#fff}.outline-big{stroke-width:16;stroke:none;opacity:.1;fill:none}.outline-small{stroke-width:8}.outline-small,.stroke-highlight{fill:none;stroke:none;opacity:.2}.base-shadow{fill:#000;opacity:75}</style>
 <style id="style26-3">.specularity{opacity:.5}.low-specularity{opacity:.25}.full-specularity{opacity:1}.black{fill:#000}.white{fill:#fff}.outline-big{stroke-width:16;stroke:none;opacity:.1;fill:none}.outline-small{stroke-width:8}.outline-small,.stroke-highlight{fill:none;stroke:none;opacity:.2}.base-shadow{fill:#000;opacity:75}</style>
 <style id="style26-0-6">.specularity{opacity:.5}.low-specularity{opacity:.25}.full-specularity{opacity:1}.black{fill:#000}.white{fill:#fff}.outline-big{stroke-width:16;stroke:none;opacity:.1;fill:none}.outline-small{stroke-width:8}.outline-small,.stroke-highlight{fill:none;stroke:none;opacity:.2}.base-shadow{fill:#000;opacity:75}</style>
 <style id="style26-1-56">.specularity{opacity:.5}.low-specularity{opacity:.25}.full-specularity{opacity:1}.black{fill:#000}.white{fill:#fff}.outline-big{stroke-width:16;stroke:none;opacity:.1;fill:none}.outline-small{stroke-width:8}.outline-small,.stroke-highlight{fill:none;stroke:none;opacity:.2}.base-shadow{fill:#000;opacity:75}</style>
 <style id="style26-8-9">.specularity{opacity:.5}.low-specularity{opacity:.25}.full-specularity{opacity:1}.black{fill:#000}.white{fill:#fff}.outline-big{stroke-width:16;stroke:none;opacity:.1;fill:none}.outline-small{stroke-width:8}.outline-small,.stroke-highlight{fill:none;stroke:none;opacity:.2}.base-shadow{fill:#000;opacity:75}</style>
 <style id="style26-2-3">.specularity{opacity:.5}.low-specularity{opacity:.25}.full-specularity{opacity:1}.black{fill:#000}.white{fill:#fff}.outline-big{stroke-width:16;stroke:none;opacity:.1;fill:none}.outline-small{stroke-width:8}.outline-small,.stroke-highlight{fill:none;stroke:none;opacity:.2}.base-shadow{fill:#000;opacity:75}</style>
 <style id="style26-81">.specularity{opacity:.5}.low-specularity{opacity:.25}.full-specularity{opacity:1}.black{fill:#000}.white{fill:#fff}.outline-big{stroke-width:16;stroke:none;opacity:.1;fill:none}.outline-small{stroke-width:8}.outline-small,.stroke-highlight{fill:none;stroke:none;opacity:.2}.base-shadow{fill:#000;opacity:75}</style>
 <style id="style26-1-561">.specularity{opacity:.5}.low-specularity{opacity:.25}.full-specularity{opacity:1}.black{fill:#000}.white{fill:#fff}.outline-big{stroke-width:16;stroke:none;opacity:.1;fill:none}.outline-small{stroke-width:8}.outline-small,.stroke-highlight{fill:none;stroke:none;opacity:.2}.base-shadow{fill:#000;opacity:75}</style>
 <style id="style26-32">.specularity{opacity:.5}.low-specularity{opacity:.25}.full-specularity{opacity:1}.black{fill:#000}.white{fill:#fff}.outline-big{stroke-width:16;stroke:none;opacity:.1;fill:none}.outline-small{stroke-width:8}.outline-small,.stroke-highlight{fill:none;stroke:none;opacity:.2}.base-shadow{fill:#000;opacity:75}</style>
 <style id="style26-0-2">.specularity{opacity:.5}.low-specularity{opacity:.25}.full-specularity{opacity:1}.black{fill:#000}.white{fill:#fff}.outline-big{stroke-width:16;stroke:none;opacity:.1;fill:none}.outline-small{stroke-width:8}.outline-small,.stroke-highlight{fill:none;stroke:none;opacity:.2}.base-shadow{fill:#000;opacity:75}</style>
 <style id="style26-1-54">.specularity{opacity:.5}.low-specularity{opacity:.25}.full-specularity{opacity:1}.black{fill:#000}.white{fill:#fff}.outline-big{stroke-width:16;stroke:none;opacity:.1;fill:none}.outline-small{stroke-width:8}.outline-small,.stroke-highlight{fill:none;stroke:none;opacity:.2}.base-shadow{fill:#000;opacity:75}</style>
 <style id="style26-8-7">.specularity{opacity:.5}.low-specularity{opacity:.25}.full-specularity{opacity:1}.black{fill:#000}.white{fill:#fff}.outline-big{stroke-width:16;stroke:none;opacity:.1;fill:none}.outline-small{stroke-width:8}.outline-small,.stroke-highlight{fill:none;stroke:none;opacity:.2}.base-shadow{fill:#000;opacity:75}</style>
 <style id="style26-2-4">.specularity{opacity:.5}.low-specularity{opacity:.25}.full-specularity{opacity:1}.black{fill:#000}.white{fill:#fff}.outline-big{stroke-width:16;stroke:none;opacity:.1;fill:none}.outline-small{stroke-width:8}.outline-small,.stroke-highlight{fill:none;stroke:none;opacity:.2}.base-shadow{fill:#000;opacity:75}</style>
 <style id="style26-30">.specularity{opacity:.5}.low-specularity{opacity:.25}.full-specularity{opacity:1}.black{fill:#000}.white{fill:#fff}.outline-big{stroke-width:16;stroke:none;opacity:.1;fill:none}.outline-small{stroke-width:8}.outline-small,.stroke-highlight{fill:none;stroke:none;opacity:.2}.base-shadow{fill:#000;opacity:75}</style>
 <style id="style26-0-7">.specularity{opacity:.5}.low-specularity{opacity:.25}.full-specularity{opacity:1}.black{fill:#000}.white{fill:#fff}.outline-big{stroke-width:16;stroke:none;opacity:.1;fill:none}.outline-small{stroke-width:8}.outline-small,.stroke-highlight{fill:none;stroke:none;opacity:.2}.base-shadow{fill:#000;opacity:75}</style>
 <style id="style26-1-7">.specularity{opacity:.5}.low-specularity{opacity:.25}.full-specularity{opacity:1}.black{fill:#000}.white{fill:#fff}.outline-big{stroke-width:16;stroke:none;opacity:.1;fill:none}.outline-small{stroke-width:8}.outline-small,.stroke-highlight{fill:none;stroke:none;opacity:.2}.base-shadow{fill:#000;opacity:75}</style>
 <style id="style26-8-5">.specularity{opacity:.5}.low-specularity{opacity:.25}.full-specularity{opacity:1}.black{fill:#000}.white{fill:#fff}.outline-big{stroke-width:16;stroke:none;opacity:.1;fill:none}.outline-small{stroke-width:8}.outline-small,.stroke-highlight{fill:none;stroke:none;opacity:.2}.base-shadow{fill:#000;opacity:75}</style>
 <style id="style26-2-48">.specularity{opacity:.5}.low-specularity{opacity:.25}.full-specularity{opacity:1}.black{fill:#000}.white{fill:#fff}.outline-big{stroke-width:16;stroke:none;opacity:.1;fill:none}.outline-small{stroke-width:8}.outline-small,.stroke-highlight{fill:none;stroke:none;opacity:.2}.base-shadow{fill:#000;opacity:75}</style>
 <style id="style26-28-7">.specularity{opacity:.5}.low-specularity{opacity:.25}.full-specularity{opacity:1}.black{fill:#000}.white{fill:#fff}.outline-big{stroke-width:16;stroke:none;opacity:.1;fill:none}.outline-small{stroke-width:8}.outline-small,.stroke-highlight{fill:none;stroke:none;opacity:.2}.base-shadow{fill:#000;opacity:75}</style>
 <style id="style26-1-5-2">.specularity{opacity:.5}.low-specularity{opacity:.25}.full-specularity{opacity:1}.black{fill:#000}.white{fill:#fff}.outline-big{stroke-width:16;stroke:none;opacity:.1;fill:none}.outline-small{stroke-width:8}.outline-small,.stroke-highlight{fill:none;stroke:none;opacity:.2}.base-shadow{fill:#000;opacity:75}</style>
 <style id="style26-3-0">.specularity{opacity:.5}.low-specularity{opacity:.25}.full-specularity{opacity:1}.black{fill:#000}.white{fill:#fff}.outline-big{stroke-width:16;stroke:none;opacity:.1;fill:none}.outline-small{stroke-width:8}.outline-small,.stroke-highlight{fill:none;stroke:none;opacity:.2}.base-shadow{fill:#000;opacity:75}</style>
 <style id="style26-0-6-3">.specularity{opacity:.5}.low-specularity{opacity:.25}.full-specularity{opacity:1}.black{fill:#000}.white{fill:#fff}.outline-big{stroke-width:16;stroke:none;opacity:.1;fill:none}.outline-small{stroke-width:8}.outline-small,.stroke-highlight{fill:none;stroke:none;opacity:.2}.base-shadow{fill:#000;opacity:75}</style>
 <style id="style26-1-56-4">.specularity{opacity:.5}.low-specularity{opacity:.25}.full-specularity{opacity:1}.black{fill:#000}.white{fill:#fff}.outline-big{stroke-width:16;stroke:none;opacity:.1;fill:none}.outline-small{stroke-width:8}.outline-small,.stroke-highlight{fill:none;stroke:none;opacity:.2}.base-shadow{fill:#000;opacity:75}</style>
 <style id="style26-8-9-0">.specularity{opacity:.5}.low-specularity{opacity:.25}.full-specularity{opacity:1}.black{fill:#000}.white{fill:#fff}.outline-big{stroke-width:16;stroke:none;opacity:.1;fill:none}.outline-small{stroke-width:8}.outline-small,.stroke-highlight{fill:none;stroke:none;opacity:.2}.base-shadow{fill:#000;opacity:75}</style>
 <style id="style26-2-3-3">.specularity{opacity:.5}.low-specularity{opacity:.25}.full-specularity{opacity:1}.black{fill:#000}.white{fill:#fff}.outline-big{stroke-width:16;stroke:none;opacity:.1;fill:none}.outline-small{stroke-width:8}.outline-small,.stroke-highlight{fill:none;stroke:none;opacity:.2}.base-shadow{fill:#000;opacity:75}</style>
 <style id="style26-81-6">.specularity{opacity:.5}.low-specularity{opacity:.25}.full-specularity{opacity:1}.black{fill:#000}.white{fill:#fff}.outline-big{stroke-width:16;stroke:none;opacity:.1;fill:none}.outline-small{stroke-width:8}.outline-small,.stroke-highlight{fill:none;stroke:none;opacity:.2}.base-shadow{fill:#000;opacity:75}</style>
 <style id="style26-1-561-0">.specularity{opacity:.5}.low-specularity{opacity:.25}.full-specularity{opacity:1}.black{fill:#000}.white{fill:#fff}.outline-big{stroke-width:16;stroke:none;opacity:.1;fill:none}.outline-small{stroke-width:8}.outline-small,.stroke-highlight{fill:none;stroke:none;opacity:.2}.base-shadow{fill:#000;opacity:75}</style>
 <style id="style26-7">.specularity{opacity:.5}.low-specularity{opacity:.25}.full-specularity{opacity:1}.black{fill:#000}.white{fill:#fff}.outline-big{stroke-width:16;stroke:none;opacity:.1;fill:none}.outline-small{stroke-width:8}.outline-small,.stroke-highlight{fill:none;stroke:none;opacity:.2}.base-shadow{fill:#000;opacity:75}</style>
 <g fill-rule="evenodd" stroke-opacity="0" fill="#fff9e9">
  <path id="path5175" d="m188.14 258.9c13.666 15.382 19.527 22.897 33.72 37.797 11.993 11.125-4.563 21.354-10.235 14.047l-38.148-35.865c-9.116-7.348 7.391-25.024 14.663-15.98z" stroke-width="3.408"/>
  <path id="path5179" d="m143.5 252.57l-28.685 39.25-7.06 8.503c-8.824 10.486 6.74 22.133 10.967 15.294l35.973-41.953c6.68-6.952-5.784-29.565-11.195-21.094z" stroke-width="2.478"/>
  <path id="path5181" d="m105.68 302.9c4.186-4.652 22.724 1.721 12.987 13.967l-31.913 37.605c-6.514 9.79-21.314 1.205-10.996-9.277z" stroke-width="2.476"/>
  <path id="path4304-3" d="m154.77 249.24l-13.59 6.715c2.947 25.603 10.054 45.99 3.234 59.874-5.272 8.829-4.713 19.247-6.87 37.618l34.387 7.566 33.648-8.805c-0.24-6.665 0.99-10.96-1.825-17.2-3.48-7.715-7.13-18.21-9.337-26.336-4.266-15.702-3.623-32.04-8.857-51.727l-15.83-5.977z" stroke-width="3.069"/>
 </g>
 <g stroke-opacity="0" fill-rule="evenodd">
  <path id="path4363-7" d="m156.32 248.31l-5.507 2.93 18.508 8.125 3.898-7.687-3.348-0.861 0.104-1.702-13.656-0.805z" stroke-width="3.391" fill="#f8ded8"/>
  <path id="path5201" d="m221.38 295.51c-5.006-4.477-19.435 4.32-7.627 16.254l36.253 30.264c8.086 9.688 20.536-0.254 8.313-10.239z" stroke-width="3.42" fill="#fff9e9"/>
  <path id="path5163-7" d="m175.84 250.68c35.85-5.9 69.795-22.174 72.55-34.304l1.945-12.091c5.077-16.01 7.083-32.175 8.4-48.617 1.074-44.309-21.447-75.482-46.012-85.817-53.1-27.622-132.19-6.91-146.93 55.6-5.545 31.029-5.747 55.162 22.47 97.377 12.568 13.817 31.802 24.95 87.565 27.836z" stroke-width="3.125" fill="#fff9e9"/>
  <path id="path4359-2-9" d="m245.37 209.13c-11.488-4.199-20.607-3.325-29.987 2.597 2.783-10.601 21.338-20.989 29.987-2.597z" stroke-width="2.295" fill="#706551"/>
  <path id="path5924" d="m206.45 95.648l-96.062 24.016-7.01 76.52 20.707-18.026-1.043 9.533c13.28-12.393 32.345-28.04 44.687-41.41-2.115 13.53-1.544 31.623 1.49 44.688l7.747-4.916-1.938 27.558 19.961-13.853 20.856-13.258c8.336-8.94 15.341-18.656 21.896-28.898 10.374 11.353 9.91 25.113 10.28 39.177l5.712-5.13c2.678-11.877 4.028-23.856 5-35.985 0.267-10.993-0.92-21.175-3.23-30.434z" stroke="#000" fill="#f8ded8"/>
  <path id="path4303-1-6" d="m105.5 205.35c17.5-18.64 43.247-8.304 55.409 1.73-4.732-26.277-53.002-29.114-55.41-1.73z" stroke-width="3.125" fill="#706551"/>
  <path id="path4367" d="m538.49 256.61l14.959 25.315-2.294 16.57 3.063 26.282 10.144 33.83-26.528 8.58-19.664-1.34-24.15-19.298 9.679-21.272-2.97-46.872-0.177-19.577 24.039-2.977z" stroke-width="3.125" fill="#fff9e9"/>
  <path id="path4389" d="m545.82 262.41l47.782-9.755 16.032-3.874c15.835-5.15 12.508 15.61 3.2 17.032l-60.073 17.555c-11.051 4.465-18.588-18.975-6.94-20.957z" stroke-width="3.469" fill="#fff9e9"/>
  <path id="path5960" d="m580.36 255.36l-10.326 2.11 4.258 19.607 13.023-3.806c-3.276-5.584-4.943-11.805-6.955-17.91z" stroke="#000" fill="#f8ded8"/>
  <path id="path5101" d="m552.4 259.65l23.49-5.072c0.233 9.546 2.986 18.54 5.362 27.707l-28.303 1.936-8.192-9.831 1.34-14.45z" stroke="#000" fill="#dfecec"/>
  <path id="path4393" d="m494.7 343.58l-33.632 77.016c-10.068 9.11-20.561 43.426-30.864 66.37-5.744 9.89 6.5 21.302 11.752 11.844 14.673-30.023 30.473-56.22 40.901-65.406l39.31-65.466c9.374-19.408-17.575-44.832-27.466-24.358z" stroke-width="3.125" fill="#fff9e9"/>
  <path id="path5965" d="m471.34 397.06l-6.395 14.647c10.935 10.545 11.13 9.96 24.596 10.557l8.8-14.657-27.001-10.546z" stroke="#000" fill="#f8ded8"/>
  <path id="path4403" d="m461.67 313.46c4.73-6.344 22.917 0.022 12.084 16.574l-32.487 46.293c-7.062 13.085-23.773 4.528-12.003-9.87z" stroke-width="3.482" fill="#fff9e9"/>
  <path id="path4401" d="m493.57 262.35l-10.403 10.518-21.493 40.597c-7.596 10.334 10.716 19.432 13.552 14.52l34.108-53.414c8.353-8.503-3.476-22.205-15.764-12.221z" stroke-width="3.469" fill="#f8ded8"/>
  <path id="path4983" d="m527.26 356.22l9.832 82.22c-2.619 19.088 4.47 53.707 6.705 80.564 3.4 8.785 17.203 6.735 15.46-6.197-2.72-48.456 2.215-74.341 1.338-74.29l3.128-80.375c-4.87-18.802-41.6-21.757-36.463-1.922z" stroke-width="2.957" fill="#fff9e9"/>
  <g stroke="#000">
   <path id="path5970" d="m533.62 409.4l2.35 19.6c12.04 1.858 19.746-0.314 25.197-4.99l0.492-12.623z" fill="#f8ded8"/>
   <path id="path5882" d="m494.64 340.44l-33.812 32.126 6.741 16.432z" fill="#445658"/>
   <path id="path5884-1" d="m467.08 366.63l-0.863 0.818 6.125 12.99 0.662-1.187-5.924-12.621z" fill="#bcad8f"/>
   <path id="path5884" d="m463.77 369.77l-0.86 0.818 6.835 14.5 0.66-1.182-6.635-14.136z" fill="#bcad8f"/>
   <path id="path5097" d="m493.58 341.49l-29.901 52.575 15.242 16.519 18.328 2.528 21.277 11.586 15.379-4.845 25.658-0.56 12.234-17.196 9.762-3.987-16.142-44.402-4.424-12.43-32.442-1.684z" fill="#506567"/>
  </g>
  <path id="path4981" fill="#f8ded8" d="m507.96 250.48c0.625 0.75 1.028 7.388 1.028 7.388l-7.113 0.718 26.157 7.68 14.396-7.269-4.664-2.315-2.557-5.468z"/>
  <path id="path4284-3-9-0" d="m567.6 246.92c19.86-11.394 37.131-26.704 38.261-39.09l-2.167-10.823c2.919-16.542 2.773-32.83 1.91-49.3-4.785-44.064-31.226-71.99-56.94-78.994-56.273-20.36-131.94 10.61-138.29 74.522-1.399 31.49 8.816 59.483 44.164 91.872 37.55 17.778 72.925 22.017 113.06 11.813z" stroke-width="3.125" fill="#fff9e9"/>
 </g>
 <path id="path4305-4-6" d="m507.26 194.78c0.935 9.797-1.213 18.334-8.29 19.675-7.078 1.342-15.27-5.197-17.34-14.818-3.28-15.251 2.341-18.82 9.497-19.937 7.183-1.122 14.935 2.538 16.133 15.08z" stroke-opacity="0" stroke-linecap="round" stroke-width="10" fill="#706551"/>
 <path id="path4305-6-3" style="isolation:auto;mix-blend-mode:normal" d="m588.08 184.89c0.736 8.354 0.565 15.346-2.255 15.876s-6.384-5.72-7.958-13.958c-1.68-8.796-0.703-14.832 2.254-15.877 3.434-1.212 6.623-1.208 7.958 13.959z" stroke-opacity="0" stroke-linecap="round" overflow="visible" stroke-width="10" fill="#706551"/>
 <style id="style26-75">.specularity{opacity:.5}.low-specularity{opacity:.25}.full-specularity{opacity:1}.black{fill:#000}.white{fill:#fff}.outline-big{stroke-width:16;stroke:none;opacity:.1;fill:none}.outline-small{stroke-width:8}.outline-small,.stroke-highlight{fill:none;stroke:none;opacity:.2}.base-shadow{fill:#000;opacity:75}</style>
 <style id="style26-0-9">.specularity{opacity:.5}.low-specularity{opacity:.25}.full-specularity{opacity:1}.black{fill:#000}.white{fill:#fff}.outline-big{stroke-width:16;stroke:none;opacity:.1;fill:none}.outline-small{stroke-width:8}.outline-small,.stroke-highlight{fill:none;stroke:none;opacity:.2}.base-shadow{fill:#000;opacity:75}</style>
 <style id="style26-1-1">.specularity{opacity:.5}.low-specularity{opacity:.25}.full-specularity{opacity:1}.black{fill:#000}.white{fill:#fff}.outline-big{stroke-width:16;stroke:none;opacity:.1;fill:none}.outline-small{stroke-width:8}.outline-small,.stroke-highlight{fill:none;stroke:none;opacity:.2}.base-shadow{fill:#000;opacity:75}</style>
 <style id="style26-8-2">.specularity{opacity:.5}.low-specularity{opacity:.25}.full-specularity{opacity:1}.black{fill:#000}.white{fill:#fff}.outline-big{stroke-width:16;stroke:none;opacity:.1;fill:none}.outline-small{stroke-width:8}.outline-small,.stroke-highlight{fill:none;stroke:none;opacity:.2}.base-shadow{fill:#000;opacity:75}</style>
 <style id="style26-2-7">.specularity{opacity:.5}.low-specularity{opacity:.25}.full-specularity{opacity:1}.black{fill:#000}.white{fill:#fff}.outline-big{stroke-width:16;stroke:none;opacity:.1;fill:none}.outline-small{stroke-width:8}.outline-small,.stroke-highlight{fill:none;stroke:none;opacity:.2}.base-shadow{fill:#000;opacity:75}</style>
 <style id="style26-28-0">.specularity{opacity:.5}.low-specularity{opacity:.25}.full-specularity{opacity:1}.black{fill:#000}.white{fill:#fff}.outline-big{stroke-width:16;stroke:none;opacity:.1;fill:none}.outline-small{stroke-width:8}.outline-small,.stroke-highlight{fill:none;stroke:none;opacity:.2}.base-shadow{fill:#000;opacity:75}</style>
 <style id="style26-1-5-9">.specularity{opacity:.5}.low-specularity{opacity:.25}.full-specularity{opacity:1}.black{fill:#000}.white{fill:#fff}.outline-big{stroke-width:16;stroke:none;opacity:.1;fill:none}.outline-small{stroke-width:8}.outline-small,.stroke-highlight{fill:none;stroke:none;opacity:.2}.base-shadow{fill:#000;opacity:75}</style>
 <g stroke-opacity="0" fill-rule="evenodd">
  <path id="path4393-0-7" d="m206.39 348.66l-10.62 161.91c-1.444 10.76-15.42 11.046-16.49-4.17l-8.232-148.54c0.732-22.57 36.114-33.006 35.342-9.197z" stroke-width="3.125" fill="#fff9e9"/>
  <path id="path4983-6-9" d="m175.31 346.53l-22.924 70.127-26.684 99.768c-3.738 9.044-17.452 6.342-15.208-7.102l15.592-94.022 12.714-68.24c5.593-19.454 42.41-21.054 36.51-0.532z" stroke-width="2.957" fill="#fff9e9"/>
  <path id="path4356-7-6-1-0" d="m524.52 229.61l22.261 0.653c2.365 14.604-26.095 15.631-22.261-0.653z" stroke-width="3.125" fill="#e59886"/>
  <path id="path4403-3" d="m620.66 258.61c-1.453 7.779-20.585 10.07-18.147-9.561l8.785-55.868c0.58-14.858 19.351-14.533 15.123 3.577z" stroke-width="3.482" fill="#fff9e9"/>
  <path id="path4356-7-6-1-2-7" d="m154.8 228.7c3.157 8.794 15.186 11.828 23.9 6.538-8.324 8.976-25.308 1.92-23.9-6.538z" stroke-width="3.125" fill="#706551"/>
  <g stroke="#000">
   <path id="path5028" d="m236.25 147.47c-0.268 19.913-9.926 33.593-26.522 46.106l8.646-18.399c-9.276 16.53-18.538 29.492-42.9 40.22 0.733-12.12 2.529-21.341 4.766-37.539l-10.725 16.982c-5.042-29.474-2.018-38.158 5.958-65.543-15.933 27.027-31.712 43.367-54.222 61.074l9.831-24.43-31.282 39.326 5.661 17.578-5.378-5.471 0.83 18.58-6.337-12.477-0.436-15.826-12.215-9.236 2.681 16.386 7.448 7.746 6.853 17.875-13.705-16.385 0.298 6.554c-7.991-12.857-23.622-25.168-21.748-38.73l-6.2 16.603-0.355-33.585-12.028 17.897 5.474-33.09-15.194 3.574 13.109-36.346-11.024-2.086c6.523-11.676 14.939-20.184 20.857-29.55 19.014-30.093 45.398-34.773 76.862-48.506 46.2-4.787 78.08-3.014 102.06 23.656l-7.746-14.896c23.541 25.934 37.863 48.34 42.41 82.745-0.045 23.22-1.51 38.602-10.111 59.244-0.05-7.316-2.452-13.17-5.363-19.663-0.412 9.204-1.327 16.394-10.165 22.228 6.172-25.161 2.83-31.991-10.093-52.616z" fill="#f5ddb3"/>
   <path id="path5934" d="m208.51 282.2l-11.53 14.78 5.395 5.07c7.738-8.225 8.565-9.095 8.2-17.55-0.687-0.766-1.398-1.55-2.061-2.298z" fill="#f8ded8"/>
   <path id="path5032" d="m182.01 255.12l5.266 0.948c7.514 7.865 15.028 19.124 22.541 23.595 0.186 14.575-1.112 11.933-12.429 21.066-6.203-6.243-12.021-12.842-17.906-19.381l-2.528-17.801z" fill="#dfecec"/>
   <path id="path5074" d="m107.31 510.07l-0.25 6.7c4.842 6.096 9.951 6.372 17.24 7.745 3.499-4.24 4.453-7.883 4.998-13.084z" stroke-width="1.086" fill="#6f6655"/>
   <path id="path5074-8" d="m176.39 505.11l-0.25 6.698c7.338 9.71 8.844 7.053 21.032 7.64 1.675-4.46 1.647-8.391 1.205-12.977z" stroke-width="1.086" fill="#6f6655"/>
   <path id="path5034" d="m139.46 325.27l-3.792 24.016-25.701 146.62-8.427 13.483 18.117 6.32 14.747-0.422 0.842-11.797-0.421-3.792c6.509-24.817 13.056-49.56 17.696-74.786l16.22-53.508 1.423-2.265 4.121 63.74 1.2 62.12 0.298 1.043-2.085 12.662 12.81 4.618 13.258-5.065 0.745-10.874-0.447-4.47 1.638-1.34v-51.09l5.81-91.313-3.575-19.365-7.15-5.959z" fill="#506567"/>
   <path id="path5929" d="m117.81 287.72l-2.99 4.091-5.164 6.22c3.682 5.85 9.238 7.583 15.588 9.978l3.94-4.594-11.373-15.695z" fill="#f8ded8"/>
   <path id="path5030" d="m149.41 250.26l-5.065-0.894-19.812 22.791-11.172 8.79c0.413 13.828 2.32 17.548 19.663 28.004l11.768-19.365-0.149 2.681-0.298 19.961-3.128 3.724-0.15 3.128-10.575 20.706c6.446 16.084 10.644 13.426 26.985 19.865l17.54-20.68 11.037 18.095c18.2-4.053 18.056 2.907 22.196-13.407l-2.086-8.044-0.149-3.575-5.362-6.852-5.512-20.408-2.383-10.278-1.043-25.622-8.938-14.3-9.98-3.315-3.65 7.71z" fill="#fff"/>
   <path id="path5919" d="m136.78 327.48l-3.423 6.699c9.458 4.459 22.7 9.605 35.812 11.687l5.852-6.898 4.779 7.834c10.494 0.094 20.117-2.606 26.611-10.252l-0.23-0.893-69.4-8.177z" fill="#dfecec"/>
  </g>
  <path id="path4571-2" fill="#e59886" d="m170.45 265.48l3.542 30.076 7.764 8.976 6.728-16.024-15.663-23.674z"/>
  <path id="path4569-2" fill="#e59886" d="m166.89 262.45l0.092 1.36 3.865 2.387 2.816-0.656 0.532-3.748-1.351-0.686z"/>
  <path id="path5914" d="m143.51 252.57c7.687 12.894 10.874 24.705 3.892 36.196l-0.298-3.948-0.745 1.342-0.074-8.267-1.863 8.193-7.123 15.838 7.496-12.338-0.148 2.682-0.059 3.89 9.219-9.18 2.011-20.556z" stroke="#000" fill="#dfecec"/>
  <path id="path5036" d="m141.22 251.45c6.358 7.155 9.476 10.805 10.798 14.238 1.467 13.41 2.222 23.701-8.266 28.216l0.298 18.322c-5.283 4.33-7.024 10.75-9.682 16.833 20.72 16.144 62.35 20.826 71.501 7.448l1.192-0.745-1.043-6.554-5.335-4.565 1.164-4.224c-4.433-7.34-6.01-15.647-8.193-23.834v-27.409l-10.576-15.64-8.802-2.205 4.582 9.27 0.421 21.066-18.538-19.065-9.586-12.219-7.11-1.264z" stroke="#000" fill="#f5ddb3"/>
  <path id="path4567-5" fill="#f2f2f2" d="m169.14 258.66l3.873-7.385 2-0.357 2.46 2.406 1.226 10.39z"/>
  <path id="path4565-9" fill="#f2f2f2" d="m151.13 249.8l17.661 9.042-4.493 8.578-15.9-13.98s-1.83-3.836-1.533-3.896c0.297-0.06 4.265 0.256 4.265 0.256z"/>
  <path id="path5939" d="m597.54 115.92l-138.73 7.123-4.823 78.781 17.276-27.808 2.95 9.058 20.855-22.54 1.685 11.374 8.426 1.266 13.67-23.17 1.897 37.498 25.91-43.607 24.015 31.81 2.952-21.7 8.847 11.589 5.266-2.738 12.219-13.694 4.634 30.334 0.38 8.58c1.548-13.494 1.327-26.87 0.619-40.369-1.28-11.783-4.118-22.4-8.067-31.783z" stroke="#000" fill="#f8ded8"/>
  <path id="path5091" d="m546.04 135.68c-5.294 20.184-14.75 38.35-24.015 56.88 0.744-17.747 0.968-35.157-1.685-52.667l-11.797 32.021h-11.798l0.422-20.224-12.219 23.173-11.797 5.478-0.421-17.696-16.01 37.92c12.692 35.435 7.895 63.777 0.842 99.433l-5.899-51.402c-5.248 10.316-9.712 20.99-14.325 31.6-2.16-18.937-8.088-36.285-14.746-53.93 1.566 15.1-1.65 29.163-4.635 43.818-17.486-33.006-12.813-65.197-15.168-97.327 0.465 23.664-5.775 35.779-14.325 57.3 2.808-21.644 5.748-39.695 3.37-61.092 1.701-27.523 8.2-45.95 19.404-63.018 23.54-42.282 68.323-51.48 105.73-54.111 46.017 6.771 78.903 14.738 95.814 56.749 11.512 29.235 8.049 58.136-6.914 92.822 1.24-25.672-1.39-41.294-8.426-64.884l1.264 35.391-8.005-3.37-3.792-16.432v14.325l-6.742 1.264-7.162-21.488-0.843 34.128c-7.317-15.784-16.43-30.302-26.122-44.661z" stroke="#000" fill="#f5ddb3"/>
  <path id="path4359-0" d="m599.3 178.5c-8.977-10.861-16.13-12.637-26.755-4.6 1.136-14.067 26.277-14.117 26.755 4.599z" stroke-width="2.295" fill="#706551"/>
  <path id="path4303-3-5" d="m465.38 199.84c12.617-29.483 41.95-25.665 54.027-19.068-13.69-19.115-57.934-17.756-54.027 19.067z" stroke-width="3.125" fill="#706551"/>
  <path id="path5095" d="m504.01 257.65l-8.216 1.053-12.429 10.744-22.014 31.388c11.479 15.571 9.99 11.852 29.282 13.904l9.48-18.538 2.528 13.904 0.21 16.01-10.743 14.68 21.277 17.552 26.333-14.325 8.637 15.589 14.957-13.693-7.794-12.43-2.71-7.865 0.028-24.065 7.738-15.89-17.907-25.07-3.855-3.719-7.52 8.144z" stroke="#000" fill="#fff"/>
  <path id="path4571-2-3" fill="#e59886" d="m531.5 268.77l15.639 25.933 10.777 4.972-0.485-17.372-24.037-15.1z"/>
  <g stroke="#000">
   <path id="path5099" d="m496.19 257.85c15.218 11.61 17.081 41.571 3.426 44.39 1.746 12.352 2.015 22.53-2.83 30.538l-2.83 4.618 28.004 7.895 27.111 0.744 12.739-5.3c-0.164-6.308-4.056-11.215-7.284-16.335l1.34-2.384-1.772-2.34-0.501-17.025c6.438-4.883 8.13-12.497 10.147-17.031-6.73-8.742-12.552-18-18.137-27.483l-7.076-1.042c1.405 8.382 3.139 16.7 4.842 25.025-18.075-6.526-25.209-13.917-39.88-25.462z" fill="#f5ddb3"/>
   <path id="path5103" d="m454.29 430.06c-7.952 14.396-16.075 39.063-24.086 56.903-5.744 9.89 6.5 21.301 11.752 11.844 11.309-23.14 23.277-43.97 32.95-56.528-11.127-0.539-14.002-1.495-20.616-12.218z" fill="#506567"/>
   <path id="path5109" d="m536.55 450.2c0.34 19.614 5.421 46.81 7.252 68.809 3.4 8.785 17.204 6.735 15.46-6.197-1.638-29.18-0.502-50.109 0.471-62.184-12.88 3.778-11.902 4.569-23.183-0.428z" fill="#506567"/>
  </g>
  <path id="path4569-2-6" fill="#e59886" d="m528.46 267.88l0.432 1.293 4.342 1.336 2.56-1.343-0.43-3.762-1.48-0.324z"/>
  <path id="path4567-5-9" fill="#f2f2f2" d="m531.39 264.74l6.777-8.279 2-0.358 3.653 1.81 1.746 13.071z"/>
  <path id="path4565-9-7" fill="#f2f2f2" d="m508.39 256.77l23.06 8.094-8.372 12.308-19.105-17.816s-0.517-2.857-0.22-2.917c0.296-0.06 4.637 0.331 4.637 0.331z"/>
  <path id="path5150" d="m465.88 390.22l-0.654 1.152 13.619 15.22 17.695 1.686 21.908 13.483 15.801-6.53 23.488 0.631 13.061-17.062 9.668-3.719-0.428-1.172-9.976 3.836-13.166 16.432-23.385 0.105-14.535 5.69-22.12-13.274-17.275-1.58-13.701-14.898z" stroke="#000" fill="#f5ddb3"/>
  <path id="path5152" d="m468.15 386.22l-0.671 1.183 13.363 13.97 17.695 1.685 19.908 12.427 14.116-5.265 23.382 0.105 13.063-16.748 9.486-3.92-0.43-1.18-9.794 4.047-13.06 16.643-23.386 0.106-12.85 4.423-20.118-12.218-17.274-1.58-13.43-13.678z" stroke="#000" fill="#f5ddb3"/>
 </g>
 <style id="style26-31">.specularity{opacity:.5}.low-specularity{opacity:.25}.full-specularity{opacity:1}.black{fill:#000}.white{fill:#fff}.outline-big{stroke-width:16;stroke:none;opacity:.1;fill:none}.outline-small{stroke-width:8}.outline-small,.stroke-highlight{fill:none;stroke:none;opacity:.2}.base-shadow{fill:#000;opacity:75}</style>
 <style id="style26-0-1">.specularity{opacity:.5}.low-specularity{opacity:.25}.full-specularity{opacity:1}.black{fill:#000}.white{fill:#fff}.outline-big{stroke-width:16;stroke:none;opacity:.1;fill:none}.outline-small{stroke-width:8}.outline-small,.stroke-highlight{fill:none;stroke:none;opacity:.2}.base-shadow{fill:#000;opacity:75}</style>
 <style id="style26-1-0">.specularity{opacity:.5}.low-specularity{opacity:.25}.full-specularity{opacity:1}.black{fill:#000}.white{fill:#fff}.outline-big{stroke-width:16;stroke:none;opacity:.1;fill:none}.outline-small{stroke-width:8}.outline-small,.stroke-highlight{fill:none;stroke:none;opacity:.2}.base-shadow{fill:#000;opacity:75}</style>
 <style id="style26-8-6">.specularity{opacity:.5}.low-specularity{opacity:.25}.full-specularity{opacity:1}.black{fill:#000}.white{fill:#fff}.outline-big{stroke-width:16;stroke:none;opacity:.1;fill:none}.outline-small{stroke-width:8}.outline-small,.stroke-highlight{fill:none;stroke:none;opacity:.2}.base-shadow{fill:#000;opacity:75}</style>
 <style id="style26-2-32">.specularity{opacity:.5}.low-specularity{opacity:.25}.full-specularity{opacity:1}.black{fill:#000}.white{fill:#fff}.outline-big{stroke-width:16;stroke:none;opacity:.1;fill:none}.outline-small{stroke-width:8}.outline-small,.stroke-highlight{fill:none;stroke:none;opacity:.2}.base-shadow{fill:#000;opacity:75}</style>
 <style id="style26-28-5">.specularity{opacity:.5}.low-specularity{opacity:.25}.full-specularity{opacity:1}.black{fill:#000}.white{fill:#fff}.outline-big{stroke-width:16;stroke:none;opacity:.1;fill:none}.outline-small{stroke-width:8}.outline-small,.stroke-highlight{fill:none;stroke:none;opacity:.2}.base-shadow{fill:#000;opacity:75}</style>
 <style id="style26-1-5-25">.specularity{opacity:.5}.low-specularity{opacity:.25}.full-specularity{opacity:1}.black{fill:#000}.white{fill:#fff}.outline-big{stroke-width:16;stroke:none;opacity:.1;fill:none}.outline-small{stroke-width:8}.outline-small,.stroke-highlight{fill:none;stroke:none;opacity:.2}.base-shadow{fill:#000;opacity:75}</style>
 <style id="style26-3-7">.specularity{opacity:.5}.low-specularity{opacity:.25}.full-specularity{opacity:1}.black{fill:#000}.white{fill:#fff}.outline-big{stroke-width:16;stroke:none;opacity:.1;fill:none}.outline-small{stroke-width:8}.outline-small,.stroke-highlight{fill:none;stroke:none;opacity:.2}.base-shadow{fill:#000;opacity:75}</style>
 <style id="style26-0-6-8">.specularity{opacity:.5}.low-specularity{opacity:.25}.full-specularity{opacity:1}.black{fill:#000}.white{fill:#fff}.outline-big{stroke-width:16;stroke:none;opacity:.1;fill:none}.outline-small{stroke-width:8}.outline-small,.stroke-highlight{fill:none;stroke:none;opacity:.2}.base-shadow{fill:#000;opacity:75}</style>
 <style id="style26-1-56-6">.specularity{opacity:.5}.low-specularity{opacity:.25}.full-specularity{opacity:1}.black{fill:#000}.white{fill:#fff}.outline-big{stroke-width:16;stroke:none;opacity:.1;fill:none}.outline-small{stroke-width:8}.outline-small,.stroke-highlight{fill:none;stroke:none;opacity:.2}.base-shadow{fill:#000;opacity:75}</style>
 <style id="style26-8-9-8">.specularity{opacity:.5}.low-specularity{opacity:.25}.full-specularity{opacity:1}.black{fill:#000}.white{fill:#fff}.outline-big{stroke-width:16;stroke:none;opacity:.1;fill:none}.outline-small{stroke-width:8}.outline-small,.stroke-highlight{fill:none;stroke:none;opacity:.2}.base-shadow{fill:#000;opacity:75}</style>
 <style id="style26-2-3-8">.specularity{opacity:.5}.low-specularity{opacity:.25}.full-specularity{opacity:1}.black{fill:#000}.white{fill:#fff}.outline-big{stroke-width:16;stroke:none;opacity:.1;fill:none}.outline-small{stroke-width:8}.outline-small,.stroke-highlight{fill:none;stroke:none;opacity:.2}.base-shadow{fill:#000;opacity:75}</style>
 <style id="style26-81-4">.specularity{opacity:.5}.low-specularity{opacity:.25}.full-specularity{opacity:1}.black{fill:#000}.white{fill:#fff}.outline-big{stroke-width:16;stroke:none;opacity:.1;fill:none}.outline-small{stroke-width:8}.outline-small,.stroke-highlight{fill:none;stroke:none;opacity:.2}.base-shadow{fill:#000;opacity:75}</style>
 <style id="style26-1-561-3">.specularity{opacity:.5}.low-specularity{opacity:.25}.full-specularity{opacity:1}.black{fill:#000}.white{fill:#fff}.outline-big{stroke-width:16;stroke:none;opacity:.1;fill:none}.outline-small{stroke-width:8}.outline-small,.stroke-highlight{fill:none;stroke:none;opacity:.2}.base-shadow{fill:#000;opacity:75}</style>
 <path id="path6141-8" d="m432.54 490.03l1.506 2.695c3.085 0.655 5.113 1.645 7.852 3.123l0.216-0.683 2.61-1.735c1.412 6.877-2.694 14.074-4.989 15.114-11.052-0.77-13.491-7.46-13.59-13.437 0.142-2.845 2.38-5.08 3.361-7.918zm1.728 5.624c-0.667 3.29 1.806 3.48 4.263 5.126 1.613-0.656 2.212-0.966 2.618-2.547-2.317-1.668-4.073-2.445-6.88-2.58z" stroke-opacity="0" fill-rule="evenodd" stroke="#000" fill="#857557"/>
 <path id="path6141-7" d="m547.37 510.46l2.553 1.734c3.05-0.796 4.36-0.547 7.472-0.453l-0.113-0.707 1.752 1.075c4.344 5.515 5.09 9.592 3.503 11.55-9.6 3.698-13.97 0.113-19.68-2.521-1.148-2.607-0.98-5.774-1.376-8.75zm6.075 3.21c0.877 3.24 2.227 2.576 5.16 2.947 1.149-1.31 0.205-1.558-0.14-3.153-2.82-0.453-2.45-0.932-5.02 0.206z" stroke-opacity="0" fill-rule="evenodd" stroke="#000" fill="#857557"/>
 <g stroke="#000" fill-rule="evenodd" stroke-opacity="0" fill="#d9c19b">
  <path id="path5907" d="m193.65 269.17l-14.59 1.81 0.215 10.68-9.289-9.553-17.216 2.137c0.471 9.189-0.9 16.159-9.022 19.654l0.299 18.323c-3.113 2.55-4.987 5.835-6.553 9.341l12.66-10.236-1.937 6.555c9.857-4.985 17.096-11.868 24.43-19.812l1.042 9.236 19.961-10.725z"/>
  <path id="path5912" d="m201.84 320.42c-11.052 3.446-22.377 5.496-33.733 7.594l32.542-2.827z"/>
  <path id="path5944" d="m508.81 285.7c0.037 8.288-2.953 15.254-9.196 16.543 0.858 6.07 1.356 11.612 1.069 16.633 8.12-4.408 15.42-10.078 22.916-15.441-2.952 4.053-6.527 7.556-9.98 11.171 13.913-2.067 26.826-7.21 39.972-11.953 6.438-4.883 8.13-12.497 10.148-17.03-7.5-2.12-12.687-0.797-19.759 1.477-11.71-1.473-23.405-1.508-35.17-1.4z"/>
  <path id="path5949" d="m554.53 324.4c-4.85 8.032-15.62 8.27-24.076 10.772 8.716-2.725 18.552-2.31 25.783-8.133-0.573-0.878-1.15-1.756-1.707-2.639z"/>
 </g>
 <g stroke="#000" fill-rule="evenodd" stroke-opacity="0" fill-opacity=".275">
  <path id="path5954" d="m518.53 424.7l-0.361-58.858-20.916 47.272z" fill="#283233"/>
  <path id="path5956" d="m559.57 419.3l-20.268-57.58-5.39 58.14z" fill="#283233"/>
  <path id="path5958" d="m478.93 410.59l14.66-69.094-29.902 52.575z" fill="#273032"/>
 </g>
</svg>