<?xml version="1.0" encoding="UTF-8" standalone="no"?>
<!-- Created with Inkscape (http://www.inkscape.org/) -->

<svg
   xmlns:dc="http://purl.org/dc/elements/1.1/"
   xmlns:cc="http://creativecommons.org/ns#"
   xmlns:rdf="http://www.w3.org/1999/02/22-rdf-syntax-ns#"
   xmlns:svg="http://www.w3.org/2000/svg"
   xmlns="http://www.w3.org/2000/svg"
   xmlns:sodipodi="http://sodipodi.sourceforge.net/DTD/sodipodi-0.dtd"
   xmlns:inkscape="http://www.inkscape.org/namespaces/inkscape"
   version="1.1"
   id="svg834"
   xml:space="preserve"
   width="651.47791"
   height="382.47949"
   viewBox="0 0 651.4779 382.47949"
   sodipodi:docname="sprites.svg"
   inkscape:version="0.92.4 (5da689c313, 2019-01-14)"><metadata
     id="metadata840"><rdf:RDF><cc:Work
         rdf:about=""><dc:format>image/svg+xml</dc:format><dc:type
           rdf:resource="http://purl.org/dc/dcmitype/StillImage" /><dc:title></dc:title></cc:Work></rdf:RDF></metadata><defs
     id="defs838"><linearGradient
       x1="0"
       y1="0"
       x2="1"
       y2="0"
       gradientUnits="userSpaceOnUse"
       gradientTransform="matrix(684.118,-2318.4,-2318.4,-684.118,3325.14,4486.32)"
       spreadMethod="pad"
       id="linearGradient868"><stop
         style="stop-opacity:1;stop-color:#a47343"
         offset="0"
         id="stop862" /><stop
         style="stop-opacity:1;stop-color:#a47343"
         offset="0.49676166"
         id="stop864" /><stop
         style="stop-opacity:1;stop-color:#855333"
         offset="1"
         id="stop866" /></linearGradient></defs><sodipodi:namedview
     pagecolor="#ffffff"
     bordercolor="#666666"
     borderopacity="1"
     objecttolerance="10"
     gridtolerance="10"
     guidetolerance="10"
     inkscape:pageopacity="0"
     inkscape:pageshadow="2"
     inkscape:window-width="1920"
     inkscape:window-height="1136"
     id="namedview836"
     showgrid="false"
     inkscape:zoom="1.0799673"
     inkscape:cx="318.27304"
     inkscape:cy="195.40108"
     inkscape:window-x="0"
     inkscape:window-y="36"
     inkscape:window-maximized="1"
     inkscape:current-layer="g842" /><g
     id="g842"
     inkscape:groupmode="layer"
     inkscape:label="ink_ext_XXXXXX"
     transform="matrix(1.3333333,0,0,-1.3333333,-97.480288,602.83176)"><g
       id="g844"
       transform="matrix(-0.1,0,0,0.1,634.82886,0)"><path
         d="m 2352.91,3152.82 c 0,0 -215.3,23.21 -380.11,429.61 -164.53,406.34 -557.44,661.64 -962.79,417.8 -405.354,-243.7 -342.002,-847.41 190.05,-1195.73 532.13,-348.12 1254.24,-139.29 1368.28,23.21 113.98,162.62 -215.43,325.11 -215.43,325.11"
         style="fill:#e7c9a5;fill-opacity:1;fill-rule:evenodd;stroke:none"
         id="path846"
         inkscape:connector-curvature="0" /><path
         d="m 2361.91,3185.31 c -233.09,34.17 -326.11,357.68 -415.97,531.15 -116.44,225 -329.55,382.35 -580.29,411.6 -535.572,62.65 -754.314,-519.47 -570.587,-929.95 241.807,-540.21 919.547,-692.93 1445.837,-571.93 140.14,32.28 360.63,100.13 383.98,267.05 18.14,130.22 -158.35,239.35 -254.88,288.77 -38.75,19.77 -72.92,-38.45 -34.11,-58.36 129.59,-66.3 318.24,-218.59 127.27,-340.03 -163.13,-103.91 -384.61,-128.6 -572.13,-134.29 -503.51,-15.4 -1075.085,324.21 -1110.03,866.67 -17.152,266.97 181.195,454.71 418.85,528.96 291.59,90.99 549.21,-131.97 687.8,-362.53 110.04,-183.03 195.54,-523.97 456.33,-562.08 42.54,-6.26 60.89,58.78 17.93,64.97"
         style="fill:#351f17;fill-opacity:1;fill-rule:nonzero;stroke:none"
         id="path848"
         inkscape:connector-curvature="0" /><path
         d="m 2618.97,2798.53 c 0,0 -316.68,-380.04 -139.43,-734.77 177.4,-354.59 760.22,-367.25 760.22,-367.25 0,0 346.99,-35.99 63.35,291.23 -164.6,189.99 126.7,380.04 113.98,494.03 -12.59,114.04 -633.38,506.8 -798.12,316.76"
         style="fill:#e7c9a5;fill-opacity:1;fill-rule:evenodd;stroke:none"
         id="path850"
         inkscape:connector-curvature="0" /><path
         d="m 2595.06,2822.43 c -222.89,-275.77 -312.04,-736.67 22.23,-967.93 180,-124.52 533.45,-263.24 760.07,-172.89 126.49,50.48 49.43,193.99 -1.4,269.15 -146.89,216.98 -41.07,281.4 54.84,451.06 24.82,43.73 25.31,86.83 1.27,129.3 -114.19,201.8 -632.75,478.41 -837.01,291.31 -32.13,-29.53 15.76,-77.14 47.75,-47.81 156.16,143.22 825.82,-168.9 709.52,-374.41 -61.24,-108.15 -136.48,-186.76 -130.85,-317.82 4.22,-97.46 269.86,-336.59 63.14,-352.97 -169.87,-13.36 -360.28,42.11 -512.09,110.67 -391.43,176.77 -369.77,637.6 -129.72,934.53 27.14,33.6 -20.32,81.63 -47.75,47.81"
         style="fill:#351f17;fill-opacity:1;fill-rule:nonzero;stroke:none"
         id="path852"
         inkscape:connector-curvature="0" /><path
         d="m 4034.36,2375.52 c 0,0 86.91,-499.99 467.23,-532.69 380.39,-32.55 499.92,0 510.82,141.4 10.83,141.19 -195.68,162.98 -206.44,315.07 -10.97,152.09 -271.76,271.69 -521.72,249.89 -249.89,-21.73 -249.89,-173.67 -249.89,-173.67"
         style="fill:#e7c9a5;fill-opacity:1;fill-rule:evenodd;stroke:none"
         id="path854"
         inkscape:connector-curvature="0" /><path
         d="m 4001.81,2366.59 c 36.84,-200.39 144.84,-398.67 321.82,-505.33 133.03,-80.09 652.15,-156.09 711.84,66.02 33.19,123.19 -36.49,186.19 -125.23,259.88 -68.34,56.87 -55.89,144.76 -105.53,208.83 -43.04,55.68 -95.07,98.71 -161.02,126.06 -161.65,66.87 -629.23,140.77 -643.08,-146.53 -2.11,-43.52 65.39,-43.31 67.5,0 13.15,273.09 658.83,137.11 705.23,-85.15 29.82,-142.66 365.21,-352.82 81.5,-416.67 -394.81,-88.81 -716.49,122.63 -787.93,510.75 -7.87,42.83 -72.91,24.61 -65.1,-17.86"
         style="fill:#351f17;fill-opacity:1;fill-rule:nonzero;stroke:none"
         id="path856"
         inkscape:connector-curvature="0" /><path
         d="m 4988.15,2684.54 c 0,0 266.06,-164.6 595.4,-25.31 0,0 -139.42,-519.46 -734.76,-151.94 l 139.36,177.25"
         style="fill:#e7c9a5;fill-opacity:1;fill-rule:evenodd;stroke:none"
         id="path858"
         inkscape:connector-curvature="0" /><path
         d="m 4971.06,2655.36 c 187.53,-111.58 423.85,-103.71 621.43,-28.61 -13.78,13.78 -27.64,27.64 -41.49,41.48 -19.19,-68.77 -61.59,-130.92 -112.64,-179.86 -163.69,-156.8 -409.92,-48.23 -572.48,48.09 2.25,-17.71 4.5,-35.43 6.75,-53.08 46.47,59.13 92.95,118.19 139.36,177.26 26.57,33.82 -20.82,81.99 -47.67,47.81 -46.48,-59.13 -92.96,-118.2 -139.36,-177.26 -13.29,-16.94 -13.65,-40.98 6.74,-53.08 185.49,-109.83 419.42,-201.45 616.64,-67.86 79.67,53.94 141.97,147.59 167.77,239.98 6.4,23.06 -16.8,50.91 -41.48,41.49 -181.2,-68.7 -396.99,-80.86 -569.46,21.99 -37.48,22.31 -71.44,-36.05 -34.11,-58.35"
         style="fill:#351f17;fill-opacity:1;fill-rule:nonzero;stroke:none"
         id="path860"
         inkscape:connector-curvature="0" /><path
         d="m 2185.57,3267.3 c 0,0 226.4,1507.71 1732.21,1178.22 C 5297.52,4143.81 5276.29,2950.75 5197.05,2671.96 5069.29,2222.67 4053.63,2127.11 3589.42,2203.18 3163.61,2272.94 2253.49,2595.81 2185.57,3267.3"
         style="fill:url(#linearGradient868);fill-opacity:1;fill-rule:evenodd;stroke:none"
         id="path870"
         inkscape:connector-curvature="0" /><path
         d="m 2218.12,3258.29 c 61.88,399.38 292.08,798.13 630.98,1020.38 727.32,477.14 1875.66,22.71 2218.43,-727.31 109.2,-239 149.63,-524.05 114.54,-784.47 -54.63,-405.5 -596.46,-495.15 -927,-535.01 -717.54,-86.56 -1920.16,182.52 -2036.95,1044.33 -5.83,42.98 -70.95,24.62 -65.18,-17.92 102.51,-756.28 1077.12,-1099.26 1740.09,-1112.34 378.22,-7.39 814.01,45.14 1135.76,258.4 196.66,130.43 232.17,334.26 231.75,552.94 -1.19,714.09 -479.67,1255.14 -1140.26,1470.02 -692.57,225.28 -1402.73,52.94 -1769.76,-599.62 -94.15,-167.35 -168.05,-360.92 -197.58,-551.48 -6.54,-42.53 58.5,-60.88 65.18,-17.92"
         style="fill:#351f17;fill-opacity:1;fill-rule:nonzero;stroke:none"
         id="path872"
         inkscape:connector-curvature="0" /><path
         d="m 1187.41,3529.78 c 0,-55.07 -45.28,-99.93 -101.39,-99.93 -56.04,0 -101.391,44.86 -101.391,99.93 0,55.33 45.351,99.84 101.391,99.84 56.11,0 101.39,-44.51 101.39,-99.84"
         style="fill:#351f17;fill-opacity:1;fill-rule:evenodd;stroke:none"
         id="path874"
         inkscape:connector-curvature="0" /><path
         d="m 819.109,3169.78 c 131.485,-89.94 280.201,-16.32 366.121,97.02 20.88,27.63 -25.74,54.22 -46.34,27.08 -69.53,-91.84 -187.593,-149.77 -292.71,-77.84 -28.617,19.61 -55.407,-26.93 -27.071,-46.26"
         style="fill:#351f17;fill-opacity:1;fill-rule:nonzero;stroke:none"
         id="path876"
         inkscape:connector-curvature="0" /><path
         d="m 1529.48,3355.25 c 0,-82.82 -68.06,-149.76 -152.09,-149.76 -83.95,0 -152.08,66.94 -152.08,149.76 0,82.62 68.13,149.56 152.08,149.56 84.03,0 152.09,-66.94 152.09,-149.56"
         style="fill:#f57479;fill-opacity:1;fill-rule:evenodd;stroke:none"
         id="path878"
         inkscape:connector-curvature="0" /><path
         d="m 2270.22,3553.46 c 150.61,-452.94 611.02,-761.41 1040.98,-904 431.3,-142.95 943.59,-162.35 1384.59,-55.34 192.8,46.76 449.65,149.77 527.13,351.28 9.36,24.26 -29.53,34.6 -38.74,10.69 -84.59,-219.94 -395.37,-302.91 -598.36,-345.73 -426.86,-89.78 -911.25,-39.09 -1321.66,97.03 -393.54,130.43 -818.58,446.07 -955.2,856.76 -8.08,24.47 -46.97,13.99 -38.74,-10.69"
         style="fill:#351f17;fill-opacity:1;fill-rule:nonzero;stroke:none"
         id="path880"
         inkscape:connector-curvature="0" /><path
         d="m 2689.07,3059.3 c 28.97,92.68 92.75,382.37 189.49,407.68 137.68,36 275.42,72 413.09,108.07 42.47,11.18 98.37,11.53 84.66,33.83 29.6,-48.31 59.13,-96.68 88.66,-145.13 62.72,-102.66 125.51,-205.31 188.23,-307.83 13.43,-22.15 48.23,-1.96 34.66,20.18 -92.88,152.08 -185.77,304.11 -278.65,456.11 -4.78,7.81 -13.85,11.54 -22.71,9.28 -172.9,-45.28 -345.72,-90.55 -518.62,-135.77 -117.7,-30.87 -186.19,-335.46 -217.55,-435.72 -7.73,-24.76 31.08,-35.3 38.74,-10.7"
         style="fill:#351f17;fill-opacity:1;fill-rule:nonzero;stroke:none"
         id="path882"
         inkscape:connector-curvature="0" /><path
         d="m 3589.28,2595.81 c -20.6,163.13 64.83,360.07 113.63,513.99 25.31,79.87 227.32,161.85 315.07,215.01 162.98,98.72 129.02,117.43 273.93,10.69 118.91,-87.68 237.73,-175.29 356.63,-262.83 20.88,-15.47 40.92,19.54 20.32,34.6 -160.52,118.33 -320.97,236.67 -481.43,354.86 -5.62,4.15 -14.7,3.45 -20.32,0 -160.45,-97.1 -320.9,-194.35 -481.36,-291.58 -38.11,-23 -52.45,-149.84 -63.63,-187.32 -35.02,-118.69 -88.95,-261.49 -72.98,-387.42 3.16,-25.45 43.38,-25.73 40.14,0"
         style="fill:#351f17;fill-opacity:1;fill-rule:nonzero;stroke:none"
         id="path884"
         inkscape:connector-curvature="0" /><path
         d="m 4744.1,2631.95 c 16.59,115.8 -13.86,237.66 -38.47,350.16 -27.21,124.31 -22.78,108.84 48.66,225.28 53.65,87.54 107.3,175.07 161.02,262.62 -11.68,-18.92 -32.14,-1.9 10.05,-20.05 27.21,-11.67 54.49,-23.27 81.71,-34.94 49.42,-21.16 98.85,-42.39 148.35,-63.56 23.56,-10.12 44.02,24.54 20.25,34.66 -88.66,38.04 -177.33,76.01 -265.99,113.98 -10.27,4.36 -21.3,2.95 -27.56,-7.24 -78.19,-127.55 -156.45,-255.1 -234.63,-382.78 -16.03,-26.09 -1.41,-51.62 5.69,-80.16 30.16,-122.06 70.24,-261.07 52.1,-387.21 -3.65,-25.39 35.16,-36.28 38.82,-10.76"
         style="fill:#351f17;fill-opacity:1;fill-rule:nonzero;stroke:none"
         id="path886"
         inkscape:connector-curvature="0" /><path
         d="m 2866.4,3513.39 c -42.26,152.01 -84.45,304.17 -126.7,456.32 -3.1,11.12 -13.92,16.04 -24.68,14.07 -88.74,-17.01 -177.4,-33.89 -266.06,-50.84 -25.46,-4.84 -14.63,-43.52 10.68,-38.67 88.74,16.87 177.4,33.75 266.06,50.62 -8.29,4.72 -16.45,9.43 -24.74,14.07 42.25,-152.08 84.44,-304.17 126.63,-456.33 6.96,-24.96 45.7,-14.34 38.81,10.76"
         style="fill:#351f17;fill-opacity:1;fill-rule:nonzero;stroke:none"
         id="path888"
         inkscape:connector-curvature="0" /><path
         d="m 2737.73,3954.25 c 67.29,88.59 142.8,174.44 231.89,241.74 58.85,44.5 189.07,31.99 260.72,39.37 36.91,3.87 73.9,7.66 110.88,11.53 4.36,0.42 -0.28,2.74 19.69,-35.51 38.32,-73.13 76.64,-146.25 114.96,-219.38 12.02,-22.99 46.69,-2.73 34.66,20.19 -46.4,88.8 -92.88,177.47 -139.36,266.2 -2.95,5.69 -10.75,10.61 -17.36,9.98 -121.36,-12.58 -242.79,-25.17 -364.15,-37.62 -106.53,-11.03 -226.97,-197.64 -286.67,-276.33 -15.68,-20.66 19.27,-40.56 34.74,-20.17"
         style="fill:#351f17;fill-opacity:1;fill-rule:nonzero;stroke:none"
         id="path890"
         inkscape:connector-curvature="0" /><path
         d="m 3411.18,3591.21 c 37.76,129.88 75.38,259.82 113.14,389.62 -5.49,-18.71 1.68,-6.68 29.03,1.06 43.39,12.22 86.84,24.46 130.22,36.63 73.9,20.87 147.8,41.62 221.7,62.43 10.4,2.96 -14.21,13.5 13.36,-10.4 33.32,-28.98 66.65,-57.87 99.98,-86.77 55.76,-48.52 111.52,-97.03 167.21,-145.48 -1.76,1.55 -12.94,-142.52 -14.98,-174.86 -4.5,-72.84 -9.07,-145.76 -13.64,-218.67 -1.62,-25.88 38.6,-25.74 40.14,0 4.57,72.91 9.14,145.83 13.71,218.67 2.75,43.8 32.42,156.93 8.94,196.87 -33.47,57.24 -123.47,108.77 -172.97,151.81 -26.79,23.2 -96.19,111.58 -135.77,111.58 -64.77,0 -146.33,-40.5 -208.06,-57.87 -62.58,-17.58 -150.96,-26.02 -207.49,-59.13 -32.77,-19.19 -43.6,-130.22 -52.88,-162.28 -23.41,-80.86 -46.9,-161.58 -70.38,-242.44 -7.24,-25.03 31.57,-35.57 38.74,-10.77"
         style="fill:#351f17;fill-opacity:1;fill-rule:nonzero;stroke:none"
         id="path892"
         inkscape:connector-curvature="0" /><path
         d="m 4216.89,3835.99 c 73.55,58.21 147.17,116.29 220.79,174.37 27.42,21.65 10.82,2.03 -2.47,11.1 14.42,-9.77 28.83,-19.61 43.25,-29.38 48.93,-33.33 97.87,-66.52 146.81,-99.84 90.7,-61.6 111.09,-61.96 145.61,-146.6 36.42,-89.45 72.78,-178.81 109.27,-268.25 9.64,-23.63 48.52,-13.22 38.74,10.75 -26.72,65.46 -53.44,131 -80.15,196.6 -16.88,41.56 -31.71,121.64 -64.41,154.33 -86.83,86.84 -219.1,149.35 -320.91,218.54 -8.01,5.49 -17.58,2.24 -24.32,-3.1 -80.23,-63.42 -160.46,-126.77 -240.61,-190.05 -20.39,-16.1 8.29,-44.29 28.4,-28.47"
         style="fill:#351f17;fill-opacity:1;fill-rule:nonzero;stroke:none"
         id="path894"
         inkscape:connector-curvature="0" /><path
         d="m 3930.65,4098.17 c 16.87,101.47 33.75,202.79 50.62,304.11 4.22,25.39 -34.52,36.21 -38.74,10.69 -16.87,-101.4 -33.75,-202.72 -50.62,-304.03 -4.22,-25.45 34.45,-36.28 38.74,-10.77"
         style="fill:#351f17;fill-opacity:1;fill-rule:nonzero;stroke:none"
         id="path896"
         inkscape:connector-curvature="0" /><path
         d="m 4777.5,3814.75 c 25.31,42.18 50.69,84.37 76,126.63 13.36,22.22 -21.37,42.47 -34.73,20.18 -25.31,-42.18 -50.63,-84.37 -75.94,-126.63 -13.36,-22.22 21.37,-42.4 34.67,-20.18"
         style="fill:#351f17;fill-opacity:1;fill-rule:nonzero;stroke:none"
         id="path898"
         inkscape:connector-curvature="0" /><path
         d="m 4488.02,4020.21 c -12.66,80.15 -25.31,160.44 -37.97,240.67 -4.08,25.46 -42.75,14.7 -38.81,-10.75 12.65,-80.16 25.38,-160.39 38.04,-240.62 4.07,-25.52 42.75,-14.7 38.74,10.7"
         style="fill:#351f17;fill-opacity:1;fill-rule:nonzero;stroke:none"
         id="path900"
         inkscape:connector-curvature="0" /><path
         d="m 2928.98,4338.93 c 12.66,-37.97 25.31,-75.94 37.97,-113.98 8.23,-24.47 46.97,-13.99 38.74,10.69 -12.66,37.96 -25.31,75.93 -37.97,113.98 -8.15,24.46 -46.97,13.98 -38.74,-10.69"
         style="fill:#351f17;fill-opacity:1;fill-rule:nonzero;stroke:none"
         id="path902"
         inkscape:connector-curvature="0" /><path
         d="m 3373.21,4262.92 c 12.66,67.57 25.32,135.14 37.97,202.72 4.78,25.31 -33.96,36.13 -38.74,10.75 -12.65,-67.64 -25.31,-135.21 -37.97,-202.79 -4.78,-25.31 33.96,-36.13 38.74,-10.68"
         style="fill:#351f17;fill-opacity:1;fill-rule:nonzero;stroke:none"
         id="path904"
         inkscape:connector-curvature="0" /></g></g></svg>