<?xml version="1.0" encoding="UTF-8" standalone="no"?>
<!-- Created with Inkscape (http://www.inkscape.org/) -->

<svg
   xmlns:dc="http://purl.org/dc/elements/1.1/"
   xmlns:cc="http://creativecommons.org/ns#"
   xmlns:rdf="http://www.w3.org/1999/02/22-rdf-syntax-ns#"
   xmlns:svg="http://www.w3.org/2000/svg"
   xmlns="http://www.w3.org/2000/svg"
   xmlns:sodipodi="http://sodipodi.sourceforge.net/DTD/sodipodi-0.dtd"
   xmlns:inkscape="http://www.inkscape.org/namespaces/inkscape"
   version="1.1"
   id="svg6653"
   xml:space="preserve"
   width="635.7851"
   height="583.99707"
   viewBox="0 0 635.7851 583.99707"
   sodipodi:docname="sprites.svg"
   inkscape:version="0.92.4 (5da689c313, 2019-01-14)"><metadata
     id="metadata6659"><rdf:RDF><cc:Work
         rdf:about=""><dc:format>image/svg+xml</dc:format><dc:type
           rdf:resource="http://purl.org/dc/dcmitype/StillImage" /><dc:title></dc:title></cc:Work></rdf:RDF></metadata><defs
     id="defs6657" /><sodipodi:namedview
     pagecolor="#ffffff"
     bordercolor="#666666"
     borderopacity="1"
     objecttolerance="10"
     gridtolerance="10"
     guidetolerance="10"
     inkscape:pageopacity="0"
     inkscape:pageshadow="2"
     inkscape:window-width="1920"
     inkscape:window-height="1136"
     id="namedview6655"
     showgrid="false"
     inkscape:zoom="1.1314004"
     inkscape:cx="317.82325"
     inkscape:cy="292.05389"
     inkscape:window-x="0"
     inkscape:window-y="36"
     inkscape:window-maximized="1"
     inkscape:current-layer="g6661" /><g
     id="g6661"
     inkscape:groupmode="layer"
     inkscape:label="ink_ext_XXXXXX"
     transform="matrix(1.3333333,0,0,-1.3333333,-79.030086,688.79649)"><g
       id="g6663"
       transform="matrix(-0.1,0,0,0.1,595.38396,0)"><path
         d="m 3463.97,4871.71 c 11.53,-13.68 22.66,-27.64 33.11,-42.58 4.49,10.25 10.45,20.8 18.36,31.25 -17.09,4.39 -34.47,8.2 -51.47,11.33 z m -219.33,-15.53 c -27.93,-25.39 -31.06,-39.16 -31.06,-39.16 9.57,-13.38 60.75,-28.52 115.24,-29.79 -25.78,27.05 -54.1,49.91 -84.18,68.95 z M 3647.37,4772 c 13.28,-12.99 42.78,-26.47 63.09,-28.91 -4.3,16.51 -20.31,32.42 -36.33,45.02 -13.48,-6.54 -21.87,-12.2 -26.76,-16.11 z m 1073.05,-868.36 c 0.88,-0.98 1.76,-2.25 2.54,-3.52 10.64,-13.47 21.68,-25 32.42,-34.18 22.75,7.72 46.09,12.11 69.53,14.07 -9.96,20.11 -20.9,40.43 -33.01,60.54 -21.68,-16.3 -46.09,-28.51 -71.48,-36.91 z m 172.66,-250.59 c -24.61,-12.79 -46.49,-33.1 -61.14,-61.32 -9.18,-18.07 -9.18,-34.18 -5.47,-47.17 35.55,15.04 54.69,53.42 64.85,86.72 1.56,4.98 2.15,12.11 1.76,21.77 z m -283.4,958.99 c 27.54,-37.01 48.44,-84.77 59.96,-146 1.27,-5.86 2.15,-11.52 3.12,-17.38 32.52,-25.2 58.01,-57.23 79.5,-83.99 l 17.18,-21.19 c 49.81,-60.35 78.52,-113.77 93.17,-160.35 102.73,-67.87 171.48,-184.96 141.01,-321.19 5.08,-13.96 9.96,-28.03 14.36,-41.5 9.37,-2.05 18.46,-4.4 27.24,-7.33 117.39,-38.08 179.99,-148.14 159.57,-280.27 -14.45,-94.14 -68.45,-152.15 -133.98,-191.11 54.49,-17 101.56,-40.92 135.55,-75.69 26.76,-27.05 30.08,-69.33 8.01,-100.29 -54.69,-76.95 -138.87,-123.24 -233.89,-152.34 6.35,-10.26 10.15,-22.27 11.13,-34.77 2.35,-32.91 -16.11,-63.97 -46.19,-77.34 -67.77,-30.38 -138.57,-50.69 -208.98,-67.88 -2.15,-24.8 -16.02,-48.24 -38.48,-61.42 -41.41,-24.32 -85.35,-46.49 -129.1,-68.36 25.58,-5.18 47.36,-23.44 56.83,-48.54 12.11,-31.64 2.64,-67.48 -23.53,-88.67 -26.86,-22.17 -56.54,-43.16 -86.23,-64.35 -1.27,-0.59 -2.54,-1.66 -3.91,-2.93 8.4,-0.59 16.7,-1.66 25.2,-3.13 27.15,-4 50.19,-22.36 60.54,-47.95 10.36,-25.58 6.64,-54.49 -9.96,-76.46 -20.31,-27.25 -44.33,-50.29 -70.51,-70.41 111.53,-34.57 -9.17,-192.58 16.41,-273.63 43.17,-135.65 119.53,-226.08 133.01,-380.57 15.53,-177.64 11.33,-398.93 -171.19,-497.85 -69.83,-37.7 -165.14,-41.02 -216.51,32.52 -87.5,125.09 64.07,110.64 91.41,202.63 -19.92,2.93 -40.33,5.18 -52.34,1.86 -34.77,-10.06 -71.88,5.08 -89.75,36.43 -18.07,31.44 -12.21,71.09 13.96,95.8 12.7,12.4 28.13,25.78 44.83,40.43 33.98,29.78 67.48,59.96 96.29,94.23 -129.01,-33.88 -271.49,288.19 -218.07,380.96 17.58,30.86 39.45,55.57 62.89,76.47 l -37.01,1.27 c -32.32,1.07 -60.74,21.38 -71.87,51.75 -11.04,30.37 -2.45,64.16 21.77,85.55 47.27,42.09 101.76,72.46 155.08,101.37 -23.63,5.27 -43.65,20.99 -54.3,42.97 -12.11,25.58 -9.66,55.46 6.45,78.61 19.53,27.83 42.77,52.54 68.16,75.19 -19.72,1.66 -39.55,4.2 -59.18,7.52 -31.44,5.28 -56.44,29.11 -63.47,60.16 -3.52,15.72 -1.96,31.84 2.93,46.29 -36.33,-4 -69.34,17.77 -81.45,51.37 -12.11,33.69 0.2,71.38 29.79,91.5 128.22,87.21 270.99,121.09 410.84,151.07 -25.59,1.08 -47.66,1.47 -65.34,0 -42.67,-3.51 -81.15,28.52 -84.86,71.68 -3.71,43.17 28.32,81.06 72.46,84.87 31.25,2.54 66.8,4.59 104.69,6.44 139.55,7.42 319.73,17 430.66,77.15 -84.18,23.05 -202.34,27.64 -262.89,29.98 -35.93,1.47 -66.4,27.05 -74.02,62.21 -7.42,34.96 9.37,70.41 41.41,86.52 8.59,4.2 17.48,8.21 26.56,12.21 -81.15,15.92 -151.17,70.6 -180.47,145.8 -15.72,40.43 -38.48,139.75 58.2,244.53 -8.49,9.18 -16.5,18.65 -23.83,28.32 -25,32.42 -43.55,66.8 -55.27,101.56 -4.2,1.47 -8.2,3.13 -12.11,5.28 -68.45,33.1 -99.9,98.83 -82.42,171.38 6.05,24.71 15.63,46.98 28.22,66.61 -25.68,-8.6 -50,-14.46 -70.21,-19.24 -39.16,-9.67 -78.81,12.3 -92.29,50.1 -43.84,122.94 3.81,227.34 130.96,285.74 19.53,8.98 38.09,15.52 55.66,19.92 -20.21,46.68 -55.07,72.07 -107.03,83.98 3.81,-15.72 6.35,-31.15 7.62,-46.87 2.54,-34.77 -18.16,-67.29 -50.88,-79.2 -123.14,-45.9 -309.47,40.62 -411.23,115.43 -41.41,30.17 -52.05,69.73 -103.52,74.22 -28.51,2.24 -82.03,-49.12 -126.46,-47.37 -69.34,2.64 -147.17,39.16 -190.43,94.93 -5.47,-5.67 -12.01,-10.55 -19.04,-14.07 -120.51,-63.28 -340.82,-44.82 -417.29,66.61 -15.72,23.43 -54,96.19 9.67,186.71 -32.23,8.11 -65.04,13.19 -97.36,16.31 26.75,-40.62 20.21,-79.98 13.38,-101.36 -38.38,-117.58 -253.32,-162.21 -367.88,-128.03 -31.54,9.18 -58.69,20.12 -81.54,32.22 -45.02,-6.93 -91.21,-6.93 -134.18,5.47 -58.49,17 -103.42,54.3 -129.88,108.11 -4.69,8.98 -7.23,18.85 -8.01,28.71 -24.02,-2.05 -47.26,-4.79 -69.04,-8.01 7.42,-11.52 12.4,-23.63 14.55,-36.81 5.66,-32.52 3.51,-109.77 -135.94,-134.09 -142.58,-24.12 -171.29,48.15 -176.76,80.67 -2.44,13.57 -1.75,26.95 1.37,40.62 -27.93,-5.66 -57.42,-14.06 -85.94,-23.92 8.5,-16.31 11.14,-35.84 6.74,-54.01 -30.76,-130.95 -185.06,-156.74 -235.84,-164.94 -39.84,-6.93 -79,18.65 -88.96,58.5 -0.1,1.07 -0.39,2.05 -0.69,2.93 -94.92,-29.98 -141.7,-73.34 -139.74,-128.91 1.66,-43.36 -32.23,-79.59 -75.49,-81.25 -45.51,0.59 -79.79,32.23 -81.45,75.39 -7.22,196.78 180.18,275.39 344.24,309.08 106.94,122.95 341.99,164.26 352.44,166.12 34.96,6.15 84.18,2.15 133.21,-9.96 42.77,26.95 88.18,46.29 123.04,52.34 3.32,0.59 199.03,33.3 371.2,14.65 39.25,4.78 78.9,5.47 117.87,6.74 82.03,29.29 159.18,41.21 160.84,41.5 157.91,21.78 307.61,-0.49 433.39,-59.76 129.01,28.12 309.48,-4.01 436.82,-68.27 155.86,35.36 348.83,-29.2 479.1,-114.25 51.17,-33.31 94.73,-70.81 129.89,-110.16 12.79,-14.45 126.36,-12.01 152.24,-20.12 50.1,-15.33 88.67,-42.77 133.11,-68.36 82.81,-47.95 188.57,-83.59 257.61,-151.07 70.32,-68.46 80.08,-161.52 122.07,-242.38 36.92,-71.49 98.64,-132.04 136.63,-205.96 51.85,-102.05 37.4,-213.09 47.36,-326.27 9.76,-108.99 62.89,-222.95 74.51,-340.72 15.04,-152.54 -50.78,-229.4 -111.82,-361.82 -46.48,-100.98 -28.12,-204.1 -106.83,-272.17 -96.97,-83.79 -231.74,-98.73 -356.64,-98.73"
         style="fill:#f57d2f;fill-opacity:1;fill-rule:nonzero;stroke:none"
         id="path6665"
         inkscape:connector-curvature="0" /><path
         d="m 853.816,3612.04 c 285.154,-82.13 587.894,-129.3 875.004,-216.31 552.54,-167.77 1131.83,-435.16 1503.51,-894.24 229.98,-284.08 534.96,-618.36 670.32,-961.33 50.48,-128.22 85.15,-253.71 148.24,-376.56 88.57,-172.358 81.83,-188.959 245.31,-134.86 215.82,71.38 373.24,162.79 376.56,393.85 3.32,233.69 -23.43,451.36 -35.45,689.16 -4.59,95.11 -70.02,313.86 -19.92,400.68 39.94,68.94 151.08,83.1 223.15,112.89 180.08,74.22 274.41,220.9 357.42,393.75 202.93,422.56 42.77,965.43 -216.8,1347.07 -223.73,328.71 -728.51,524.61 -1106.64,608.59 -230.47,50.98 -355.66,106.45 -598.73,117 -228.61,9.86 -508.89,-1.27 -748.24,0 -670.31,3.32 -1821.581,-381.55 -1791.503,-1251.96 z"
         style="fill:none;stroke:#4b2e1e;stroke-width:140.17500305;stroke-linecap:round;stroke-linejoin:round;stroke-miterlimit:10;stroke-dasharray:none;stroke-opacity:1"
         id="path6667"
         inkscape:connector-curvature="0" /><path
         d="m 1062.51,3005.4 c -255.764,85.54 -409.865,408.4 -399.119,598.44 40.425,704 423.439,889.06 1057.229,1015.13 348.43,69.14 684.27,97.85 1038.76,86.33 589.65,-19.04 1140.92,-28.42 1599.71,-470.8 231.45,-222.95 307.42,-454.3 264.36,-797.07 -20.51,-161.13 -24.03,-233.59 -138.38,-344.63 -83.3,-80.86 -257.62,-95.8 -310.26,-158.2 -107.52,-127.64 -32.52,-467.48 -29.98,-631.55 3.91,-250.78 1.76,-477.93 23.25,-721.19 34.57,-392.87 42.96,-649.309 -96.39,-644.719 -487.5,15.718 -1068.16,12.199 -1555.57,27.828 C 2234.09,974.25 2218.86,910.57 1951.47,900.91 1733.31,892.902 1425.3,892.512 1225.79,856.082 1207.63,1509.4 1116.9,2986.94 1062.51,3005.4"
         style="fill:#ffffff;fill-opacity:1;fill-rule:nonzero;stroke:none"
         id="path6669"
         inkscape:connector-curvature="0" /><path
         d="m 1062.51,3005.4 c -255.764,85.54 -409.865,408.4 -399.119,598.44 40.425,704 423.439,889.06 1057.229,1015.13 348.43,69.14 684.27,97.85 1038.76,86.33 589.65,-19.04 1140.92,-28.42 1599.71,-470.8 231.45,-222.95 307.42,-454.3 264.36,-797.07 -20.51,-161.13 -24.03,-233.59 -138.38,-344.63 -83.3,-80.86 -257.62,-95.8 -310.26,-158.2 -107.52,-127.64 -32.52,-467.48 -29.98,-631.55 3.91,-250.78 1.76,-477.93 23.25,-721.19 34.57,-392.87 42.96,-649.309 -96.39,-644.719 -487.5,15.718 -1068.16,12.199 -1555.57,27.828 C 2234.09,974.25 2218.86,910.57 1951.47,900.91 1733.31,892.902 1425.3,892.512 1225.79,856.082 1207.63,1509.4 1116.9,2986.94 1062.51,3005.4 Z"
         style="fill:none;stroke:#4b2e1e;stroke-width:140.17500305;stroke-linecap:round;stroke-linejoin:round;stroke-miterlimit:10;stroke-dasharray:none;stroke-opacity:1"
         id="path6671"
         inkscape:connector-curvature="0" /><path
         d="m 2075.5,2316.04 c -12.89,141.9 205.86,353.32 232.22,129.3 16.8,-141.41 -203.51,-323.54 -204.49,-140.82"
         style="fill:#f36084;fill-opacity:1;fill-rule:nonzero;stroke:none"
         id="path6673"
         inkscape:connector-curvature="0" /><path
         d="m 1716.12,3106.57 c 39.85,105.47 130.86,176.07 244.05,108.59 211.91,-125.78 109.86,-554.88 -128.03,-459.47 -139.06,55.66 -162.5,226.86 -116.02,350.88"
         style="fill:#4b2e1e;fill-opacity:1;fill-rule:nonzero;stroke:none"
         id="path6675"
         inkscape:connector-curvature="0" /><path
         d="m 3178.62,3165.94 c 39.94,105.77 130.76,176.18 244.14,109.38 211.82,-126.37 109.77,-555.27 -128.12,-459.77 -139.26,55.77 -162.5,226.96 -116.02,350.39"
         style="fill:#4b2e1e;fill-opacity:1;fill-rule:nonzero;stroke:none"
         id="path6677"
         inkscape:connector-curvature="0" /><path
         d="m 2022.18,2388.11 c 9.37,-126.76 92.67,-252.05 211.91,-336.91 39.85,-28.22 75.29,-42.97 122.27,-59.08 90.43,-30.57 188.86,-43.75 289.45,-39.85 190.04,7.13 355.08,82.82 456.64,208.99 80.67,100.29 71.68,174.12 85.55,280.08"
         style="fill:none;stroke:#4b2e1e;stroke-width:140.17500305;stroke-linecap:round;stroke-linejoin:round;stroke-miterlimit:10;stroke-dasharray:none;stroke-opacity:1"
         id="path6679"
         inkscape:connector-curvature="0" /><path
         d="m 2033.02,2344.17 c -50.2,112.89 39.55,288.67 207.42,246.19 204,-51.56 149.71,-365.04 -43.36,-429.79"
         style="fill:none;stroke:#4b2e1e;stroke-width:140.17500305;stroke-linecap:round;stroke-linejoin:round;stroke-miterlimit:10;stroke-dasharray:none;stroke-opacity:1"
         id="path6681"
         inkscape:connector-curvature="0" /></g></g></svg>