<?xml version="1.0" encoding="UTF-8" standalone="no"?>
<svg
   xmlns:dc="http://purl.org/dc/elements/1.1/"
   xmlns:cc="http://creativecommons.org/ns#"
   xmlns:rdf="http://www.w3.org/1999/02/22-rdf-syntax-ns#"
   xmlns:svg="http://www.w3.org/2000/svg"
   xmlns="http://www.w3.org/2000/svg"
   xmlns:sodipodi="http://sodipodi.sourceforge.net/DTD/sodipodi-0.dtd"
   xmlns:inkscape="http://www.inkscape.org/namespaces/inkscape"
   width="59.898151mm"
   height="123.622mm"
   viewBox="0 0 59.898151 123.622"
   version="1.1"
   id="svg289"
   inkscape:version="1.0.2 (e86c870879, 2021-01-15)"
   sodipodi:docname="ISTP-girl.svg">
  <defs
     id="defs283" />
  <sodipodi:namedview
     id="base"
     pagecolor="#ffffff"
     bordercolor="#666666"
     borderopacity="1.0"
     inkscape:pageopacity="0.0"
     inkscape:pageshadow="2"
     inkscape:zoom="0.35"
     inkscape:cx="113.19336"
     inkscape:cy="233.61637"
     inkscape:document-units="mm"
     inkscape:current-layer="layer1"
     inkscape:document-rotation="0"
     showgrid="false"
     inkscape:window-width="1517"
     inkscape:window-height="966"
     inkscape:window-x="30"
     inkscape:window-y="66"
     inkscape:window-maximized="0" />
  <metadata
     id="metadata286">
    <rdf:RDF>
      <cc:Work
         rdf:about="">
        <dc:format>image/svg+xml</dc:format>
        <dc:type
           rdf:resource="http://purl.org/dc/dcmitype/StillImage" />
        <dc:title></dc:title>
      </cc:Work>
    </rdf:RDF>
  </metadata>
  <g
     inkscape:label="Layer 1"
     inkscape:groupmode="layer"
     id="layer1"
     transform="translate(-75.884258,-86.355668)">
    <ellipse
       ry="4.4034672"
       rx="26.420803"
       cy="205.5742"
       cx="104.59274"
       id="ellipse5578"
       style="color:#000000;clip-rule:nonzero;display:inline;overflow:visible;visibility:visible;isolation:auto;mix-blend-mode:normal;color-interpolation:sRGB;color-interpolation-filters:linearRGB;solid-color:#000000;solid-opacity:1;fill:#000000;fill-opacity:0.156863;fill-rule:nonzero;stroke:none;stroke-width:2.64583;stroke-linecap:round;stroke-linejoin:miter;stroke-miterlimit:4;stroke-dasharray:none;stroke-dashoffset:0;stroke-opacity:0;color-rendering:auto;image-rendering:auto;shape-rendering:auto;text-rendering:auto;enable-background:accumulate" />
    <g
       id="g4389"
       transform="matrix(-0.26458333,0,0,0.26458333,245.96431,66.865273)">
      <path
         sodipodi:nodetypes="cccccccccccccccccccccccccc"
         inkscape:connector-curvature="0"
         id="path5092"
         d="m 438.5609,227.00499 0.8514,39.59493 8.70711,-16.17982 17.68718,27.79899 5.83363,-12.1976 6.61701,11.19239 10.8566,9.94239 -0.78033,-15.16206 17.77818,10.99785 23.68808,9.36916 25.98617,-16.44023 -3.0052,9.36916 14.67246,-15.55634 1.18981,8.40549 15.60397,-16.29978 -2.29809,12.31371 11.13693,-12.55115 11.94124,11.46801 1.84734,-20.13006 5.30331,21.74353 9.0156,-33.41079 5.82752,-43.58534 -35.52082,-30.71142 -55,-10 -76,32.5 z"
         style="fill:#3d4c4f;fill-opacity:1;fill-rule:evenodd;stroke:none;stroke-width:1px;stroke-linecap:butt;stroke-linejoin:miter;stroke-opacity:0" />
      <path
         style="fill:#fff9e9;fill-opacity:1;fill-rule:evenodd;stroke:none;stroke-width:3.40775px;stroke-linecap:butt;stroke-linejoin:miter;stroke-opacity:0"
         d="m 517.09779,282.97573 c -9.53675,18.23151 -13.40505,26.9421 -23.57063,44.83459 -8.94298,13.69612 9.59566,19.61419 13.33088,11.15169 L 535.19231,294.931 c 7.06683,-9.33573 -13.22785,-22.4916 -18.09452,-11.95527 z"
         id="path5175"
         inkscape:connector-curvature="0"
         inkscape:transform-center-x="12.469598"
         inkscape:transform-center-y="25.587684"
         sodipodi:nodetypes="ccccc" />
      <path
         inkscape:transform-center-y="61.501473"
         inkscape:transform-center-x="0.09907146"
         style="fill:#fff9e9;fill-opacity:1;fill-rule:evenodd;stroke:none;stroke-width:2.9051px;stroke-linecap:butt;stroke-linejoin:miter;stroke-opacity:0"
         d="m 568.67619,370.0946 -3.70998,67.16415 c 8.70925,18.98332 4.37635,53.78803 5.57109,81.76332 -0.84049,9.21519 -14.43098,11.00449 -16.27396,-1.68044 -0.51199,-16.36777 -1.12753,-49.30696 -10.85275,-75.65944 l -8.65544,-59.93137 C 534.2794,362.67854 568.17439,349.974 568.67619,370.0946 Z"
         id="path5237"
         inkscape:connector-curvature="0"
         sodipodi:nodetypes="ccccccc" />
      <path
         inkscape:transform-center-y="66.751586"
         inkscape:transform-center-x="0.66690103"
         sodipodi:nodetypes="cccccccc"
         inkscape:connector-curvature="0"
         id="path5183"
         d="m 534.17212,363.174 -12.55102,67.544 c 10.2475,21.5746 7.72079,58.29479 13.8929,81.54111 -2.21352,8.98477 -15.91874,8.71468 -15.83758,-4.1032 -7.14597,-24.76702 -8.58692,-45.02848 -18.96238,-72.70769 l -1.82765,-65.83944 c 2.39124,-18.92776 37.80872,-26.40291 35.28603,-6.43479 z"
         style="fill:#fff9e9;fill-opacity:1;fill-rule:evenodd;stroke:none;stroke-width:2.9051px;stroke-linecap:butt;stroke-linejoin:miter;stroke-opacity:0" />
      <path
         sodipodi:nodetypes="cccccc"
         inkscape:transform-center-y="23.987596"
         inkscape:transform-center-x="-13.958788"
         inkscape:connector-curvature="0"
         id="path5179"
         d="m 565.55351,277.48638 23.55271,42.52797 5.94143,9.31894 c 7.44503,11.50704 -9.45362,21.11714 -12.79197,13.8033 L 551.8099,297.01497 c -5.75916,-7.73294 9.43519,-28.61012 13.74361,-19.52859 z"
         style="fill:#fff9e9;fill-opacity:1;fill-rule:evenodd;stroke:none;stroke-width:2.47809px;stroke-linecap:butt;stroke-linejoin:miter;stroke-opacity:0" />
      <path
         sodipodi:nodetypes="ccccc"
         inkscape:transform-center-y="23.507593"
         inkscape:transform-center-x="-17.571629"
         inkscape:connector-curvature="0"
         id="path5181"
         d="m 595.69482,330.93387 c -4.0698,-4.75383 -22.75892,1.15871 -13.32914,13.64162 l 30.97416,38.38328 c 6.27028,9.94737 21.27819,1.73054 11.22294,-9.00332 z"
         style="fill:#fff9e9;fill-opacity:1;fill-rule:evenodd;stroke:none;stroke-width:2.47599px;stroke-linecap:butt;stroke-linejoin:miter;stroke-opacity:0" />
      <path
         style="fill:#fff9e9;fill-opacity:1;fill-rule:evenodd;stroke:none;stroke-width:3.06946px;stroke-linecap:butt;stroke-linejoin:miter;stroke-opacity:0"
         d="m 551.32574,271.14613 13.58967,6.7144 c -2.94643,25.60333 -10.05419,45.99064 -3.23408,59.87404 5.27207,8.829 4.71312,19.24786 6.86989,37.61864 l -34.38698,7.5662 -33.64807,-8.80557 c 0.23964,-6.66514 -0.98913,-10.95839 1.82567,-17.19871 3.4805,-7.71613 7.1292,-18.20996 9.33716,-26.33718 4.26569,-15.70148 1.64986,-29.99113 6.88337,-49.67856 l 19.10772,-10.55762 z"
         id="path4304-3"
         inkscape:connector-curvature="0"
         sodipodi:nodetypes="ccccccssccc" />
      <path
         inkscape:connector-curvature="0"
         id="path4363-7"
         d="m 544.55656,271.25118 3.16016,2.29687 -6.88867,5.44336 -11.42188,-6.19726 1.49414,-0.73829 z"
         style="fill:#f8ded8;fill-opacity:1;fill-rule:evenodd;stroke:none;stroke-width:3.39053px;stroke-linecap:butt;stroke-linejoin:miter;stroke-opacity:0" />
      <path
         style="fill:#fff9e9;fill-opacity:1;fill-rule:evenodd;stroke:none;stroke-width:3.4203px;stroke-linecap:butt;stroke-linejoin:miter;stroke-opacity:0"
         d="m 492.66627,329.54809 c 3.45459,-5.75829 19.84205,-1.63031 12.09977,13.26528 l -25.66194,39.64517 c -4.8531,11.64715 -19.68979,5.8399 -10.97282,-7.31686 z"
         id="path5201"
         inkscape:connector-curvature="0"
         inkscape:transform-center-x="15.619611"
         inkscape:transform-center-y="26.093448"
         sodipodi:nodetypes="ccccc" />
      <path
         style="fill:#fff9e9;fill-opacity:1;fill-rule:evenodd;stroke:none;stroke-width:3.12472px;stroke-linecap:butt;stroke-linejoin:miter;stroke-opacity:0"
         d="m 537.69979,274.53684 c -36.3292,0.44789 -72.5941,-9.65203 -77.4246,-21.11447 l -4.0246,-11.56601 c -7.7934,-14.87909 -12.5902,-30.44569 -16.7571,-46.4049 -8.7906,-43.44162 7.9453,-78.06671 30.3287,-92.53113 47.4596,-36.451631 128.9472,-29.861348 154.3712,29.11984 10.8741,29.58535 15.2857,53.31265 -5.13,99.8047 -9.9649,15.79909 -26.9604,30.11745 -81.3636,42.69197 z"
         id="path5163-7"
         inkscape:connector-curvature="0"
         sodipodi:nodetypes="cccccccc" />
      <path
         sodipodi:nodetypes="sssss"
         inkscape:connector-curvature="0"
         id="path4305-9-5"
         d="m 549.5272,224.16383 c 0.17875,9.59629 3.20482,17.6299 10.2108,18.14556 7.00589,0.51567 14.22023,-6.72631 15.15993,-16.27816 1.48942,-15.14036 -4.3527,-17.97543 -11.40965,-18.26545 -7.08359,-0.29109 -14.19002,4.11327 -13.96108,16.39805 z"
         style="opacity:1;fill:#506567;fill-opacity:1;stroke:none;stroke-width:10;stroke-linecap:round;stroke-linejoin:miter;stroke-miterlimit:4;stroke-dasharray:none;stroke-dashoffset:0;stroke-opacity:0" />
      <path
         sodipodi:nodetypes="cccccccccccc"
         inkscape:connector-curvature="0"
         id="path5838"
         d="m 573.10938,139.62695 -124.90626,84.06446 c 2.30948,6.15109 4.93034,12.214 8.04688,18.16406 l 4.02539,11.56641 c 2.53769,6.02176 13.75717,11.66561 29.09766,15.60351 12.85002,-42.33806 37.06681,-65.43667 64.64453,-99.34766 l 10.7832,-13.08007 5.30469,33.58593 c 12.90555,25.18562 17.25954,41.08044 16.49219,68.61133 14.30961,-6.73959 22.67665,-13.86273 28.52929,-21.3418 l -4.1875,-47.62304 z"
         style="fill:#f8ded8;fill-opacity:1;fill-rule:evenodd;stroke:none;stroke-width:1px;stroke-linecap:butt;stroke-linejoin:miter;stroke-opacity:0" />
      <path
         sodipodi:nodetypes="ccc"
         inkscape:connector-curvature="0"
         id="path4303-1-6"
         d="m 589.88558,220.58277 c -14.48135,-15.14282 -41.53357,-11.25632 -55.10482,-6.05141 6.34122,-15.10188 53.96398,-14.23454 55.10482,6.05141 z"
         style="fill:#506567;fill-opacity:1;fill-rule:evenodd;stroke:none;stroke-width:3.12472px;stroke-linecap:butt;stroke-linejoin:miter;stroke-opacity:0" />
      <path
         style="fill:#776f4e;fill-opacity:1;fill-rule:evenodd;stroke:none;stroke-width:2.29503px;stroke-linecap:butt;stroke-linejoin:miter;stroke-opacity:0"
         d="m 457.37689,238.79605 c 11.26164,-2.0829 19.06728,-1.34763 26.5266,3.97427 -1.6413,-8.282 -14.7844,-16.16318 -26.5266,-3.97427 z"
         id="path4359-2-9"
         inkscape:connector-curvature="0"
         sodipodi:nodetypes="ccc" />
      <path
         sodipodi:nodetypes="sccccccccccccccccccccccccccss"
         inkscape:connector-curvature="0"
         id="path5090"
         d="m 542.52734,73.667969 c -32.02364,0.265407 -71.44654,15.854694 -94.27148,40.250001 -15.92608,24.69364 -23.15946,47.27661 -22.41211,69.93945 -0.16672,-0.31082 -0.326,-0.61778 -0.49414,-0.92969 0.18591,0.95684 0.37185,1.81986 0.56055,2.74415 0.35878,6.92947 1.46759,13.87261 3.29882,20.89062 0.13661,8.8525 -2.70837,16.90549 -12.77343,26.15625 9.06412,-3.82788 14.30812,-8.30265 16.9082,-13.28516 10.03665,14.62303 10.38808,25.39053 13.43219,46.88871 3.35005,-7.38135 6.12974,-17.75705 7.60101,-35.00199 0.0935,13.59452 -0.54605,27.5556 4.06602,38.89085 l 2.65078,-24.74827 c -1.05753,8.72272 3.29202,18.62605 5.30469,28.99219 6.9497,-12.86186 9.63817,-17.21737 13.01953,-22.75196 l 2.82812,13.78711 c 9.69511,-36.04586 30.33904,-52.88884 57.27735,-76.36718 l 22.27344,-24.39453 c 17.06713,50.83754 40.76077,53.51345 24.04101,114.19726 4.3494,-9.89936 10.56011,-15.62313 15.28906,-25.34375 l -0.4082,17.54883 c 5.00948,-6.885 10.04679,-15.02493 12.19727,-23.0957 l 9.58398,3.16796 c 1.15959,-7.64618 3.52929,-15.1751 6.20312,-22.51757 0.12749,10.03344 2.48805,18.41727 8.05469,21.41211 -4.03045,-6.93611 -4.07746,-21.98883 -2.19726,-36.75782 9.36812,-24.49293 11.2083,-59.37488 3.25,-78.31054 -9.84471,-20.53731 -20.85575,-34.67989 -33.3418,-44.171878 -19.93632,-12.040746 -38.10107,-16.012388 -55.64258,-17.03711 -2.06203,-0.120457 -4.16392,-0.170037 -6.29883,-0.152343 z"
         style="fill:#506567;fill-opacity:1;fill-rule:evenodd;stroke:none;stroke-width:1px;stroke-linecap:butt;stroke-linejoin:miter;stroke-opacity:0" />
      <path
         sodipodi:nodetypes="cccc"
         inkscape:connector-curvature="0"
         id="path5088"
         d="m 528.41987,261.35055 c 1.98902,-5.2141 11.05041,1.06951 12.07779,3.97304 -4.04572,1.62054 -7.30037,1.35799 -11.43135,0.73743 z"
         style="fill:#e59886;fill-opacity:1;fill-rule:evenodd;stroke:none;stroke-width:1px;stroke-linecap:butt;stroke-linejoin:miter;stroke-opacity:0" />
      <path
         sodipodi:nodetypes="ccccc"
         inkscape:connector-curvature="0"
         id="path5824"
         d="m 499.22461,381.77539 0.36328,13.11133 c 12.63109,2.73801 21.41301,2.25069 27.74023,5.12109 l 2.61524,-14.07617 z"
         style="fill:#f8ded8;fill-opacity:1;fill-rule:evenodd;stroke:none;stroke-width:1px;stroke-linecap:butt;stroke-linejoin:miter;stroke-opacity:0" />
      <path
         sodipodi:nodetypes="ccccc"
         inkscape:connector-curvature="0"
         id="path5831"
         d="m 567.73438,387.1582 -32.0879,0.75782 1.98438,13.74414 c 15.4043,4.93733 20.65007,-3.95358 29.47461,-3.1211 z"
         style="fill:#f8ded8;fill-opacity:1;fill-rule:evenodd;stroke:none;stroke-width:1px;stroke-linecap:butt;stroke-linejoin:miter;stroke-opacity:0" />
      <path
         sodipodi:nodetypes="ccccccccccccccc"
         inkscape:connector-curvature="0"
         id="path5096"
         d="m 497.27284,368.72875 -0.55177,15.66511 17.69911,6.25521 15.53675,-1.05178 0.73057,-5.49628 3.4375,0.1875 1,6.25 16.52145,2.6901 17.60171,-4.21599 -0.0607,-17.28661 -1.9375,-13.75 -15.79145,5.93886 -34.83355,0.81114 -16.125,-4.375 z"
         style="fill:#506567;fill-opacity:1;fill-rule:evenodd;stroke:none;stroke-width:1px;stroke-linecap:butt;stroke-linejoin:miter;stroke-opacity:0" />
      <path
         sodipodi:nodetypes="ccccccc"
         inkscape:connector-curvature="0"
         id="path5795"
         d="m 497.81055,367.33594 -0.53711,1.39258 -0.4668,13.23828 c 8.14127,4.30717 14.22487,2.78425 21.09375,3.48632 12.49294,-2.53761 23.9457,-6.82419 35.32227,-12.30468 l 15.11523,-2.91797 z"
         style="fill:#475658;fill-opacity:1;fill-rule:evenodd;stroke:none;stroke-width:1px;stroke-linecap:butt;stroke-linejoin:miter;stroke-opacity:0" />
      <path
         id="path5802"
         d="m 521.90625,279.20703 c -2.02714,0.35858 -3.77042,1.52188 -4.80859,3.76953 -4.57887,8.75346 -7.85268,15.29615 -11.14454,21.73242 l 1.92188,14.89258 -2.33398,21.5293 c 0.0653,-0.15766 0.13633,-0.31902 0.19726,-0.47461 0.4452,-0.48484 0.83086,-1.04023 1.11914,-1.69336 l 19.0918,-29.66797 z"
         style="fill:#f8ded8;fill-opacity:1;fill-rule:evenodd;stroke:none;stroke-width:1px;stroke-linecap:butt;stroke-linejoin:miter;stroke-opacity:0"
         inkscape:connector-curvature="0" />
      <path
         id="path5810"
         d="m 559.08984,276.58594 c -0.4322,0.30803 -0.8658,0.65384 -1.29687,1.04883 l -0.004,0.004 -3.53906,4.83789 -1.31445,16.24414 13.52539,20.49024 0.10156,-1.98438 -6,-10.25 -2.875,-17.9375 1.40234,-12.45312 z"
         style="fill:#f8ded8;fill-opacity:1;fill-rule:evenodd;stroke:none;stroke-width:1px;stroke-linecap:butt;stroke-linejoin:miter;stroke-opacity:0"
         inkscape:connector-curvature="0" />
      <path
         sodipodi:nodetypes="cccccccccccccc"
         inkscape:connector-curvature="0"
         id="path5094"
         d="m 554.28333,272.20868 c -4.4074,8.79699 -12.38442,12.15711 -20.5061,17.05895 -4.57929,-5.24359 -7.05081,-6.73406 -6.8059,-13.34664 l -7.51301,3.53553 -12.08332,22.64449 c -0.0712,6.23784 4.95935,10.82113 6.875,11.625 -3.9477,24.3384 -13.01929,41.30787 -20.125,62.625 23.77235,10.5596 35.2083,3.39882 58.375,-4.875 H 569 c -0.35646,-14.16827 -3.11027,-27.71298 -8.75,-40.625 -0.52321,-10.02071 0.33656,-23.18883 1.25,-33.14537 l -5.375,-12.47963 4.125,-10.625 z"
         style="fill:#87aa7b;fill-opacity:1;fill-rule:evenodd;stroke:none;stroke-width:1px;stroke-linecap:butt;stroke-linejoin:miter;stroke-opacity:0" />
      <path
         id="path4938-9"
         d="m 570.35547,499.96289 -9.70703,2.11523 -1.02149,2.45118 -1.4707,5.10156 -1.53125,-7.50195 c 0,0 -1.85178,-0.21601 -2.93555,-0.35743 0.0132,0.2647 0.0265,0.52518 0.0391,0.78711 0.37923,4.2225 0.78198,8.44549 1.30468,12.67969 l 15.36524,-0.70508 c -0.10975,-4.73756 -0.0981,-9.62682 -0.043,-14.57031 z"
         style="fill:#f8ded8;fill-opacity:1;fill-rule:evenodd;stroke:none;stroke-width:1px;stroke-linecap:butt;stroke-linejoin:miter;stroke-opacity:0"
         inkscape:connector-curvature="0" />
      <path
         sodipodi:nodetypes="cccccccccccccccc"
         inkscape:connector-curvature="0"
         id="path4628-1"
         d="m 550.98958,502.92949 4.68865,-1.52951 1.1069,8.21978 1.72983,3.31231 2.64776,-4.76236 -0.74865,-4.22563 2.03272,-3.28009 10.90261,-0.11429 c -1.9602,4.8916 -1.49674,7.7878 0.0354,12.66788 l -0.50677,2.33798 1.80939,3.62328 c -0.5326,8.69945 -2.55417,10.75914 -7.92176,12.37187 -8.20602,1.89361 -12.99489,-0.12437 -16.38079,-1.10176 -3.02824,-4.22534 -1.35486,-9.55575 1.83493,-10.60732 2.17418,-6.82202 -0.31899,-11.70064 -1.2302,-16.91175 z"
         style="fill:#666666;fill-opacity:1;fill-rule:evenodd;stroke:none;stroke-width:1px;stroke-linecap:butt;stroke-linejoin:miter;stroke-opacity:0" />
      <path
         id="path4944-7"
         d="m 532.32422,493.91992 -9.88086,2.18164 -1.33984,4.19141 -1.41407,-4.17188 -3.15429,0.041 c 0.9378,3.9127 1.95592,7.8881 3.14062,11.99414 -3.2e-4,0.0504 0.004,0.0965 0.004,0.14648 l 14.19336,-2.72851 c -0.10235,-0.79973 -0.18482,-1.63184 -0.2793,-2.44531 -0.49247,-2.9522 -0.90083,-6.04383 -1.26953,-9.20899 z"
         style="fill:#f8ded8;fill-opacity:1;fill-rule:evenodd;stroke:none;stroke-width:1px;stroke-linecap:butt;stroke-linejoin:miter;stroke-opacity:0"
         inkscape:connector-curvature="0" />
      <path
         sodipodi:nodetypes="cccccccccccc"
         inkscape:connector-curvature="0"
         id="path4630-1"
         d="m 511.58125,497.06249 7.72338,-0.50689 1.35991,6.22397 3.00418,-6.70304 11.67764,-2.76114 -0.32855,7.23285 2.68792,6.94893 c 0.0399,3.55064 1.18013,6.4415 0.15245,9.26628 -4.97677,5.71272 -14.70355,9.03507 -19.61025,6.02586 -3.44344,-4.6723 -3.74799,-5.60459 -1.0997,-10.45583 1.0989,-4.58266 -0.74541,-6.75881 -3.05458,-10.58982 z"
         style="fill:#666666;fill-opacity:1;fill-rule:evenodd;stroke:none;stroke-width:1px;stroke-linecap:butt;stroke-linejoin:miter;stroke-opacity:0" />
      <path
         sodipodi:nodetypes="cccccccc"
         inkscape:connector-curvature="0"
         id="path4632-1"
         d="m 573.89513,517.59233 0.79156,1.58616 c -0.53259,8.69945 -2.55318,10.75927 -7.92087,12.372 -8.20592,1.89361 -12.99504,-0.12347 -16.38095,-1.10078 -3.01698,-4.20959 -1.36577,-9.51292 1.80084,-10.59228 2.94552,-0.12262 5.87817,1.08416 8.35647,2.14832 3.47067,1.50697 4.96946,3.22493 5.62661,7.94831 7.84609,-0.84267 6.87896,-6.20396 7.72634,-12.36173 z"
         style="fill:#ffffff;fill-opacity:1;fill-rule:evenodd;stroke:none;stroke-width:1px;stroke-linecap:butt;stroke-linejoin:miter;stroke-opacity:0" />
      <path
         sodipodi:nodetypes="ccccccc"
         inkscape:connector-curvature="0"
         id="path4637-5"
         d="m 516.09707,514.45256 c -1.37563,3.123 -0.71557,4.4477 2.15042,8.33646 4.9067,3.00921 14.6337,-0.31222 19.61048,-6.02495 0.17809,-0.48944 0.2734,-0.98331 0.33832,-1.47978 -2.12298,2.97627 -4.84339,4.07643 -8.04686,5.5543 -0.62461,-3.64349 -2.44571,-5.4235 -5.5578,-6.59416 -2.84733,-1.04966 -5.79267,-1.0346 -8.49466,0.20814 z"
         style="fill:#ffffff;fill-opacity:1;fill-rule:evenodd;stroke:none;stroke-width:1px;stroke-linecap:butt;stroke-linejoin:miter;stroke-opacity:0" />
      <path
         sodipodi:nodetypes="ccccc"
         inkscape:connector-curvature="0"
         id="path4642-7"
         d="m 496.2592,382.95321 c 14.2608,9.11535 24.0071,6.82556 34.7167,5.1353 l -0.1605,2.35368 c -16.425,2.92036 -24.0024,2.35191 -35.0912,-5.34927 z"
         style="fill:#ffffff;fill-opacity:1;fill-rule:evenodd;stroke:none;stroke-width:1px;stroke-linecap:butt;stroke-linejoin:miter;stroke-opacity:0" />
      <path
         sodipodi:nodetypes="ccccc"
         inkscape:connector-curvature="0"
         id="path4642-5-6"
         d="m 534.81748,389.61882 c 16.4582,5.54985 24.45934,1.82855 34.78154,-2.29129 l -0.2419,2.36025 c -15.7524,6.63697 -21.62074,7.0433 -34.56464,2.13237 z"
         style="fill:#ffffff;fill-opacity:1;fill-rule:evenodd;stroke:none;stroke-width:1.01373px;stroke-linecap:butt;stroke-linejoin:miter;stroke-opacity:0" />
      <path
         sodipodi:nodetypes="ccc"
         inkscape:connector-curvature="0"
         id="path4548-3"
         d="m 564.71994,164.13829 c 13.03339,29.71279 25.79281,55.3759 60.25157,55.36692 -31.90998,-10.79166 -41.48882,-28.75485 -60.25157,-55.36692 z"
         style="fill:#e59886;fill-opacity:1;fill-rule:evenodd;stroke:none;stroke-width:1px;stroke-linecap:butt;stroke-linejoin:miter;stroke-opacity:0" />
      <path
         id="path5785"
         d="m 553.57617,297.57617 -14.9375,4.94922 -5.48047,1.32617 -22.18554,-2.29883 -3.58789,0.78516 c 0.0579,6.11524 4.97422,10.59514 6.86523,11.38867 -1.37724,8.49095 -3.38552,16.07484 -5.70898,23.26953 l 20.99414,-17.41211 -7.42578,0.53125 11.49023,-8.83984 18.82812,0.17773 8.38868,-5.32421 c 0.20498,-2.89688 0.4359,-5.68789 0.67187,-8.26953 z"
         style="fill:#7b9971;fill-opacity:1;fill-rule:evenodd;stroke:none;stroke-width:1px;stroke-linecap:butt;stroke-linejoin:miter;stroke-opacity:0"
         inkscape:connector-curvature="0" />
      <path
         sodipodi:nodetypes="cccccccc"
         inkscape:connector-curvature="0"
         id="path5790"
         d="m 525.375,349.47656 c -10.37548,9.0485 -24.43105,13.70476 -30.50391,27.19336 11.77486,5.1004 20.52748,5.80673 29.26563,4.19336 l 7.97724,-9.13672 -15.49892,4.46339 10.24156,-12.78814 -17.854,10.51041 z"
         style="fill:#7b9971;fill-opacity:1;fill-rule:evenodd;stroke:none;stroke-width:1px;stroke-linecap:butt;stroke-linejoin:miter;stroke-opacity:0" />
    </g>
  </g>
</svg>
