<?xml version="1.0" encoding="UTF-8" standalone="no"?>
<!-- Created with Inkscape (http://www.inkscape.org/) -->

<svg
   xmlns:dc="http://purl.org/dc/elements/1.1/"
   xmlns:cc="http://creativecommons.org/ns#"
   xmlns:rdf="http://www.w3.org/1999/02/22-rdf-syntax-ns#"
   xmlns:svg="http://www.w3.org/2000/svg"
   xmlns="http://www.w3.org/2000/svg"
   xmlns:sodipodi="http://sodipodi.sourceforge.net/DTD/sodipodi-0.dtd"
   xmlns:inkscape="http://www.inkscape.org/namespaces/inkscape"
   version="1.1"
   id="svg5994"
   xml:space="preserve"
   width="677.33331"
   height="806.66663"
   viewBox="0 0 677.33332 806.66662"
   sodipodi:docname="sprites.svg"
   inkscape:version="0.92.4 (5da689c313, 2019-01-14)"><metadata
     id="metadata6000"><rdf:RDF><cc:Work
         rdf:about=""><dc:format>image/svg+xml</dc:format><dc:type
           rdf:resource="http://purl.org/dc/dcmitype/StillImage" /><dc:title></dc:title></cc:Work></rdf:RDF></metadata><defs
     id="defs5998"><clipPath
       clipPathUnits="userSpaceOnUse"
       id="clipPath6012"><path
         d="M 0,0.851563 H 5080 V 6050.8516 H 0 Z"
         id="path6010"
         inkscape:connector-curvature="0" /></clipPath></defs><sodipodi:namedview
     pagecolor="#ffffff"
     bordercolor="#666666"
     borderopacity="1"
     objecttolerance="10"
     gridtolerance="10"
     guidetolerance="10"
     inkscape:pageopacity="0"
     inkscape:pageshadow="2"
     inkscape:window-width="1920"
     inkscape:window-height="1136"
     id="namedview5996"
     showgrid="false"
     inkscape:zoom="1.1130575"
     inkscape:cx="338.85333"
     inkscape:cy="403.27979"
     inkscape:window-x="0"
     inkscape:window-y="36"
     inkscape:window-maximized="1"
     inkscape:current-layer="g6002" /><g
     id="g6002"
     inkscape:groupmode="layer"
     inkscape:label="ink_ext_XXXXXX"
     transform="matrix(1.3333333,0,0,-1.3333333,0,806.78019)"><g
       id="g6004"
       transform="matrix(-0.1,0,0,0.1,508,0)"><g
         id="g6006"><g
           id="g6008"
           clip-path="url(#clipPath6012)"><path
             d="m 2705.1,3813.04 c 0,0 -141.46,-1129.21 -520.91,-1280.31 l 615.88,-498.84 c 0,0 1078.87,309.95 891.41,1044.21 -35.78,140.01 -986.38,734.94 -986.38,734.94"
             style="fill:#e95846;fill-opacity:1;fill-rule:nonzero;stroke:none"
             id="path6014"
             inkscape:connector-curvature="0" /><path
             d="m 3198.9,1376.23 c 0,0 421.96,-427.832 804.74,-325.9 0,0 -536.3,-621.4 -959.48,-472.951 L 2930.13,755.68 c 0,0 75.13,42.8 268.77,620.55"
             style="fill:#e84136;fill-opacity:1;fill-rule:nonzero;stroke:none"
             id="path6016"
             inkscape:connector-curvature="0" /><path
             d="M 1860.25,2643.14 1213.04,2472 l 351.14,-804.99 -37.16,715.9 380.26,97.12 82.99,-334.14 c 0,0 412.64,132.99 373.15,115.75 -39.6,-17.21 -90.88,-372.67 -90.88,-372.67 l 273.4,169.92 c 0,0 -24.28,-408.91 29.12,-381.99 53.38,27.02 293.63,214.98 293.63,214.98 0,0 -36.27,-264.04 18.93,-296.2 157.45,-91.75 710.88,639.98 -1027.37,1047.46"
             style="fill:#e95846;fill-opacity:1;fill-rule:nonzero;stroke:none"
             id="path6018"
             inkscape:connector-curvature="0" /><path
             d="m 3656.33,3104.39 c 0,0 -194.72,-1039.98 -811.02,-1006.23 l 402.62,-464.59 c 0,0 928.87,28.72 924.25,819.57 -0.8,128.94 -255.87,337.36 -515.85,651.25"
             style="fill:#e82b2e;fill-opacity:1;fill-rule:nonzero;stroke:none"
             id="path6020"
             inkscape:connector-curvature="0" /><path
             d="m 3224.17,1695.71 c 0,0 734.15,-70.57 918.78,759.36 0,0 303.72,-856.06 -169.51,-1464.359 0,0 -435.37,-56.039 -804.77,325.939 l 18.03,373.62"
             style="fill:#e95846;fill-opacity:1;fill-rule:nonzero;stroke:none"
             id="path6022"
             inkscape:connector-curvature="0" /><path
             d="M 3105.96,599.852 2921.3,790.75 c 0,0 -553.22,305.43 -1024.35,49.152 0,0 357.61,-379.863 655.78,-275.113 0,0 -308.26,-297.348 -112.6,-563.19916 0,0 376.92,-67.26954 665.83,598.26216"
             style="fill:#e84136;fill-opacity:1;fill-rule:nonzero;stroke:none"
             id="path6024"
             inkscape:connector-curvature="0" /><path
             d="m 2760.21,3746.47 c 0,0 -188.79,-818.37 -365.18,-1020.74 -176.37,-202.28 450.28,-627.57 450.28,-627.57 0,0 512.11,188.98 735.85,1071.51 0,0 -536.09,509.49 -820.95,576.8"
             style="fill:#efccbd;fill-opacity:1;fill-rule:nonzero;stroke:none"
             id="path6026"
             inkscape:connector-curvature="0" /><path
             d="m 4144.59,2301.22 c 0,0 -273.4,-792.54 -933.42,-608.71 0,0 -136.48,-288.79 82.8,-460.25 219.3,-171.35 608.25,-200.06 734.35,12.59 126.11,212.66 181.92,765.38 116.27,1056.37"
             style="fill:#efccbd;fill-opacity:1;fill-rule:nonzero;stroke:none"
             id="path6028"
             inkscape:connector-curvature="0" /><path
             d="M 1455.19,3912.17 0,3345.23 338.945,3144.77 166.902,3061.06 c 0,0 2369.358,-1084.28 2761.318,-174.95 392.04,909.32 -528.36,1238.91 -1473.03,1026.06"
             style="fill:#e82b2e;fill-opacity:1;fill-rule:nonzero;stroke:none"
             id="path6030"
             inkscape:connector-curvature="0" /><path
             d="m 2100.81,3396.53 c -47.16,-263.93 -217.92,-454.21 -381.49,-425.02 -163.49,29.13 -257.89,266.76 -210.74,530.77 47.05,263.82 217.88,454.23 381.39,425 163.49,-29.22 257.86,-266.84 210.84,-530.75"
             style="fill:#ffffff;fill-opacity:1;fill-rule:nonzero;stroke:none"
             id="path6032"
             inkscape:connector-curvature="0" /><path
             d="m 2107.05,3491.9 c -29.72,-166.4 -130.58,-287.59 -225.25,-270.64 -94.7,16.8 -147.27,165.39 -117.55,331.8 29.71,166.4 130.45,287.58 225.13,270.76 94.68,-16.92 147.39,-165.49 117.67,-331.92"
             style="fill:#231f20;fill-opacity:1;fill-rule:nonzero;stroke:none"
             id="path6034"
             inkscape:connector-curvature="0" /><path
             d="m 1579.41,2932.94 c 0,0 -8.97,-491.78 -671.414,-220.49 0,0 451.004,-129.15 671.414,220.49"
             style="fill:#882525;fill-opacity:1;fill-rule:nonzero;stroke:none"
             id="path6036"
             inkscape:connector-curvature="0" /><path
             d="m 1384.59,3952.28 c 0,0 -787.149,1513.91 374.7,1962.89 1161.89,448.91 3290.57,-222.79 3323.51,-1808.77 0,0 -184.83,1892.67 -2585.21,1859.27 -1687.199,-23.48 -1279.63,-1448.9 -1113,-2013.39"
             style="fill:#ea272d;fill-opacity:1;fill-rule:nonzero;stroke:none"
             id="path6038"
             inkscape:connector-curvature="0" /></g></g></g></g></svg>