<?xml version="1.0" encoding="UTF-8" standalone="no"?>
<svg
   xmlns:dc="http://purl.org/dc/elements/1.1/"
   xmlns:cc="http://creativecommons.org/ns#"
   xmlns:rdf="http://www.w3.org/1999/02/22-rdf-syntax-ns#"
   xmlns:svg="http://www.w3.org/2000/svg"
   xmlns="http://www.w3.org/2000/svg"
   xmlns:sodipodi="http://sodipodi.sourceforge.net/DTD/sodipodi-0.dtd"
   xmlns:inkscape="http://www.inkscape.org/namespaces/inkscape"
   id="svg2"
   height="462.10483"
   width="242.22656"
   version="1"
   sodipodi:docname="INTJ-girl.svg"
   inkscape:version="1.0.2 (e86c870879, 2021-01-15)">
  <metadata
     id="metadata284">
    <rdf:RDF>
      <cc:Work
         rdf:about="">
        <dc:format>image/svg+xml</dc:format>
        <dc:type
           rdf:resource="http://purl.org/dc/dcmitype/StillImage" />
        <dc:title>Inkscape Logo</dc:title>
      </cc:Work>
    </rdf:RDF>
  </metadata>
  <defs
     id="defs282" />
  <sodipodi:namedview
     pagecolor="#ffffff"
     bordercolor="#666666"
     borderopacity="1"
     objecttolerance="10"
     gridtolerance="10"
     guidetolerance="10"
     inkscape:pageopacity="0"
     inkscape:pageshadow="2"
     inkscape:window-width="1646"
     inkscape:window-height="1091"
     id="namedview280"
     showgrid="false"
     inkscape:zoom="1.3067132"
     inkscape:cx="-58.320011"
     inkscape:cy="207.22185"
     inkscape:window-x="0"
     inkscape:window-y="36"
     inkscape:window-maximized="0"
     inkscape:current-layer="svg2" />
  <title
     id="title7387">Inkscape Logo</title>
  <style
     id="style26">.specularity{opacity:.5}.low-specularity{opacity:.25}.full-specularity{opacity:1}.black{fill:#000}.white{fill:#fff}.outline-big{stroke-width:16;stroke:none;opacity:.1;fill:none}.outline-small{stroke-width:8}.outline-small,.stroke-highlight{fill:none;stroke:none;opacity:.2}.base-shadow{fill:#000;opacity:75}</style>
  <path
     id="path5559"
     d="m 217.36657,122.61186 c 1.976,41.768 -4.591,79.938 -10.725,120.96 l -6.554,-35.453 -7.15,21.748 -5.959,-25.026 -9.236,21.45 -5.958,-15.492 -7.645,24.061 -25.127,-32.403 h -26.32 l -7.163,30.968 -12.100004,-30.968 -2.979,22.046 -21.45,-32.772 -8.939,11.321 -11.32,-30.984 -5.363,19.067 -11.917,-35.155 6.554,-49.455 c 0,0 70.906004,-44.093005 70.906004,-41.709005 0,2.383 101.29,35.155 101.29,35.155 z"
     stroke-opacity="0"
     fill-rule="evenodd"
     fill="#6c224f" />
  <ellipse
     id="ellipse5578"
     style="isolation:auto;mix-blend-mode:normal"
     stroke-opacity="0"
     fill-opacity="0.104"
     cx="-117.36654"
     rx="99.858002"
     ry="16.643"
     cy="445.46182"
     stroke-linecap="round"
     overflow="visible"
     stroke-width="10"
     transform="scale(-1,1)" />
  <style
     id="style26-0">.specularity{opacity:.5}.low-specularity{opacity:.25}.full-specularity{opacity:1}.black{fill:#000}.white{fill:#fff}.outline-big{stroke-width:16;stroke:none;opacity:.1;fill:none}.outline-small{stroke-width:8}.outline-small,.stroke-highlight{fill:none;stroke:none;opacity:.2}.base-shadow{fill:#000;opacity:75}</style>
  <style
     id="style26-1">.specularity{opacity:.5}.low-specularity{opacity:.25}.full-specularity{opacity:1}.black{fill:#000}.white{fill:#fff}.outline-big{stroke-width:16;stroke:none;opacity:.1;fill:none}.outline-small{stroke-width:8}.outline-small,.stroke-highlight{fill:none;stroke:none;opacity:.2}.base-shadow{fill:#000;opacity:75}</style>
  <style
     id="style26-8">.specularity{opacity:.5}.low-specularity{opacity:.25}.full-specularity{opacity:1}.black{fill:#000}.white{fill:#fff}.outline-big{stroke-width:16;stroke:none;opacity:.1;fill:none}.outline-small{stroke-width:8}.outline-small,.stroke-highlight{fill:none;stroke:none;opacity:.2}.base-shadow{fill:#000;opacity:75}</style>
  <style
     id="style26-2">.specularity{opacity:.5}.low-specularity{opacity:.25}.full-specularity{opacity:1}.black{fill:#000}.white{fill:#fff}.outline-big{stroke-width:16;stroke:none;opacity:.1;fill:none}.outline-small{stroke-width:8}.outline-small,.stroke-highlight{fill:none;stroke:none;opacity:.2}.base-shadow{fill:#000;opacity:75}</style>
  <style
     id="style26-28">.specularity{opacity:.5}.low-specularity{opacity:.25}.full-specularity{opacity:1}.black{fill:#000}.white{fill:#fff}.outline-big{stroke-width:16;stroke:none;opacity:.1;fill:none}.outline-small{stroke-width:8}.outline-small,.stroke-highlight{fill:none;stroke:none;opacity:.2}.base-shadow{fill:#000;opacity:75}</style>
  <style
     id="style26-1-5">.specularity{opacity:.5}.low-specularity{opacity:.25}.full-specularity{opacity:1}.black{fill:#000}.white{fill:#fff}.outline-big{stroke-width:16;stroke:none;opacity:.1;fill:none}.outline-small{stroke-width:8}.outline-small,.stroke-highlight{fill:none;stroke:none;opacity:.2}.base-shadow{fill:#000;opacity:75}</style>
  <style
     id="style26-3">.specularity{opacity:.5}.low-specularity{opacity:.25}.full-specularity{opacity:1}.black{fill:#000}.white{fill:#fff}.outline-big{stroke-width:16;stroke:none;opacity:.1;fill:none}.outline-small{stroke-width:8}.outline-small,.stroke-highlight{fill:none;stroke:none;opacity:.2}.base-shadow{fill:#000;opacity:75}</style>
  <style
     id="style26-0-6">.specularity{opacity:.5}.low-specularity{opacity:.25}.full-specularity{opacity:1}.black{fill:#000}.white{fill:#fff}.outline-big{stroke-width:16;stroke:none;opacity:.1;fill:none}.outline-small{stroke-width:8}.outline-small,.stroke-highlight{fill:none;stroke:none;opacity:.2}.base-shadow{fill:#000;opacity:75}</style>
  <style
     id="style26-1-56">.specularity{opacity:.5}.low-specularity{opacity:.25}.full-specularity{opacity:1}.black{fill:#000}.white{fill:#fff}.outline-big{stroke-width:16;stroke:none;opacity:.1;fill:none}.outline-small{stroke-width:8}.outline-small,.stroke-highlight{fill:none;stroke:none;opacity:.2}.base-shadow{fill:#000;opacity:75}</style>
  <style
     id="style26-8-9">.specularity{opacity:.5}.low-specularity{opacity:.25}.full-specularity{opacity:1}.black{fill:#000}.white{fill:#fff}.outline-big{stroke-width:16;stroke:none;opacity:.1;fill:none}.outline-small{stroke-width:8}.outline-small,.stroke-highlight{fill:none;stroke:none;opacity:.2}.base-shadow{fill:#000;opacity:75}</style>
  <style
     id="style26-2-3">.specularity{opacity:.5}.low-specularity{opacity:.25}.full-specularity{opacity:1}.black{fill:#000}.white{fill:#fff}.outline-big{stroke-width:16;stroke:none;opacity:.1;fill:none}.outline-small{stroke-width:8}.outline-small,.stroke-highlight{fill:none;stroke:none;opacity:.2}.base-shadow{fill:#000;opacity:75}</style>
  <style
     id="style26-81">.specularity{opacity:.5}.low-specularity{opacity:.25}.full-specularity{opacity:1}.black{fill:#000}.white{fill:#fff}.outline-big{stroke-width:16;stroke:none;opacity:.1;fill:none}.outline-small{stroke-width:8}.outline-small,.stroke-highlight{fill:none;stroke:none;opacity:.2}.base-shadow{fill:#000;opacity:75}</style>
  <style
     id="style26-1-561">.specularity{opacity:.5}.low-specularity{opacity:.25}.full-specularity{opacity:1}.black{fill:#000}.white{fill:#fff}.outline-big{stroke-width:16;stroke:none;opacity:.1;fill:none}.outline-small{stroke-width:8}.outline-small,.stroke-highlight{fill:none;stroke:none;opacity:.2}.base-shadow{fill:#000;opacity:75}</style>
  <style
     id="style26-32">.specularity{opacity:.5}.low-specularity{opacity:.25}.full-specularity{opacity:1}.black{fill:#000}.white{fill:#fff}.outline-big{stroke-width:16;stroke:none;opacity:.1;fill:none}.outline-small{stroke-width:8}.outline-small,.stroke-highlight{fill:none;stroke:none;opacity:.2}.base-shadow{fill:#000;opacity:75}</style>
  <style
     id="style26-0-2">.specularity{opacity:.5}.low-specularity{opacity:.25}.full-specularity{opacity:1}.black{fill:#000}.white{fill:#fff}.outline-big{stroke-width:16;stroke:none;opacity:.1;fill:none}.outline-small{stroke-width:8}.outline-small,.stroke-highlight{fill:none;stroke:none;opacity:.2}.base-shadow{fill:#000;opacity:75}</style>
  <style
     id="style26-1-54">.specularity{opacity:.5}.low-specularity{opacity:.25}.full-specularity{opacity:1}.black{fill:#000}.white{fill:#fff}.outline-big{stroke-width:16;stroke:none;opacity:.1;fill:none}.outline-small{stroke-width:8}.outline-small,.stroke-highlight{fill:none;stroke:none;opacity:.2}.base-shadow{fill:#000;opacity:75}</style>
  <style
     id="style26-8-7">.specularity{opacity:.5}.low-specularity{opacity:.25}.full-specularity{opacity:1}.black{fill:#000}.white{fill:#fff}.outline-big{stroke-width:16;stroke:none;opacity:.1;fill:none}.outline-small{stroke-width:8}.outline-small,.stroke-highlight{fill:none;stroke:none;opacity:.2}.base-shadow{fill:#000;opacity:75}</style>
  <style
     id="style26-2-4">.specularity{opacity:.5}.low-specularity{opacity:.25}.full-specularity{opacity:1}.black{fill:#000}.white{fill:#fff}.outline-big{stroke-width:16;stroke:none;opacity:.1;fill:none}.outline-small{stroke-width:8}.outline-small,.stroke-highlight{fill:none;stroke:none;opacity:.2}.base-shadow{fill:#000;opacity:75}</style>
  <style
     id="style26-30">.specularity{opacity:.5}.low-specularity{opacity:.25}.full-specularity{opacity:1}.black{fill:#000}.white{fill:#fff}.outline-big{stroke-width:16;stroke:none;opacity:.1;fill:none}.outline-small{stroke-width:8}.outline-small,.stroke-highlight{fill:none;stroke:none;opacity:.2}.base-shadow{fill:#000;opacity:75}</style>
  <style
     id="style26-0-7">.specularity{opacity:.5}.low-specularity{opacity:.25}.full-specularity{opacity:1}.black{fill:#000}.white{fill:#fff}.outline-big{stroke-width:16;stroke:none;opacity:.1;fill:none}.outline-small{stroke-width:8}.outline-small,.stroke-highlight{fill:none;stroke:none;opacity:.2}.base-shadow{fill:#000;opacity:75}</style>
  <style
     id="style26-1-7">.specularity{opacity:.5}.low-specularity{opacity:.25}.full-specularity{opacity:1}.black{fill:#000}.white{fill:#fff}.outline-big{stroke-width:16;stroke:none;opacity:.1;fill:none}.outline-small{stroke-width:8}.outline-small,.stroke-highlight{fill:none;stroke:none;opacity:.2}.base-shadow{fill:#000;opacity:75}</style>
  <style
     id="style26-8-5">.specularity{opacity:.5}.low-specularity{opacity:.25}.full-specularity{opacity:1}.black{fill:#000}.white{fill:#fff}.outline-big{stroke-width:16;stroke:none;opacity:.1;fill:none}.outline-small{stroke-width:8}.outline-small,.stroke-highlight{fill:none;stroke:none;opacity:.2}.base-shadow{fill:#000;opacity:75}</style>
  <style
     id="style26-2-48">.specularity{opacity:.5}.low-specularity{opacity:.25}.full-specularity{opacity:1}.black{fill:#000}.white{fill:#fff}.outline-big{stroke-width:16;stroke:none;opacity:.1;fill:none}.outline-small{stroke-width:8}.outline-small,.stroke-highlight{fill:none;stroke:none;opacity:.2}.base-shadow{fill:#000;opacity:75}</style>
  <style
     id="style26-28-7">.specularity{opacity:.5}.low-specularity{opacity:.25}.full-specularity{opacity:1}.black{fill:#000}.white{fill:#fff}.outline-big{stroke-width:16;stroke:none;opacity:.1;fill:none}.outline-small{stroke-width:8}.outline-small,.stroke-highlight{fill:none;stroke:none;opacity:.2}.base-shadow{fill:#000;opacity:75}</style>
  <style
     id="style26-1-5-2">.specularity{opacity:.5}.low-specularity{opacity:.25}.full-specularity{opacity:1}.black{fill:#000}.white{fill:#fff}.outline-big{stroke-width:16;stroke:none;opacity:.1;fill:none}.outline-small{stroke-width:8}.outline-small,.stroke-highlight{fill:none;stroke:none;opacity:.2}.base-shadow{fill:#000;opacity:75}</style>
  <style
     id="style26-3-0">.specularity{opacity:.5}.low-specularity{opacity:.25}.full-specularity{opacity:1}.black{fill:#000}.white{fill:#fff}.outline-big{stroke-width:16;stroke:none;opacity:.1;fill:none}.outline-small{stroke-width:8}.outline-small,.stroke-highlight{fill:none;stroke:none;opacity:.2}.base-shadow{fill:#000;opacity:75}</style>
  <style
     id="style26-0-6-3">.specularity{opacity:.5}.low-specularity{opacity:.25}.full-specularity{opacity:1}.black{fill:#000}.white{fill:#fff}.outline-big{stroke-width:16;stroke:none;opacity:.1;fill:none}.outline-small{stroke-width:8}.outline-small,.stroke-highlight{fill:none;stroke:none;opacity:.2}.base-shadow{fill:#000;opacity:75}</style>
  <style
     id="style26-1-56-4">.specularity{opacity:.5}.low-specularity{opacity:.25}.full-specularity{opacity:1}.black{fill:#000}.white{fill:#fff}.outline-big{stroke-width:16;stroke:none;opacity:.1;fill:none}.outline-small{stroke-width:8}.outline-small,.stroke-highlight{fill:none;stroke:none;opacity:.2}.base-shadow{fill:#000;opacity:75}</style>
  <style
     id="style26-8-9-0">.specularity{opacity:.5}.low-specularity{opacity:.25}.full-specularity{opacity:1}.black{fill:#000}.white{fill:#fff}.outline-big{stroke-width:16;stroke:none;opacity:.1;fill:none}.outline-small{stroke-width:8}.outline-small,.stroke-highlight{fill:none;stroke:none;opacity:.2}.base-shadow{fill:#000;opacity:75}</style>
  <style
     id="style26-2-3-3">.specularity{opacity:.5}.low-specularity{opacity:.25}.full-specularity{opacity:1}.black{fill:#000}.white{fill:#fff}.outline-big{stroke-width:16;stroke:none;opacity:.1;fill:none}.outline-small{stroke-width:8}.outline-small,.stroke-highlight{fill:none;stroke:none;opacity:.2}.base-shadow{fill:#000;opacity:75}</style>
  <style
     id="style26-81-6">.specularity{opacity:.5}.low-specularity{opacity:.25}.full-specularity{opacity:1}.black{fill:#000}.white{fill:#fff}.outline-big{stroke-width:16;stroke:none;opacity:.1;fill:none}.outline-small{stroke-width:8}.outline-small,.stroke-highlight{fill:none;stroke:none;opacity:.2}.base-shadow{fill:#000;opacity:75}</style>
  <style
     id="style26-1-561-0">.specularity{opacity:.5}.low-specularity{opacity:.25}.full-specularity{opacity:1}.black{fill:#000}.white{fill:#fff}.outline-big{stroke-width:16;stroke:none;opacity:.1;fill:none}.outline-small{stroke-width:8}.outline-small,.stroke-highlight{fill:none;stroke:none;opacity:.2}.base-shadow{fill:#000;opacity:75}</style>
  <g
     stroke-opacity="0"
     fill-rule="evenodd"
     id="g65"
     transform="matrix(-1,0,0,1,647.56657,-74.018145)">
    <path
       id="path5183-3-4"
       d="m 505.58,363.83 -1.13,63.535 2.4,84.152 c -0.977,4.705 -8.217,12.571 -17.732,3.337 l -5.758,-79.356 -5.069,-59.019 c -2.098,-18.963 24.826,-33.404 27.039,-13.4 z"
       fill="#f8e0d9" />
    <path
       id="path5237-9-7"
       d="m 538.55,370.38 5.86,61.695 c 11.082,17.703 11.27,52.776 16.059,80.364 0.353,9.247 -12.893,12.772 -16.355,0.43 -2.617,-16.165 -7.471,-48.75 -20.51,-73.63 l -22.555,-59.817 c -2.93,-18.852 34.411,-28.93 37.501,-9.042 z"
       fill="#fff9e9" />
    <path
       id="path5175-6-4"
       d="m 457.68,324.16 c -10.392,12.377 -11.758,15.863 -18.897,25.683 -6.103,7.814 2.933,14.255 7.878,7.915 l 22.516,-22.336 c 8.237,-6.886 -4.846,-19.294 -11.497,-11.261 z"
       fill="#f8e0d9" />
    <path
       id="path5179-7-0"
       d="m 507.36,294.06 -29.89,31.896 -6.334,7.658 c -7.791,9.547 -20.681,-2.261 -15.344,-7.137 l 31.063,-38.787 c 5.027,-7.062 28.014,-4.265 20.505,6.37 z"
       fill="#f8e0d9" />
    <path
       id="path4304-3-8"
       d="m 531.62,275.08 7.723,4.106 c -3.45,25.54 -10.959,45.784 -4.413,59.8 5.144,8.966 9.467,28.35 2.382,38.962 l -30.274,12.315 -28.264,-15.74 c 4.857,-20.338 3.643,-36.387 6.304,-43.679 l 4.6,-15.881 -8.345,-17.503 13.29,-17.723 8.224,-3.761 z"
       fill="#fff9e9" />
    <path
       id="path4363-7-6"
       d="m 505.55,283.47 12.899,-4.627 1.639,-3.247 0.559,-1.972 -10.71,-1.824 -3.136,-1.704 -1.315,5.794 z"
       fill="#f8ded8" />
  </g>
  <g
     fill-rule="evenodd"
     stroke-opacity="0"
     id="g70"
     transform="matrix(-1,0,0,1,647.56657,-74.018145)">
    <path
       id="path4993"
       d="m 493.16,279.66 -12.85,14.22 -40.658,52.455 c -2.09,7.938 -0.472,10.193 7.057,12.324 l 6.53,-5.267 20.119,-20.54 20.224,-21.382 4.53,-23.489 -4.53,-8.215 z"
       fill="#485b5d" />
    <path
       id="path4680"
       d="m 541.66,403.12 -27.99,9.79 4.02,10.65 c 14.51,-2.59 14.68,-2.91 24.63,-13.4 z"
       fill="#f8e0d9" />
    <path
       id="path4572"
       d="M 476.98,379.41 474,416.502 c 17.832,3.631 30.796,1.224 46.666,-2.201 8.025,-1.756 15.547,-4.192 23.347,-9.865 l -2.682,-28.899 -0.297,-21.302 -61.074,3.426 z"
       fill="#485b5d" />
  </g>
  <path
     id="path5201-5-6"
     d="m 125.35657,210.19186 c 1.489,-7.63 -15.806,-16.772 -20.682,2.039 l -9.007004,57.238 c -4.847,13.779 12.414004,20.274 15.106004,2.205 z"
     stroke-opacity="0"
     fill-rule="evenodd"
     fill="#fff9e9" />
  <path
     id="path4284-3-6-8"
     d="m 165.47657,199.74186 c 21.207,-8.629 40.375,-21.485 43.156,-33.608 l -0.697,-11.016 c 5.11,-16 7.15,-32.161 8.501,-48.6 1.166,-44.307005 -21.292,-75.526005 -45.835,-85.913005 -53.036,-27.7189998 -132.160004,-7.172 -147.030004,55.311 -5.608,31.018005 0.761,60.127005 31.45,96.962005 34.828,22.652 69.314004,31.595 110.460004,26.864 z"
     stroke-opacity="0"
     fill-rule="evenodd"
     fill="#fff9e9" />
  <style
     id="style26-75">.specularity{opacity:.5}.low-specularity{opacity:.25}.full-specularity{opacity:1}.black{fill:#000}.white{fill:#fff}.outline-big{stroke-width:16;stroke:none;opacity:.1;fill:none}.outline-small{stroke-width:8}.outline-small,.stroke-highlight{fill:none;stroke:none;opacity:.2}.base-shadow{fill:#000;opacity:75}</style>
  <style
     id="style26-1-60">.specularity{opacity:.5}.low-specularity{opacity:.25}.full-specularity{opacity:1}.black{fill:#000}.white{fill:#fff}.outline-big{stroke-width:16;stroke:none;opacity:.1;fill:none}.outline-small{stroke-width:8}.outline-small,.stroke-highlight{fill:none;stroke:none;opacity:.2}.base-shadow{fill:#000;opacity:75}</style>
  <style
     id="style26-8-8">.specularity{opacity:.5}.low-specularity{opacity:.25}.full-specularity{opacity:1}.black{fill:#000}.white{fill:#fff}.outline-big{stroke-width:16;stroke:none;opacity:.1;fill:none}.outline-small{stroke-width:8}.outline-small,.stroke-highlight{fill:none;stroke:none;opacity:.2}.base-shadow{fill:#000;opacity:75}</style>
  <style
     id="style26-2-37">.specularity{opacity:.5}.low-specularity{opacity:.25}.full-specularity{opacity:1}.black{fill:#000}.white{fill:#fff}.outline-big{stroke-width:16;stroke:none;opacity:.1;fill:none}.outline-small{stroke-width:8}.outline-small,.stroke-highlight{fill:none;stroke:none;opacity:.2}.base-shadow{fill:#000;opacity:75}</style>
  <style
     id="style26-5">.specularity{opacity:.5}.low-specularity{opacity:.25}.full-specularity{opacity:1}.black{fill:#000}.white{fill:#fff}.outline-big{stroke-width:16;stroke:none;opacity:.1;fill:none}.outline-small{stroke-width:8}.outline-small,.stroke-highlight{fill:none;stroke:none;opacity:.2}.base-shadow{fill:#000;opacity:75}</style>
  <style
     id="style26-0-28">.specularity{opacity:.5}.low-specularity{opacity:.25}.full-specularity{opacity:1}.black{fill:#000}.white{fill:#fff}.outline-big{stroke-width:16;stroke:none;opacity:.1;fill:none}.outline-small{stroke-width:8}.outline-small,.stroke-highlight{fill:none;stroke:none;opacity:.2}.base-shadow{fill:#000;opacity:75}</style>
  <style
     id="style26-1-6">.specularity{opacity:.5}.low-specularity{opacity:.25}.full-specularity{opacity:1}.black{fill:#000}.white{fill:#fff}.outline-big{stroke-width:16;stroke:none;opacity:.1;fill:none}.outline-small{stroke-width:8}.outline-small,.stroke-highlight{fill:none;stroke:none;opacity:.2}.base-shadow{fill:#000;opacity:75}</style>
  <style
     id="style26-8-5-9">.specularity{opacity:.5}.low-specularity{opacity:.25}.full-specularity{opacity:1}.black{fill:#000}.white{fill:#fff}.outline-big{stroke-width:16;stroke:none;opacity:.1;fill:none}.outline-small{stroke-width:8}.outline-small,.stroke-highlight{fill:none;stroke:none;opacity:.2}.base-shadow{fill:#000;opacity:75}</style>
  <style
     id="style26-2-6">.specularity{opacity:.5}.low-specularity{opacity:.25}.full-specularity{opacity:1}.black{fill:#000}.white{fill:#fff}.outline-big{stroke-width:16;stroke:none;opacity:.1;fill:none}.outline-small{stroke-width:8}.outline-small,.stroke-highlight{fill:none;stroke:none;opacity:.2}.base-shadow{fill:#000;opacity:75}</style>
  <style
     id="style26-28-73">.specularity{opacity:.5}.low-specularity{opacity:.25}.full-specularity{opacity:1}.black{fill:#000}.white{fill:#fff}.outline-big{stroke-width:16;stroke:none;opacity:.1;fill:none}.outline-small{stroke-width:8}.outline-small,.stroke-highlight{fill:none;stroke:none;opacity:.2}.base-shadow{fill:#000;opacity:75}</style>
  <style
     id="style26-1-5-6">.specularity{opacity:.5}.low-specularity{opacity:.25}.full-specularity{opacity:1}.black{fill:#000}.white{fill:#fff}.outline-big{stroke-width:16;stroke:none;opacity:.1;fill:none}.outline-small{stroke-width:8}.outline-small,.stroke-highlight{fill:none;stroke:none;opacity:.2}.base-shadow{fill:#000;opacity:75}</style>
  <style
     id="style26-3-1">.specularity{opacity:.5}.low-specularity{opacity:.25}.full-specularity{opacity:1}.black{fill:#000}.white{fill:#fff}.outline-big{stroke-width:16;stroke:none;opacity:.1;fill:none}.outline-small{stroke-width:8}.outline-small,.stroke-highlight{fill:none;stroke:none;opacity:.2}.base-shadow{fill:#000;opacity:75}</style>
  <style
     id="style26-0-6-2">.specularity{opacity:.5}.low-specularity{opacity:.25}.full-specularity{opacity:1}.black{fill:#000}.white{fill:#fff}.outline-big{stroke-width:16;stroke:none;opacity:.1;fill:none}.outline-small{stroke-width:8}.outline-small,.stroke-highlight{fill:none;stroke:none;opacity:.2}.base-shadow{fill:#000;opacity:75}</style>
  <style
     id="style26-1-56-9">.specularity{opacity:.5}.low-specularity{opacity:.25}.full-specularity{opacity:1}.black{fill:#000}.white{fill:#fff}.outline-big{stroke-width:16;stroke:none;opacity:.1;fill:none}.outline-small{stroke-width:8}.outline-small,.stroke-highlight{fill:none;stroke:none;opacity:.2}.base-shadow{fill:#000;opacity:75}</style>
  <style
     id="style26-8-9-3">.specularity{opacity:.5}.low-specularity{opacity:.25}.full-specularity{opacity:1}.black{fill:#000}.white{fill:#fff}.outline-big{stroke-width:16;stroke:none;opacity:.1;fill:none}.outline-small{stroke-width:8}.outline-small,.stroke-highlight{fill:none;stroke:none;opacity:.2}.base-shadow{fill:#000;opacity:75}</style>
  <style
     id="style26-2-3-1">.specularity{opacity:.5}.low-specularity{opacity:.25}.full-specularity{opacity:1}.black{fill:#000}.white{fill:#fff}.outline-big{stroke-width:16;stroke:none;opacity:.1;fill:none}.outline-small{stroke-width:8}.outline-small,.stroke-highlight{fill:none;stroke:none;opacity:.2}.base-shadow{fill:#000;opacity:75}</style>
  <style
     id="style26-81-9">.specularity{opacity:.5}.low-specularity{opacity:.25}.full-specularity{opacity:1}.black{fill:#000}.white{fill:#fff}.outline-big{stroke-width:16;stroke:none;opacity:.1;fill:none}.outline-small{stroke-width:8}.outline-small,.stroke-highlight{fill:none;stroke:none;opacity:.2}.base-shadow{fill:#000;opacity:75}</style>
  <style
     id="style26-1-561-4">.specularity{opacity:.5}.low-specularity{opacity:.25}.full-specularity{opacity:1}.black{fill:#000}.white{fill:#fff}.outline-big{stroke-width:16;stroke:none;opacity:.1;fill:none}.outline-small{stroke-width:8}.outline-small,.stroke-highlight{fill:none;stroke:none;opacity:.2}.base-shadow{fill:#000;opacity:75}</style>
  <style
     id="style26-7">.specularity{opacity:.5}.low-specularity{opacity:.25}.full-specularity{opacity:1}.black{fill:#000}.white{fill:#fff}.outline-big{stroke-width:16;stroke:none;opacity:.1;fill:none}.outline-small{stroke-width:8}.outline-small,.stroke-highlight{fill:none;stroke:none;opacity:.2}.base-shadow{fill:#000;opacity:75}</style>
  <style
     id="style26-1-0">.specularity{opacity:.5}.low-specularity{opacity:.25}.full-specularity{opacity:1}.black{fill:#000}.white{fill:#fff}.outline-big{stroke-width:16;stroke:none;opacity:.1;fill:none}.outline-small{stroke-width:8}.outline-small,.stroke-highlight{fill:none;stroke:none;opacity:.2}.base-shadow{fill:#000;opacity:75}</style>
  <style
     id="style26-2-2">.specularity{opacity:.5}.low-specularity{opacity:.25}.full-specularity{opacity:1}.black{fill:#000}.white{fill:#fff}.outline-big{stroke-width:16;stroke:none;opacity:.1;fill:none}.outline-small{stroke-width:8}.outline-small,.stroke-highlight{fill:none;stroke:none;opacity:.2}.base-shadow{fill:#000;opacity:75}</style>
  <style
     id="style26-25">.specularity{opacity:.5}.low-specularity{opacity:.25}.full-specularity{opacity:1}.black{fill:#000}.white{fill:#fff}.outline-big{stroke-width:16;stroke:none;opacity:.1;fill:none}.outline-small{stroke-width:8}.outline-small,.stroke-highlight{fill:none;stroke:none;opacity:.2}.base-shadow{fill:#000;opacity:75}</style>
  <style
     id="style26-0-2-1">.specularity{opacity:.5}.low-specularity{opacity:.25}.full-specularity{opacity:1}.black{fill:#000}.white{fill:#fff}.outline-big{stroke-width:16;stroke:none;opacity:.1;fill:none}.outline-small{stroke-width:8}.outline-small,.stroke-highlight{fill:none;stroke:none;opacity:.2}.base-shadow{fill:#000;opacity:75}</style>
  <style
     id="style26-1-8">.specularity{opacity:.5}.low-specularity{opacity:.25}.full-specularity{opacity:1}.black{fill:#000}.white{fill:#fff}.outline-big{stroke-width:16;stroke:none;opacity:.1;fill:none}.outline-small{stroke-width:8}.outline-small,.stroke-highlight{fill:none;stroke:none;opacity:.2}.base-shadow{fill:#000;opacity:75}</style>
  <style
     id="style26-8-3">.specularity{opacity:.5}.low-specularity{opacity:.25}.full-specularity{opacity:1}.black{fill:#000}.white{fill:#fff}.outline-big{stroke-width:16;stroke:none;opacity:.1;fill:none}.outline-small{stroke-width:8}.outline-small,.stroke-highlight{fill:none;stroke:none;opacity:.2}.base-shadow{fill:#000;opacity:75}</style>
  <style
     id="style26-2-6-7">.specularity{opacity:.5}.low-specularity{opacity:.25}.full-specularity{opacity:1}.black{fill:#000}.white{fill:#fff}.outline-big{stroke-width:16;stroke:none;opacity:.1;fill:none}.outline-small{stroke-width:8}.outline-small,.stroke-highlight{fill:none;stroke:none;opacity:.2}.base-shadow{fill:#000;opacity:75}</style>
  <style
     id="style26-28-5">.specularity{opacity:.5}.low-specularity{opacity:.25}.full-specularity{opacity:1}.black{fill:#000}.white{fill:#fff}.outline-big{stroke-width:16;stroke:none;opacity:.1;fill:none}.outline-small{stroke-width:8}.outline-small,.stroke-highlight{fill:none;stroke:none;opacity:.2}.base-shadow{fill:#000;opacity:75}</style>
  <style
     id="style26-1-5-9">.specularity{opacity:.5}.low-specularity{opacity:.25}.full-specularity{opacity:1}.black{fill:#000}.white{fill:#fff}.outline-big{stroke-width:16;stroke:none;opacity:.1;fill:none}.outline-small{stroke-width:8}.outline-small,.stroke-highlight{fill:none;stroke:none;opacity:.2}.base-shadow{fill:#000;opacity:75}</style>
  <style
     id="style26-20">.specularity{opacity:.5}.low-specularity{opacity:.25}.full-specularity{opacity:1}.black{fill:#000}.white{fill:#fff}.outline-big{stroke-width:16;stroke:none;opacity:.1;fill:none}.outline-small{stroke-width:8}.outline-small,.stroke-highlight{fill:none;stroke:none;opacity:.2}.base-shadow{fill:#000;opacity:75}</style>
  <style
     id="style26-0-66">.specularity{opacity:.5}.low-specularity{opacity:.25}.full-specularity{opacity:1}.black{fill:#000}.white{fill:#fff}.outline-big{stroke-width:16;stroke:none;opacity:.1;fill:none}.outline-small{stroke-width:8}.outline-small,.stroke-highlight{fill:none;stroke:none;opacity:.2}.base-shadow{fill:#000;opacity:75}</style>
  <style
     id="style26-1-4">.specularity{opacity:.5}.low-specularity{opacity:.25}.full-specularity{opacity:1}.black{fill:#000}.white{fill:#fff}.outline-big{stroke-width:16;stroke:none;opacity:.1;fill:none}.outline-small{stroke-width:8}.outline-small,.stroke-highlight{fill:none;stroke:none;opacity:.2}.base-shadow{fill:#000;opacity:75}</style>
  <style
     id="style26-8-95">.specularity{opacity:.5}.low-specularity{opacity:.25}.full-specularity{opacity:1}.black{fill:#000}.white{fill:#fff}.outline-big{stroke-width:16;stroke:none;opacity:.1;fill:none}.outline-small{stroke-width:8}.outline-small,.stroke-highlight{fill:none;stroke:none;opacity:.2}.base-shadow{fill:#000;opacity:75}</style>
  <style
     id="style26-2-0">.specularity{opacity:.5}.low-specularity{opacity:.25}.full-specularity{opacity:1}.black{fill:#000}.white{fill:#fff}.outline-big{stroke-width:16;stroke:none;opacity:.1;fill:none}.outline-small{stroke-width:8}.outline-small,.stroke-highlight{fill:none;stroke:none;opacity:.2}.base-shadow{fill:#000;opacity:75}</style>
  <style
     id="style26-28-4">.specularity{opacity:.5}.low-specularity{opacity:.25}.full-specularity{opacity:1}.black{fill:#000}.white{fill:#fff}.outline-big{stroke-width:16;stroke:none;opacity:.1;fill:none}.outline-small{stroke-width:8}.outline-small,.stroke-highlight{fill:none;stroke:none;opacity:.2}.base-shadow{fill:#000;opacity:75}</style>
  <style
     id="style26-1-5-87">.specularity{opacity:.5}.low-specularity{opacity:.25}.full-specularity{opacity:1}.black{fill:#000}.white{fill:#fff}.outline-big{stroke-width:16;stroke:none;opacity:.1;fill:none}.outline-small{stroke-width:8}.outline-small,.stroke-highlight{fill:none;stroke:none;opacity:.2}.base-shadow{fill:#000;opacity:75}</style>
  <style
     id="style26-3-17">.specularity{opacity:.5}.low-specularity{opacity:.25}.full-specularity{opacity:1}.black{fill:#000}.white{fill:#fff}.outline-big{stroke-width:16;stroke:none;opacity:.1;fill:none}.outline-small{stroke-width:8}.outline-small,.stroke-highlight{fill:none;stroke:none;opacity:.2}.base-shadow{fill:#000;opacity:75}</style>
  <style
     id="style26-0-6-27">.specularity{opacity:.5}.low-specularity{opacity:.25}.full-specularity{opacity:1}.black{fill:#000}.white{fill:#fff}.outline-big{stroke-width:16;stroke:none;opacity:.1;fill:none}.outline-small{stroke-width:8}.outline-small,.stroke-highlight{fill:none;stroke:none;opacity:.2}.base-shadow{fill:#000;opacity:75}</style>
  <style
     id="style26-1-56-2">.specularity{opacity:.5}.low-specularity{opacity:.25}.full-specularity{opacity:1}.black{fill:#000}.white{fill:#fff}.outline-big{stroke-width:16;stroke:none;opacity:.1;fill:none}.outline-small{stroke-width:8}.outline-small,.stroke-highlight{fill:none;stroke:none;opacity:.2}.base-shadow{fill:#000;opacity:75}</style>
  <style
     id="style26-8-9-2">.specularity{opacity:.5}.low-specularity{opacity:.25}.full-specularity{opacity:1}.black{fill:#000}.white{fill:#fff}.outline-big{stroke-width:16;stroke:none;opacity:.1;fill:none}.outline-small{stroke-width:8}.outline-small,.stroke-highlight{fill:none;stroke:none;opacity:.2}.base-shadow{fill:#000;opacity:75}</style>
  <style
     id="style26-2-3-6">.specularity{opacity:.5}.low-specularity{opacity:.25}.full-specularity{opacity:1}.black{fill:#000}.white{fill:#fff}.outline-big{stroke-width:16;stroke:none;opacity:.1;fill:none}.outline-small{stroke-width:8}.outline-small,.stroke-highlight{fill:none;stroke:none;opacity:.2}.base-shadow{fill:#000;opacity:75}</style>
  <style
     id="style26-81-1">.specularity{opacity:.5}.low-specularity{opacity:.25}.full-specularity{opacity:1}.black{fill:#000}.white{fill:#fff}.outline-big{stroke-width:16;stroke:none;opacity:.1;fill:none}.outline-small{stroke-width:8}.outline-small,.stroke-highlight{fill:none;stroke:none;opacity:.2}.base-shadow{fill:#000;opacity:75}</style>
  <style
     id="style26-1-561-06">.specularity{opacity:.5}.low-specularity{opacity:.25}.full-specularity{opacity:1}.black{fill:#000}.white{fill:#fff}.outline-big{stroke-width:16;stroke:none;opacity:.1;fill:none}.outline-small{stroke-width:8}.outline-small,.stroke-highlight{fill:none;stroke:none;opacity:.2}.base-shadow{fill:#000;opacity:75}</style>
  <style
     id="style26-32-1">.specularity{opacity:.5}.low-specularity{opacity:.25}.full-specularity{opacity:1}.black{fill:#000}.white{fill:#fff}.outline-big{stroke-width:16;stroke:none;opacity:.1;fill:none}.outline-small{stroke-width:8}.outline-small,.stroke-highlight{fill:none;stroke:none;opacity:.2}.base-shadow{fill:#000;opacity:75}</style>
  <style
     id="style26-0-2-5">.specularity{opacity:.5}.low-specularity{opacity:.25}.full-specularity{opacity:1}.black{fill:#000}.white{fill:#fff}.outline-big{stroke-width:16;stroke:none;opacity:.1;fill:none}.outline-small{stroke-width:8}.outline-small,.stroke-highlight{fill:none;stroke:none;opacity:.2}.base-shadow{fill:#000;opacity:75}</style>
  <style
     id="style26-1-54-9">.specularity{opacity:.5}.low-specularity{opacity:.25}.full-specularity{opacity:1}.black{fill:#000}.white{fill:#fff}.outline-big{stroke-width:16;stroke:none;opacity:.1;fill:none}.outline-small{stroke-width:8}.outline-small,.stroke-highlight{fill:none;stroke:none;opacity:.2}.base-shadow{fill:#000;opacity:75}</style>
  <style
     id="style26-8-7-4">.specularity{opacity:.5}.low-specularity{opacity:.25}.full-specularity{opacity:1}.black{fill:#000}.white{fill:#fff}.outline-big{stroke-width:16;stroke:none;opacity:.1;fill:none}.outline-small{stroke-width:8}.outline-small,.stroke-highlight{fill:none;stroke:none;opacity:.2}.base-shadow{fill:#000;opacity:75}</style>
  <style
     id="style26-2-4-9">.specularity{opacity:.5}.low-specularity{opacity:.25}.full-specularity{opacity:1}.black{fill:#000}.white{fill:#fff}.outline-big{stroke-width:16;stroke:none;opacity:.1;fill:none}.outline-small{stroke-width:8}.outline-small,.stroke-highlight{fill:none;stroke:none;opacity:.2}.base-shadow{fill:#000;opacity:75}</style>
  <style
     id="style26-30-0">.specularity{opacity:.5}.low-specularity{opacity:.25}.full-specularity{opacity:1}.black{fill:#000}.white{fill:#fff}.outline-big{stroke-width:16;stroke:none;opacity:.1;fill:none}.outline-small{stroke-width:8}.outline-small,.stroke-highlight{fill:none;stroke:none;opacity:.2}.base-shadow{fill:#000;opacity:75}</style>
  <style
     id="style26-0-7-9">.specularity{opacity:.5}.low-specularity{opacity:.25}.full-specularity{opacity:1}.black{fill:#000}.white{fill:#fff}.outline-big{stroke-width:16;stroke:none;opacity:.1;fill:none}.outline-small{stroke-width:8}.outline-small,.stroke-highlight{fill:none;stroke:none;opacity:.2}.base-shadow{fill:#000;opacity:75}</style>
  <style
     id="style26-1-7-1">.specularity{opacity:.5}.low-specularity{opacity:.25}.full-specularity{opacity:1}.black{fill:#000}.white{fill:#fff}.outline-big{stroke-width:16;stroke:none;opacity:.1;fill:none}.outline-small{stroke-width:8}.outline-small,.stroke-highlight{fill:none;stroke:none;opacity:.2}.base-shadow{fill:#000;opacity:75}</style>
  <style
     id="style26-8-5-7">.specularity{opacity:.5}.low-specularity{opacity:.25}.full-specularity{opacity:1}.black{fill:#000}.white{fill:#fff}.outline-big{stroke-width:16;stroke:none;opacity:.1;fill:none}.outline-small{stroke-width:8}.outline-small,.stroke-highlight{fill:none;stroke:none;opacity:.2}.base-shadow{fill:#000;opacity:75}</style>
  <style
     id="style26-2-48-7">.specularity{opacity:.5}.low-specularity{opacity:.25}.full-specularity{opacity:1}.black{fill:#000}.white{fill:#fff}.outline-big{stroke-width:16;stroke:none;opacity:.1;fill:none}.outline-small{stroke-width:8}.outline-small,.stroke-highlight{fill:none;stroke:none;opacity:.2}.base-shadow{fill:#000;opacity:75}</style>
  <style
     id="style26-28-7-1">.specularity{opacity:.5}.low-specularity{opacity:.25}.full-specularity{opacity:1}.black{fill:#000}.white{fill:#fff}.outline-big{stroke-width:16;stroke:none;opacity:.1;fill:none}.outline-small{stroke-width:8}.outline-small,.stroke-highlight{fill:none;stroke:none;opacity:.2}.base-shadow{fill:#000;opacity:75}</style>
  <style
     id="style26-1-5-2-1">.specularity{opacity:.5}.low-specularity{opacity:.25}.full-specularity{opacity:1}.black{fill:#000}.white{fill:#fff}.outline-big{stroke-width:16;stroke:none;opacity:.1;fill:none}.outline-small{stroke-width:8}.outline-small,.stroke-highlight{fill:none;stroke:none;opacity:.2}.base-shadow{fill:#000;opacity:75}</style>
  <style
     id="style26-3-0-5">.specularity{opacity:.5}.low-specularity{opacity:.25}.full-specularity{opacity:1}.black{fill:#000}.white{fill:#fff}.outline-big{stroke-width:16;stroke:none;opacity:.1;fill:none}.outline-small{stroke-width:8}.outline-small,.stroke-highlight{fill:none;stroke:none;opacity:.2}.base-shadow{fill:#000;opacity:75}</style>
  <style
     id="style26-0-6-3-9">.specularity{opacity:.5}.low-specularity{opacity:.25}.full-specularity{opacity:1}.black{fill:#000}.white{fill:#fff}.outline-big{stroke-width:16;stroke:none;opacity:.1;fill:none}.outline-small{stroke-width:8}.outline-small,.stroke-highlight{fill:none;stroke:none;opacity:.2}.base-shadow{fill:#000;opacity:75}</style>
  <style
     id="style26-1-56-4-7">.specularity{opacity:.5}.low-specularity{opacity:.25}.full-specularity{opacity:1}.black{fill:#000}.white{fill:#fff}.outline-big{stroke-width:16;stroke:none;opacity:.1;fill:none}.outline-small{stroke-width:8}.outline-small,.stroke-highlight{fill:none;stroke:none;opacity:.2}.base-shadow{fill:#000;opacity:75}</style>
  <style
     id="style26-8-9-0-7">.specularity{opacity:.5}.low-specularity{opacity:.25}.full-specularity{opacity:1}.black{fill:#000}.white{fill:#fff}.outline-big{stroke-width:16;stroke:none;opacity:.1;fill:none}.outline-small{stroke-width:8}.outline-small,.stroke-highlight{fill:none;stroke:none;opacity:.2}.base-shadow{fill:#000;opacity:75}</style>
  <style
     id="style26-2-3-3-6">.specularity{opacity:.5}.low-specularity{opacity:.25}.full-specularity{opacity:1}.black{fill:#000}.white{fill:#fff}.outline-big{stroke-width:16;stroke:none;opacity:.1;fill:none}.outline-small{stroke-width:8}.outline-small,.stroke-highlight{fill:none;stroke:none;opacity:.2}.base-shadow{fill:#000;opacity:75}</style>
  <style
     id="style26-81-6-7">.specularity{opacity:.5}.low-specularity{opacity:.25}.full-specularity{opacity:1}.black{fill:#000}.white{fill:#fff}.outline-big{stroke-width:16;stroke:none;opacity:.1;fill:none}.outline-small{stroke-width:8}.outline-small,.stroke-highlight{fill:none;stroke:none;opacity:.2}.base-shadow{fill:#000;opacity:75}</style>
  <style
     id="style26-1-561-0-3">.specularity{opacity:.5}.low-specularity{opacity:.25}.full-specularity{opacity:1}.black{fill:#000}.white{fill:#fff}.outline-big{stroke-width:16;stroke:none;opacity:.1;fill:none}.outline-small{stroke-width:8}.outline-small,.stroke-highlight{fill:none;stroke:none;opacity:.2}.base-shadow{fill:#000;opacity:75}</style>
  <style
     id="style26-7-3">.specularity{opacity:.5}.low-specularity{opacity:.25}.full-specularity{opacity:1}.black{fill:#000}.white{fill:#fff}.outline-big{stroke-width:16;stroke:none;opacity:.1;fill:none}.outline-small{stroke-width:8}.outline-small,.stroke-highlight{fill:none;stroke:none;opacity:.2}.base-shadow{fill:#000;opacity:75}</style>
  <style
     id="style26-1-9">.specularity{opacity:.5}.low-specularity{opacity:.25}.full-specularity{opacity:1}.black{fill:#000}.white{fill:#fff}.outline-big{stroke-width:16;stroke:none;opacity:.1;fill:none}.outline-small{stroke-width:8}.outline-small,.stroke-highlight{fill:none;stroke:none;opacity:.2}.base-shadow{fill:#000;opacity:75}</style>
  <style
     id="style26-2-2-8">.specularity{opacity:.5}.low-specularity{opacity:.25}.full-specularity{opacity:1}.black{fill:#000}.white{fill:#fff}.outline-big{stroke-width:16;stroke:none;opacity:.1;fill:none}.outline-small{stroke-width:8}.outline-small,.stroke-highlight{fill:none;stroke:none;opacity:.2}.base-shadow{fill:#000;opacity:75}</style>
  <style
     id="style26-25-5">.specularity{opacity:.5}.low-specularity{opacity:.25}.full-specularity{opacity:1}.black{fill:#000}.white{fill:#fff}.outline-big{stroke-width:16;stroke:none;opacity:.1;fill:none}.outline-small{stroke-width:8}.outline-small,.stroke-highlight{fill:none;stroke:none;opacity:.2}.base-shadow{fill:#000;opacity:75}</style>
  <style
     id="style26-0-75">.specularity{opacity:.5}.low-specularity{opacity:.25}.full-specularity{opacity:1}.black{fill:#000}.white{fill:#fff}.outline-big{stroke-width:16;stroke:none;opacity:.1;fill:none}.outline-small{stroke-width:8}.outline-small,.stroke-highlight{fill:none;stroke:none;opacity:.2}.base-shadow{fill:#000;opacity:75}</style>
  <style
     id="style26-1-8-6">.specularity{opacity:.5}.low-specularity{opacity:.25}.full-specularity{opacity:1}.black{fill:#000}.white{fill:#fff}.outline-big{stroke-width:16;stroke:none;opacity:.1;fill:none}.outline-small{stroke-width:8}.outline-small,.stroke-highlight{fill:none;stroke:none;opacity:.2}.base-shadow{fill:#000;opacity:75}</style>
  <style
     id="style26-8-92">.specularity{opacity:.5}.low-specularity{opacity:.25}.full-specularity{opacity:1}.black{fill:#000}.white{fill:#fff}.outline-big{stroke-width:16;stroke:none;opacity:.1;fill:none}.outline-small{stroke-width:8}.outline-small,.stroke-highlight{fill:none;stroke:none;opacity:.2}.base-shadow{fill:#000;opacity:75}</style>
  <style
     id="style26-2-6-1">.specularity{opacity:.5}.low-specularity{opacity:.25}.full-specularity{opacity:1}.black{fill:#000}.white{fill:#fff}.outline-big{stroke-width:16;stroke:none;opacity:.1;fill:none}.outline-small{stroke-width:8}.outline-small,.stroke-highlight{fill:none;stroke:none;opacity:.2}.base-shadow{fill:#000;opacity:75}</style>
  <style
     id="style26-28-2">.specularity{opacity:.5}.low-specularity{opacity:.25}.full-specularity{opacity:1}.black{fill:#000}.white{fill:#fff}.outline-big{stroke-width:16;stroke:none;opacity:.1;fill:none}.outline-small{stroke-width:8}.outline-small,.stroke-highlight{fill:none;stroke:none;opacity:.2}.base-shadow{fill:#000;opacity:75}</style>
  <style
     id="style26-1-5-8">.specularity{opacity:.5}.low-specularity{opacity:.25}.full-specularity{opacity:1}.black{fill:#000}.white{fill:#fff}.outline-big{stroke-width:16;stroke:none;opacity:.1;fill:none}.outline-small{stroke-width:8}.outline-small,.stroke-highlight{fill:none;stroke:none;opacity:.2}.base-shadow{fill:#000;opacity:75}</style>
  <path
     id="path4305-3-1-1"
     d="m 102.39657,144.31186 c -1.704,10.465 -6.276004,18.774 -14.017004,18.236 -7.741,-0.537 -14.49,-9.59 -14.017,-20.181 0.75,-16.788 7.585,-18.97 15.346,-18.179 7.791,0.796 14.869004,6.729 12.688004,20.124 z"
     fill="#463333"
     style="stroke-opacity:0" />
  <path
     id="path4305-3-9"
     d="m 190.95657,148.67186 c -1.762,8.73 -5.027,15.649 -9.474,15.166 -4.444,-0.483 -7.684,-8.073 -6.624,-16.917 1.679,-14.016 5.8,-15.808 10.238,-15.112 4.455,0.7 8.117,5.686 5.86,16.862 z"
     fill="#463333"
     style="stroke-opacity:0" />
  <path
     id="path5531"
     d="m 113.13657,135.92186 -24.566004,-5.988 -26.09,3.847 4.763,-14.634 23.234,-4.974 20.625004,11.974 z"
     fill="#fff9e9"
     style="fill-rule:evenodd;stroke-opacity:0" />
  <path
     id="path4665"
     d="m 90.146566,63.021855 121.850004,36.049 -2.09,46.637005 -8.111,-22.121 -12.217,14.643 -4.846,-4.215 -7.69,-21.066 c -4.655,23.877 -9.827,36.403 -25.595,54.668 l -1.791,-25.807 -4.846,13.693 -8.004,-32.652 -2.95,-19.908 c -5.187,13.7 -14.651,23.045 -24.437,33.496 l -15.346004,-2.205 8.393004,-22.127 -12.533004,18.96 -10.64,-1.895 2.633,-14.537 -16.432,18.96 -15.484,8.743 8.25,32.61 c -1.083,-0.678 -2.166,-1.368 -3.25,-2.073 -5.622,-6.75 -10.422,-13.236 -14.488,-19.525 l -6.238,-17.484 3.127,-33.516 z"
     fill="#f8ded8"
     style="fill-rule:evenodd;stroke-opacity:0" />
  <path
     id="path5529"
     d="m 205.63657,140.28186 c -11.893,-0.176 -22.29,-0.056 -34.196,3.08 l 7.497,-11.732 8.172,-3.259 14.696,2.59 z"
     fill="#fff9e9"
     style="fill-rule:evenodd;stroke-opacity:0" />
  <path
     id="path5556-8"
     d="m 140.41657,191.55186 c -1.208,1.63 -3.541,-0.114 -8.994,1.018 2.314,-5.613 8.394,-5.623 8.994,-1.018 z"
     stroke-opacity="0"
     fill-rule="evenodd"
     fill="#e59886" />
  <path
     id="path5557"
     d="m 183.07657,15.694855 c 52.82,34.837 56.18,54.577 59.15,119.450005 l -11.727,-33.613 -0.082,-0.164 c 2.47,22.874 -2.577,48.675 -4.707,71.896 l -4.768,-48.86 c -0.479,11.42 -4.23,22.842 -8.64,34.262 l -10.426,-42.007 c -3.812,13.146 -10.291,17.403 -16.386,22.939 l -8.64,-34.261 c -6.753,27.606 -10.866,41.415 -26.814,63.16 l 1.192,-42.603 -6.553,30.687 c -9.903,-21.145 -8.487,-38.338 -9.535,-61.373005 -10.332,21.876005 -13.116,27.534005 -30.982,41.113005 l -10.131004,-2.383 11.918004,-28.602 -19.068004,27.41 -8.938,0.596 5.96,-22.643 -22.644,24.43 -13.107,7.746 7.15,27.408 8.938,43.498 -21.45,-41.113 -10.288,29.949 c -14.445,-32.31 -17.6,-37.46 -22.412,-71.622 l -8.3539997,47.776 c -4.884,-27.194 1.09,-113.050005 11.2599997,-128.850005 44.94,-63.231 118.730004,-56.2269998 170.090004,-34.227 z"
     fill="#902265"
     style="fill-rule:evenodd;stroke-opacity:0" />
  <path
     id="path4303-1-6-62-1"
     d="m 204.62657,150.10186 -2.146,-7.451 c -12.2,-3.525 -21.192,0.356 -31.608,2.598 0.574,-10.024 30.947,-11.58 33.91,-6.947 0.297,6.413 1.049,6.425 -0.155,11.8 z"
     fill="#463333"
     style="fill-rule:evenodd;stroke-opacity:0" />
  <path
     id="path4303-1-6-62"
     d="m 66.486566,147.28186 3.827,-10.93 c 22.961,-5.52 42.060004,5.226 46.816004,7.36 1.124,-15.64 -42.780004,-20.899 -50.946004,-13.99 -0.431,9.203 -1.67,9.826 0.304,17.56 z"
     fill="#463333"
     style="fill-rule:evenodd;stroke-opacity:0" />
  <path
     id="path4570"
     d="m 151.60657,205.22186 -7.795,-3.265 -1.843,-0.158 -0.053,7.584 -12.534,-4.582 -1.685,-3.476 -16.173,0.16 5.693,71.36 -0.843,35.919 c 20.077,3.77 32.585,1.441 52.14,-1.791 l -8.638,-57.301 -2.212,-9.69 2.739,-20.435 z"
     fill="#e5d2de"
     style="fill-rule:evenodd;stroke-opacity:0" />
  <path
     id="path4675"
     d="m 125.60657,252.06186 31.062,33.744 c -9.085,-3.287 -15.983,-8.865 -23.277,-14.906 l 2.107,26.176 c 6.365,2.342 12.73,4.333 19.38,5.559 -7.05,0.497 -13.514,-1.495 -20.259,-3.204 l -2.888,11.168 c -2.795,-0.126 -5.683,-0.374 -8.73,-0.775 z"
     fill="#c8acbe"
     style="fill-rule:evenodd;stroke-opacity:0" />
  <path
     id="path4670"
     d="m 126.80657,219.13186 c 8.07,0.112 15.052,5.865 21.699,3.897 l 10.217,-0.526 0.527,3.055 -5.056,14.113 7.478,39.184 c -16.838,-10.03 -23.662,-18.855 -35.39,-33.705 z m 8.217,17.59 c 3.162,7.862 8.976,14.459 13.799,21.383 l -13.28,-10.74 c 5.393,12.067 12.277,17.724 22.12,25.807 l -4.528,-30.547 -5.163,-3.791 z"
     fill="#c8acbe"
     style="fill-rule:evenodd;stroke-opacity:0" />
  <path
     id="path4995"
     d="m 122.62657,235.82186 c 15.931,24.085 20.675,32.742 44.093,46.178 l 0.894,12.513 c -19.405,-12.111 -32.86,-30.034 -47.668,-47.072 z"
     fill="#485b5d"
     style="fill-rule:evenodd;stroke-opacity:0" />
  <path
     id="path5181-4-7"
     d="m 95.096566,274.29186 c 2.629,-8.87 18.929004,-6.904 15.188004,6.655 l -12.680004,42.678 c -1.94,10.393 -17.209,8.504 -12.366,-3.802 z"
     stroke-opacity="0"
     fill-rule="evenodd"
     fill="#fff9e9" />
  <g
     fill-rule="evenodd"
     stroke-opacity="0"
     id="g201"
     transform="matrix(-1,0,0,1,647.56657,-74.018145)">
    <path
       id="path4566"
       d="m 520.4,275.06 15.269,-0.372 6.778,1.936 -6.516,15.787 -2.95,35.813 2.95,10.323 5.688,12.85 2.107,47.19 -16.221,4.844 -10.744,-35.392 c -0.458,-25.105 3.372,-50.422 5.558,-75.388 z"
       fill="#506567" />
    <path
       id="path4568"
       d="m 497.02,279.15 8.258,-3.598 -2.633,0.158 -9.585,3.634 -12.008,18.012 c -0.46,9.618 3.821,13.705 8.005,17.906 l -6.847,19.486 -5.371,41.5 -5.478,29.389 11.06,1.264 1.264,-37.077 c 4.234,-18.346 7.651,-36.772 10.217,-55.405 -5.816,-20.363 -8.752,-14.772 2.739,-30.336 z"
       fill="#506567" />
    <path
       id="path4576"
       d="m 547.08,437.14 c -9.116,7.806 -9.464,7.955 -20.631,7.955 10.912,23.932 15.24,52.85 17.656,67.775 3.462,12.342 16.708,8.815 16.355,-0.432 -4.368,-25.16 -4.912,-56.54 -13.381,-75.299 z"
       fill="#485b5d" />
    <path
       id="path4578"
       d="m 504.95,445.04 c -8.553,3.529 -12.282,3.192 -20.805,1.365 l 4.967,68.457 c 2.212,6.314 15.989,6.592 17.734,-3.336 z"
       fill="#485b5d" />
  </g>
  <style
     id="style26-753">.specularity{opacity:.5}.low-specularity{opacity:.25}.full-specularity{opacity:1}.black{fill:#000}.white{fill:#fff}.outline-big{stroke-width:16;stroke:none;opacity:.1;fill:none}.outline-small{stroke-width:8}.outline-small,.stroke-highlight{fill:none;stroke:none;opacity:.2}.base-shadow{fill:#000;opacity:75}</style>
  <style
     id="style26-1-12">.specularity{opacity:.5}.low-specularity{opacity:.25}.full-specularity{opacity:1}.black{fill:#000}.white{fill:#fff}.outline-big{stroke-width:16;stroke:none;opacity:.1;fill:none}.outline-small{stroke-width:8}.outline-small,.stroke-highlight{fill:none;stroke:none;opacity:.2}.base-shadow{fill:#000;opacity:75}</style>
  <style
     id="style26-8-70">.specularity{opacity:.5}.low-specularity{opacity:.25}.full-specularity{opacity:1}.black{fill:#000}.white{fill:#fff}.outline-big{stroke-width:16;stroke:none;opacity:.1;fill:none}.outline-small{stroke-width:8}.outline-small,.stroke-highlight{fill:none;stroke:none;opacity:.2}.base-shadow{fill:#000;opacity:75}</style>
  <style
     id="style26-2-9">.specularity{opacity:.5}.low-specularity{opacity:.25}.full-specularity{opacity:1}.black{fill:#000}.white{fill:#fff}.outline-big{stroke-width:16;stroke:none;opacity:.1;fill:none}.outline-small{stroke-width:8}.outline-small,.stroke-highlight{fill:none;stroke:none;opacity:.2}.base-shadow{fill:#000;opacity:75}</style>
  <style
     id="style26-06">.specularity{opacity:.5}.low-specularity{opacity:.25}.full-specularity{opacity:1}.black{fill:#000}.white{fill:#fff}.outline-big{stroke-width:16;stroke:none;opacity:.1;fill:none}.outline-small{stroke-width:8}.outline-small,.stroke-highlight{fill:none;stroke:none;opacity:.2}.base-shadow{fill:#000;opacity:75}</style>
  <style
     id="style26-0-3">.specularity{opacity:.5}.low-specularity{opacity:.25}.full-specularity{opacity:1}.black{fill:#000}.white{fill:#fff}.outline-big{stroke-width:16;stroke:none;opacity:.1;fill:none}.outline-small{stroke-width:8}.outline-small,.stroke-highlight{fill:none;stroke:none;opacity:.2}.base-shadow{fill:#000;opacity:75}</style>
  <style
     id="style26-1-74">.specularity{opacity:.5}.low-specularity{opacity:.25}.full-specularity{opacity:1}.black{fill:#000}.white{fill:#fff}.outline-big{stroke-width:16;stroke:none;opacity:.1;fill:none}.outline-small{stroke-width:8}.outline-small,.stroke-highlight{fill:none;stroke:none;opacity:.2}.base-shadow{fill:#000;opacity:75}</style>
  <style
     id="style26-8-52">.specularity{opacity:.5}.low-specularity{opacity:.25}.full-specularity{opacity:1}.black{fill:#000}.white{fill:#fff}.outline-big{stroke-width:16;stroke:none;opacity:.1;fill:none}.outline-small{stroke-width:8}.outline-small,.stroke-highlight{fill:none;stroke:none;opacity:.2}.base-shadow{fill:#000;opacity:75}</style>
  <style
     id="style26-2-5">.specularity{opacity:.5}.low-specularity{opacity:.25}.full-specularity{opacity:1}.black{fill:#000}.white{fill:#fff}.outline-big{stroke-width:16;stroke:none;opacity:.1;fill:none}.outline-small{stroke-width:8}.outline-small,.stroke-highlight{fill:none;stroke:none;opacity:.2}.base-shadow{fill:#000;opacity:75}</style>
  <style
     id="style26-28-6">.specularity{opacity:.5}.low-specularity{opacity:.25}.full-specularity{opacity:1}.black{fill:#000}.white{fill:#fff}.outline-big{stroke-width:16;stroke:none;opacity:.1;fill:none}.outline-small{stroke-width:8}.outline-small,.stroke-highlight{fill:none;stroke:none;opacity:.2}.base-shadow{fill:#000;opacity:75}</style>
  <style
     id="style26-1-5-0">.specularity{opacity:.5}.low-specularity{opacity:.25}.full-specularity{opacity:1}.black{fill:#000}.white{fill:#fff}.outline-big{stroke-width:16;stroke:none;opacity:.1;fill:none}.outline-small{stroke-width:8}.outline-small,.stroke-highlight{fill:none;stroke:none;opacity:.2}.base-shadow{fill:#000;opacity:75}</style>
  <style
     id="style26-3-6">.specularity{opacity:.5}.low-specularity{opacity:.25}.full-specularity{opacity:1}.black{fill:#000}.white{fill:#fff}.outline-big{stroke-width:16;stroke:none;opacity:.1;fill:none}.outline-small{stroke-width:8}.outline-small,.stroke-highlight{fill:none;stroke:none;opacity:.2}.base-shadow{fill:#000;opacity:75}</style>
  <style
     id="style26-0-6-26">.specularity{opacity:.5}.low-specularity{opacity:.25}.full-specularity{opacity:1}.black{fill:#000}.white{fill:#fff}.outline-big{stroke-width:16;stroke:none;opacity:.1;fill:none}.outline-small{stroke-width:8}.outline-small,.stroke-highlight{fill:none;stroke:none;opacity:.2}.base-shadow{fill:#000;opacity:75}</style>
  <style
     id="style26-1-56-1">.specularity{opacity:.5}.low-specularity{opacity:.25}.full-specularity{opacity:1}.black{fill:#000}.white{fill:#fff}.outline-big{stroke-width:16;stroke:none;opacity:.1;fill:none}.outline-small{stroke-width:8}.outline-small,.stroke-highlight{fill:none;stroke:none;opacity:.2}.base-shadow{fill:#000;opacity:75}</style>
  <style
     id="style26-8-9-87">.specularity{opacity:.5}.low-specularity{opacity:.25}.full-specularity{opacity:1}.black{fill:#000}.white{fill:#fff}.outline-big{stroke-width:16;stroke:none;opacity:.1;fill:none}.outline-small{stroke-width:8}.outline-small,.stroke-highlight{fill:none;stroke:none;opacity:.2}.base-shadow{fill:#000;opacity:75}</style>
  <style
     id="style26-2-3-9">.specularity{opacity:.5}.low-specularity{opacity:.25}.full-specularity{opacity:1}.black{fill:#000}.white{fill:#fff}.outline-big{stroke-width:16;stroke:none;opacity:.1;fill:none}.outline-small{stroke-width:8}.outline-small,.stroke-highlight{fill:none;stroke:none;opacity:.2}.base-shadow{fill:#000;opacity:75}</style>
  <style
     id="style26-81-2">.specularity{opacity:.5}.low-specularity{opacity:.25}.full-specularity{opacity:1}.black{fill:#000}.white{fill:#fff}.outline-big{stroke-width:16;stroke:none;opacity:.1;fill:none}.outline-small{stroke-width:8}.outline-small,.stroke-highlight{fill:none;stroke:none;opacity:.2}.base-shadow{fill:#000;opacity:75}</style>
  <style
     id="style26-1-561-02">.specularity{opacity:.5}.low-specularity{opacity:.25}.full-specularity{opacity:1}.black{fill:#000}.white{fill:#fff}.outline-big{stroke-width:16;stroke:none;opacity:.1;fill:none}.outline-small{stroke-width:8}.outline-small,.stroke-highlight{fill:none;stroke:none;opacity:.2}.base-shadow{fill:#000;opacity:75}</style>
  <style
     id="style26-32-3">.specularity{opacity:.5}.low-specularity{opacity:.25}.full-specularity{opacity:1}.black{fill:#000}.white{fill:#fff}.outline-big{stroke-width:16;stroke:none;opacity:.1;fill:none}.outline-small{stroke-width:8}.outline-small,.stroke-highlight{fill:none;stroke:none;opacity:.2}.base-shadow{fill:#000;opacity:75}</style>
  <style
     id="style26-0-2-7">.specularity{opacity:.5}.low-specularity{opacity:.25}.full-specularity{opacity:1}.black{fill:#000}.white{fill:#fff}.outline-big{stroke-width:16;stroke:none;opacity:.1;fill:none}.outline-small{stroke-width:8}.outline-small,.stroke-highlight{fill:none;stroke:none;opacity:.2}.base-shadow{fill:#000;opacity:75}</style>
  <style
     id="style26-1-54-5">.specularity{opacity:.5}.low-specularity{opacity:.25}.full-specularity{opacity:1}.black{fill:#000}.white{fill:#fff}.outline-big{stroke-width:16;stroke:none;opacity:.1;fill:none}.outline-small{stroke-width:8}.outline-small,.stroke-highlight{fill:none;stroke:none;opacity:.2}.base-shadow{fill:#000;opacity:75}</style>
  <style
     id="style26-8-7-9">.specularity{opacity:.5}.low-specularity{opacity:.25}.full-specularity{opacity:1}.black{fill:#000}.white{fill:#fff}.outline-big{stroke-width:16;stroke:none;opacity:.1;fill:none}.outline-small{stroke-width:8}.outline-small,.stroke-highlight{fill:none;stroke:none;opacity:.2}.base-shadow{fill:#000;opacity:75}</style>
  <style
     id="style26-2-4-2">.specularity{opacity:.5}.low-specularity{opacity:.25}.full-specularity{opacity:1}.black{fill:#000}.white{fill:#fff}.outline-big{stroke-width:16;stroke:none;opacity:.1;fill:none}.outline-small{stroke-width:8}.outline-small,.stroke-highlight{fill:none;stroke:none;opacity:.2}.base-shadow{fill:#000;opacity:75}</style>
  <style
     id="style26-30-2">.specularity{opacity:.5}.low-specularity{opacity:.25}.full-specularity{opacity:1}.black{fill:#000}.white{fill:#fff}.outline-big{stroke-width:16;stroke:none;opacity:.1;fill:none}.outline-small{stroke-width:8}.outline-small,.stroke-highlight{fill:none;stroke:none;opacity:.2}.base-shadow{fill:#000;opacity:75}</style>
  <style
     id="style26-0-7-8">.specularity{opacity:.5}.low-specularity{opacity:.25}.full-specularity{opacity:1}.black{fill:#000}.white{fill:#fff}.outline-big{stroke-width:16;stroke:none;opacity:.1;fill:none}.outline-small{stroke-width:8}.outline-small,.stroke-highlight{fill:none;stroke:none;opacity:.2}.base-shadow{fill:#000;opacity:75}</style>
  <style
     id="style26-1-7-9">.specularity{opacity:.5}.low-specularity{opacity:.25}.full-specularity{opacity:1}.black{fill:#000}.white{fill:#fff}.outline-big{stroke-width:16;stroke:none;opacity:.1;fill:none}.outline-small{stroke-width:8}.outline-small,.stroke-highlight{fill:none;stroke:none;opacity:.2}.base-shadow{fill:#000;opacity:75}</style>
  <style
     id="style26-8-5-73">.specularity{opacity:.5}.low-specularity{opacity:.25}.full-specularity{opacity:1}.black{fill:#000}.white{fill:#fff}.outline-big{stroke-width:16;stroke:none;opacity:.1;fill:none}.outline-small{stroke-width:8}.outline-small,.stroke-highlight{fill:none;stroke:none;opacity:.2}.base-shadow{fill:#000;opacity:75}</style>
  <style
     id="style26-2-48-6">.specularity{opacity:.5}.low-specularity{opacity:.25}.full-specularity{opacity:1}.black{fill:#000}.white{fill:#fff}.outline-big{stroke-width:16;stroke:none;opacity:.1;fill:none}.outline-small{stroke-width:8}.outline-small,.stroke-highlight{fill:none;stroke:none;opacity:.2}.base-shadow{fill:#000;opacity:75}</style>
  <style
     id="style26-28-7-12">.specularity{opacity:.5}.low-specularity{opacity:.25}.full-specularity{opacity:1}.black{fill:#000}.white{fill:#fff}.outline-big{stroke-width:16;stroke:none;opacity:.1;fill:none}.outline-small{stroke-width:8}.outline-small,.stroke-highlight{fill:none;stroke:none;opacity:.2}.base-shadow{fill:#000;opacity:75}</style>
  <style
     id="style26-1-5-2-9">.specularity{opacity:.5}.low-specularity{opacity:.25}.full-specularity{opacity:1}.black{fill:#000}.white{fill:#fff}.outline-big{stroke-width:16;stroke:none;opacity:.1;fill:none}.outline-small{stroke-width:8}.outline-small,.stroke-highlight{fill:none;stroke:none;opacity:.2}.base-shadow{fill:#000;opacity:75}</style>
  <style
     id="style26-3-0-3">.specularity{opacity:.5}.low-specularity{opacity:.25}.full-specularity{opacity:1}.black{fill:#000}.white{fill:#fff}.outline-big{stroke-width:16;stroke:none;opacity:.1;fill:none}.outline-small{stroke-width:8}.outline-small,.stroke-highlight{fill:none;stroke:none;opacity:.2}.base-shadow{fill:#000;opacity:75}</style>
  <style
     id="style26-0-6-3-1">.specularity{opacity:.5}.low-specularity{opacity:.25}.full-specularity{opacity:1}.black{fill:#000}.white{fill:#fff}.outline-big{stroke-width:16;stroke:none;opacity:.1;fill:none}.outline-small{stroke-width:8}.outline-small,.stroke-highlight{fill:none;stroke:none;opacity:.2}.base-shadow{fill:#000;opacity:75}</style>
  <style
     id="style26-1-56-4-9">.specularity{opacity:.5}.low-specularity{opacity:.25}.full-specularity{opacity:1}.black{fill:#000}.white{fill:#fff}.outline-big{stroke-width:16;stroke:none;opacity:.1;fill:none}.outline-small{stroke-width:8}.outline-small,.stroke-highlight{fill:none;stroke:none;opacity:.2}.base-shadow{fill:#000;opacity:75}</style>
  <style
     id="style26-8-9-0-4">.specularity{opacity:.5}.low-specularity{opacity:.25}.full-specularity{opacity:1}.black{fill:#000}.white{fill:#fff}.outline-big{stroke-width:16;stroke:none;opacity:.1;fill:none}.outline-small{stroke-width:8}.outline-small,.stroke-highlight{fill:none;stroke:none;opacity:.2}.base-shadow{fill:#000;opacity:75}</style>
  <style
     id="style26-2-3-3-7">.specularity{opacity:.5}.low-specularity{opacity:.25}.full-specularity{opacity:1}.black{fill:#000}.white{fill:#fff}.outline-big{stroke-width:16;stroke:none;opacity:.1;fill:none}.outline-small{stroke-width:8}.outline-small,.stroke-highlight{fill:none;stroke:none;opacity:.2}.base-shadow{fill:#000;opacity:75}</style>
  <style
     id="style26-81-6-8">.specularity{opacity:.5}.low-specularity{opacity:.25}.full-specularity{opacity:1}.black{fill:#000}.white{fill:#fff}.outline-big{stroke-width:16;stroke:none;opacity:.1;fill:none}.outline-small{stroke-width:8}.outline-small,.stroke-highlight{fill:none;stroke:none;opacity:.2}.base-shadow{fill:#000;opacity:75}</style>
  <style
     id="style26-1-561-0-4">.specularity{opacity:.5}.low-specularity{opacity:.25}.full-specularity{opacity:1}.black{fill:#000}.white{fill:#fff}.outline-big{stroke-width:16;stroke:none;opacity:.1;fill:none}.outline-small{stroke-width:8}.outline-small,.stroke-highlight{fill:none;stroke:none;opacity:.2}.base-shadow{fill:#000;opacity:75}</style>
  <style
     id="style26-7-5">.specularity{opacity:.5}.low-specularity{opacity:.25}.full-specularity{opacity:1}.black{fill:#000}.white{fill:#fff}.outline-big{stroke-width:16;stroke:none;opacity:.1;fill:none}.outline-small{stroke-width:8}.outline-small,.stroke-highlight{fill:none;stroke:none;opacity:.2}.base-shadow{fill:#000;opacity:75}</style>
  <style
     id="style26-75-3">.specularity{opacity:.5}.low-specularity{opacity:.25}.full-specularity{opacity:1}.black{fill:#000}.white{fill:#fff}.outline-big{stroke-width:16;stroke:none;opacity:.1;fill:none}.outline-small{stroke-width:8}.outline-small,.stroke-highlight{fill:none;stroke:none;opacity:.2}.base-shadow{fill:#000;opacity:75}</style>
  <style
     id="style26-0-9">.specularity{opacity:.5}.low-specularity{opacity:.25}.full-specularity{opacity:1}.black{fill:#000}.white{fill:#fff}.outline-big{stroke-width:16;stroke:none;opacity:.1;fill:none}.outline-small{stroke-width:8}.outline-small,.stroke-highlight{fill:none;stroke:none;opacity:.2}.base-shadow{fill:#000;opacity:75}</style>
  <style
     id="style26-1-1">.specularity{opacity:.5}.low-specularity{opacity:.25}.full-specularity{opacity:1}.black{fill:#000}.white{fill:#fff}.outline-big{stroke-width:16;stroke:none;opacity:.1;fill:none}.outline-small{stroke-width:8}.outline-small,.stroke-highlight{fill:none;stroke:none;opacity:.2}.base-shadow{fill:#000;opacity:75}</style>
  <style
     id="style26-8-2">.specularity{opacity:.5}.low-specularity{opacity:.25}.full-specularity{opacity:1}.black{fill:#000}.white{fill:#fff}.outline-big{stroke-width:16;stroke:none;opacity:.1;fill:none}.outline-small{stroke-width:8}.outline-small,.stroke-highlight{fill:none;stroke:none;opacity:.2}.base-shadow{fill:#000;opacity:75}</style>
  <style
     id="style26-2-7">.specularity{opacity:.5}.low-specularity{opacity:.25}.full-specularity{opacity:1}.black{fill:#000}.white{fill:#fff}.outline-big{stroke-width:16;stroke:none;opacity:.1;fill:none}.outline-small{stroke-width:8}.outline-small,.stroke-highlight{fill:none;stroke:none;opacity:.2}.base-shadow{fill:#000;opacity:75}</style>
  <style
     id="style26-28-0">.specularity{opacity:.5}.low-specularity{opacity:.25}.full-specularity{opacity:1}.black{fill:#000}.white{fill:#fff}.outline-big{stroke-width:16;stroke:none;opacity:.1;fill:none}.outline-small{stroke-width:8}.outline-small,.stroke-highlight{fill:none;stroke:none;opacity:.2}.base-shadow{fill:#000;opacity:75}</style>
  <style
     id="style26-1-5-9-2">.specularity{opacity:.5}.low-specularity{opacity:.25}.full-specularity{opacity:1}.black{fill:#000}.white{fill:#fff}.outline-big{stroke-width:16;stroke:none;opacity:.1;fill:none}.outline-small{stroke-width:8}.outline-small,.stroke-highlight{fill:none;stroke:none;opacity:.2}.base-shadow{fill:#000;opacity:75}</style>
  <style
     id="style26-31">.specularity{opacity:.5}.low-specularity{opacity:.25}.full-specularity{opacity:1}.black{fill:#000}.white{fill:#fff}.outline-big{stroke-width:16;stroke:none;opacity:.1;fill:none}.outline-small{stroke-width:8}.outline-small,.stroke-highlight{fill:none;stroke:none;opacity:.2}.base-shadow{fill:#000;opacity:75}</style>
  <style
     id="style26-0-1">.specularity{opacity:.5}.low-specularity{opacity:.25}.full-specularity{opacity:1}.black{fill:#000}.white{fill:#fff}.outline-big{stroke-width:16;stroke:none;opacity:.1;fill:none}.outline-small{stroke-width:8}.outline-small,.stroke-highlight{fill:none;stroke:none;opacity:.2}.base-shadow{fill:#000;opacity:75}</style>
  <style
     id="style26-1-0-6">.specularity{opacity:.5}.low-specularity{opacity:.25}.full-specularity{opacity:1}.black{fill:#000}.white{fill:#fff}.outline-big{stroke-width:16;stroke:none;opacity:.1;fill:none}.outline-small{stroke-width:8}.outline-small,.stroke-highlight{fill:none;stroke:none;opacity:.2}.base-shadow{fill:#000;opacity:75}</style>
  <style
     id="style26-8-6">.specularity{opacity:.5}.low-specularity{opacity:.25}.full-specularity{opacity:1}.black{fill:#000}.white{fill:#fff}.outline-big{stroke-width:16;stroke:none;opacity:.1;fill:none}.outline-small{stroke-width:8}.outline-small,.stroke-highlight{fill:none;stroke:none;opacity:.2}.base-shadow{fill:#000;opacity:75}</style>
  <style
     id="style26-2-32">.specularity{opacity:.5}.low-specularity{opacity:.25}.full-specularity{opacity:1}.black{fill:#000}.white{fill:#fff}.outline-big{stroke-width:16;stroke:none;opacity:.1;fill:none}.outline-small{stroke-width:8}.outline-small,.stroke-highlight{fill:none;stroke:none;opacity:.2}.base-shadow{fill:#000;opacity:75}</style>
  <style
     id="style26-28-5-1">.specularity{opacity:.5}.low-specularity{opacity:.25}.full-specularity{opacity:1}.black{fill:#000}.white{fill:#fff}.outline-big{stroke-width:16;stroke:none;opacity:.1;fill:none}.outline-small{stroke-width:8}.outline-small,.stroke-highlight{fill:none;stroke:none;opacity:.2}.base-shadow{fill:#000;opacity:75}</style>
  <style
     id="style26-1-5-25">.specularity{opacity:.5}.low-specularity{opacity:.25}.full-specularity{opacity:1}.black{fill:#000}.white{fill:#fff}.outline-big{stroke-width:16;stroke:none;opacity:.1;fill:none}.outline-small{stroke-width:8}.outline-small,.stroke-highlight{fill:none;stroke:none;opacity:.2}.base-shadow{fill:#000;opacity:75}</style>
  <style
     id="style26-3-7">.specularity{opacity:.5}.low-specularity{opacity:.25}.full-specularity{opacity:1}.black{fill:#000}.white{fill:#fff}.outline-big{stroke-width:16;stroke:none;opacity:.1;fill:none}.outline-small{stroke-width:8}.outline-small,.stroke-highlight{fill:none;stroke:none;opacity:.2}.base-shadow{fill:#000;opacity:75}</style>
  <style
     id="style26-0-6-8">.specularity{opacity:.5}.low-specularity{opacity:.25}.full-specularity{opacity:1}.black{fill:#000}.white{fill:#fff}.outline-big{stroke-width:16;stroke:none;opacity:.1;fill:none}.outline-small{stroke-width:8}.outline-small,.stroke-highlight{fill:none;stroke:none;opacity:.2}.base-shadow{fill:#000;opacity:75}</style>
  <style
     id="style26-1-56-6">.specularity{opacity:.5}.low-specularity{opacity:.25}.full-specularity{opacity:1}.black{fill:#000}.white{fill:#fff}.outline-big{stroke-width:16;stroke:none;opacity:.1;fill:none}.outline-small{stroke-width:8}.outline-small,.stroke-highlight{fill:none;stroke:none;opacity:.2}.base-shadow{fill:#000;opacity:75}</style>
  <style
     id="style26-8-9-8">.specularity{opacity:.5}.low-specularity{opacity:.25}.full-specularity{opacity:1}.black{fill:#000}.white{fill:#fff}.outline-big{stroke-width:16;stroke:none;opacity:.1;fill:none}.outline-small{stroke-width:8}.outline-small,.stroke-highlight{fill:none;stroke:none;opacity:.2}.base-shadow{fill:#000;opacity:75}</style>
  <style
     id="style26-2-3-8">.specularity{opacity:.5}.low-specularity{opacity:.25}.full-specularity{opacity:1}.black{fill:#000}.white{fill:#fff}.outline-big{stroke-width:16;stroke:none;opacity:.1;fill:none}.outline-small{stroke-width:8}.outline-small,.stroke-highlight{fill:none;stroke:none;opacity:.2}.base-shadow{fill:#000;opacity:75}</style>
  <style
     id="style26-81-4">.specularity{opacity:.5}.low-specularity{opacity:.25}.full-specularity{opacity:1}.black{fill:#000}.white{fill:#fff}.outline-big{stroke-width:16;stroke:none;opacity:.1;fill:none}.outline-small{stroke-width:8}.outline-small,.stroke-highlight{fill:none;stroke:none;opacity:.2}.base-shadow{fill:#000;opacity:75}</style>
  <style
     id="style26-1-561-3">.specularity{opacity:.5}.low-specularity{opacity:.25}.full-specularity{opacity:1}.black{fill:#000}.white{fill:#fff}.outline-big{stroke-width:16;stroke:none;opacity:.1;fill:none}.outline-small{stroke-width:8}.outline-small,.stroke-highlight{fill:none;stroke:none;opacity:.2}.base-shadow{fill:#000;opacity:75}</style>
  <g
     stroke-opacity="0"
     fill-rule="evenodd"
     id="g267"
     transform="matrix(-1,0,0,1,647.56657,-74.018145)">
    <path
       id="path6141-8-5"
       d="m 556.21,504.7 -1.69,2.584 c -3.123,0.439 -5.215,1.285 -8.05,2.57 l -0.168,-0.697 -2.483,-1.912 c -1.887,6.762 1.709,14.227 3.926,15.424 11.079,0 13.977,-6.504 14.492,-12.46 0.056,-2.847 -2.021,-5.233 -2.802,-8.132 z m -2.115,5.49 c 0.437,3.329 -2.044,3.346 -4.61,4.817 -1.563,-0.766 -2.139,-1.117 -2.434,-2.723 2.428,-1.502 4.234,-2.155 7.043,-2.095 z"
       fill="#f8e0d9" />
    <path
       id="path6141-7-5"
       d="m 501.32,507.51 -2.697,1.832 c -3.222,-0.841 -4.606,-0.578 -7.894,-0.479 l 0.12,-0.747 -1.851,1.136 c -4.59,5.826 -5.378,10.133 -3.701,12.202 10.142,3.907 14.759,0.12 20.79,-2.663 1.214,-2.754 1.036,-6.1 1.454,-9.244 z m -6.418,3.391 c -0.927,3.423 -2.353,2.722 -5.451,3.114 -1.214,-1.384 -0.217,-1.646 0.148,-3.331 2.979,-0.479 2.588,-0.985 5.303,0.217 z"
       fill="#f8e0d9" />
    <path
       id="path4991"
       d="m 540.98,277.98 5.056,7.479 7.373,61.725 12.64,48.03 c -5.509,6.214 -10.856,6.427 -18.328,6.11 l -12.64,-48.663 -9.69,-45.714 1.264,-24.858 z"
       fill="#506567" />
    <path
       id="path4656"
       d="m 520.4,275.06 10.018,-0.66 -3.335,8.32 6.952,3.898 -6.425,8.531 -8.461,28.956 z"
       fill="#787576" />
    <path
       id="path4658"
       d="m 505.28,275.56 -8.258,3.598 -0.38,4.934 c -11.832,16.369 -5.094,16.405 -2.738,30.336 l -1.133,7.85 -1.899,-7.928 c -8.285,-17.431 -9.927,-11.987 -2.088,-27.817 l 4.469,-0.559 0.535,-5.838 0.92,-1.407 7.939,-3.01 z"
       fill="#787576" />
  </g>
  <path
     id="path4702"
     d="m 104.06657,319.48186 17.6,4.65 -0.43,1.43 -17.24,-4.48 z"
     style="fill:#f5ddb3;fill-rule:evenodd;stroke-opacity:0" />
  <path
     id="path4704"
     d="m 82.776566,316.38186 c 5.906,4.415 11.413,4.873 18.461004,5.533 l -0.328,1.262 c -7.807004,0.92 -13.712004,-0.702 -18.605004,-5.004 z"
     style="fill:#f5ddb3;fill-rule:evenodd;stroke-opacity:0" />
  <path
     id="path4706"
     d="m 174.94657,324.88186 0.33,1.73 -10.29,1.54 -0.08,-2.21 z"
     style="fill:#f5ddb3;fill-rule:evenodd;stroke-opacity:0" />
  <path
     id="path4708"
     d="m 206.76657,270.84186 0.49,0.64 c 0.44,7.68 -1.39,10.03 -7.92,11.94 l -0.55,-0.45 c 7.25,-1.51 8.36,-5.5 7.98,-12.13 z"
     style="fill:#f5ddb3;fill-rule:evenodd;stroke-opacity:0" />
  <path
     id="path4724"
     d="m 142.35657,380.18186 c 5.47,2.9 13.5,4.29 20.32,2.39 l -0.16,2.26 c -5.43,0.9 -13.71,0.68 -20.23,-2.46 z"
     style="fill:#f5ddb3;fill-rule:evenodd;stroke-opacity:0" />
  <path
     id="path4726"
     d="m 96.276566,375.71186 c 6.090004,4.86 13.570004,7.21 21.130004,4.33 -0.17,0.45 -0.33,0.91 -0.5,1.36 -10.05,2.84 -14.76,-0.21 -21.190004,-3.31 0.18,-0.8 0.37,-1.6 0.56,-2.38 z"
     style="fill:#f5ddb3;fill-rule:evenodd;stroke-opacity:0" />
</svg>
