<?xml version="1.0" encoding="UTF-8" standalone="no"?>
<!-- Created with Inkscape (http://www.inkscape.org/) -->

<svg
   xmlns:dc="http://purl.org/dc/elements/1.1/"
   xmlns:cc="http://creativecommons.org/ns#"
   xmlns:rdf="http://www.w3.org/1999/02/22-rdf-syntax-ns#"
   xmlns:svg="http://www.w3.org/2000/svg"
   xmlns="http://www.w3.org/2000/svg"
   xmlns:sodipodi="http://sodipodi.sourceforge.net/DTD/sodipodi-0.dtd"
   xmlns:inkscape="http://www.inkscape.org/namespaces/inkscape"
   version="1.1"
   id="svg4631"
   xml:space="preserve"
   width="661.44476"
   height="260.19467"
   viewBox="0 0 661.44477 260.19467"
   sodipodi:docname="sprites.svg"
   inkscape:version="0.92.4 (5da689c313, 2019-01-14)"><metadata
     id="metadata4637"><rdf:RDF><cc:Work
         rdf:about=""><dc:format>image/svg+xml</dc:format><dc:type
           rdf:resource="http://purl.org/dc/dcmitype/StillImage" /><dc:title></dc:title></cc:Work></rdf:RDF></metadata><defs
     id="defs4635" /><sodipodi:namedview
     pagecolor="#ffffff"
     bordercolor="#666666"
     borderopacity="1"
     objecttolerance="10"
     gridtolerance="10"
     guidetolerance="10"
     inkscape:pageopacity="0"
     inkscape:pageshadow="2"
     inkscape:window-width="1920"
     inkscape:window-height="1136"
     id="namedview4633"
     showgrid="false"
     inkscape:zoom="1.099969"
     inkscape:cx="330.72279"
     inkscape:cy="130.10135"
     inkscape:window-x="0"
     inkscape:window-y="36"
     inkscape:window-maximized="1"
     inkscape:current-layer="g4639" /><g
     id="g4639"
     inkscape:groupmode="layer"
     inkscape:label="ink_ext_XXXXXX"
     transform="matrix(1.3333333,0,0,-1.3333333,-77.470538,538.28665)"><g
       id="g4641"
       transform="matrix(-0.1,0,0,0.1,612.2894,0)"><path
         d="m 5074.68,3614.19 c -177.59,-75.48 -492.87,-128.12 -899.95,-128.12 -397.27,0 -1267.34,24.91 -1549.46,33.41 l 0.43,9.07 c 0,0 163.38,332.62 248,284.28 84.62,-48.34 181.55,-217.87 181.55,-217.87 0,0 145.16,248.05 205.86,242.29 60.4,-6.25 199.8,-278.61 199.8,-278.61 0,0 120.95,211.71 193.41,181.53 72.75,-30.07 109.03,-163.37 133.45,-175.39 23.82,-12.31 114.69,132.91 175.39,132.91 60.54,0 114.99,-139.05 151.31,-150.98 36.43,-12.3 145.32,127.05 193.66,127.05 48.24,0 84.62,-108.98 138.96,-127.05 54.59,-18.16 78.86,66.41 157.72,102.75 78.37,36.23 90.72,-48.34 150.97,-60.65 60.7,-12.01 109.04,78.81 145.22,96.88 33.93,16.7 155.86,-59.88 173.68,-71.5"
         style="fill:#f4e926;fill-opacity:1;fill-rule:nonzero;stroke:none"
         id="path4643"
         inkscape:connector-curvature="0" /><path
         d="m 5074.68,3614.19 c 31.25,13.09 58.06,26.86 80.57,41.41 151.46,96.59 254.24,350.79 321.04,363.18 66.36,11.93 60.25,-423.82 0,-720.5 -60.69,-296.29 -175.73,-544.73 -357.32,-635.55 -181.55,-90.72 -314.51,-114.64 -314.51,-114.64 0,0 84.62,-193.96 42.19,-321.01 -42.19,-127.14 -187.5,-120.99 -223.73,-114.74 -36.28,5.76 -157.57,23.92 -108.89,138.97 48.2,115.13 48.2,205.95 -6.25,217.97 -54.44,11.91 -1852,-36.34 -1906.44,-36.34 -54.49,0 6.2,-296.68 -84.67,-308.68 -90.72,-11.92 -314.79,-54.5 -296.63,36.33 18.16,90.72 84.62,320.6 66.46,338.76 -18.27,18.16 -54.45,66.89 -254.2,96.98 -151.47,22.84 -738.33,139.05 -980.42,193.56 -241.896,54.48 -405.368,363.07 -441.56,514.55 -36.418,151.46 23.832,387.4 96.543,387.4 72.602,0 108.93,-90.72 108.93,-90.72 0,0 66.801,96.57 115.039,96.57 48.34,0 102.878,-108.88 90.868,-181.53 0,0 460.01,0 605.32,84.96 0,0 -6.2,381.34 187.31,345.02 193.99,-36.34 151.56,-345.02 151.56,-345.02 0,0 145.12,-30.48 193.46,-24.32 48.63,6.14 -18.17,320.69 199.75,320.69 217.97,0 181.55,-290.62 175.74,-375.19 0,0 33,-0.97 90.43,-2.82 282.12,-8.5 1152.19,-33.41 1549.46,-33.41 407.08,0 722.36,52.64 899.95,128.12"
         style="fill:#a6da58;fill-opacity:1;fill-rule:nonzero;stroke:none"
         id="path4645"
         inkscape:connector-curvature="0" /><path
         d="m 706.863,3673.76 c -7.961,0 -17.582,-6.73 -27.199,-18.84 -46.832,-59.37 -80.371,-227.05 -51.762,-346.2 35.789,-149.12 197.95,-449.31 427.878,-501.16 247.17,-55.57 832.82,-171.1 979.1,-193.26 194.34,-29.31 239.6,-76.27 261.23,-98.84 l 3.18,-3.21 c 16.65,-16.61 10.59,-57.91 -35.65,-245.51 -10.49,-42.48 -20.31,-82.71 -25.78,-109.68 -2,-9.76 0.44,-14.16 2.74,-16.98 5.56,-6.75 23.48,-18.07 81.25,-18.07 51.61,0 114.69,9.18 160.5,15.72 11.81,1.76 22.65,3.23 31.93,4.5 35.89,4.78 39.06,104.1 41.11,169.82 2.74,80.77 4.49,139.07 45.95,139.07 12.89,0 130.32,2.82 292.82,6.82 446.88,10.95 1278.81,31.36 1536.53,31.36 70.45,0 77.34,-1.47 80.95,-2.34 19.44,-4.21 34.77,-16.22 44.29,-34.68 21.73,-41.98 12.55,-117.77 -25.15,-207.91 -11.91,-28.02 -13.13,-50.78 -3.76,-67.87 18.61,-33.49 76.03,-42.67 97.66,-46.18 5.47,-0.88 17.28,-2.54 34.67,-2.54 50.53,0 139.74,13.66 170.07,104.97 39.79,119.14 -40.73,306.16 -41.61,308.01 l -9.18,21.09 22.66,4.11 c 1.32,0.09 132.76,24.7 309.57,113.09 202.74,101.35 300.93,394.71 347.61,622.84 62.35,306.83 56.98,675.58 18.7,699.32 -20.36,-4.5 -60.79,-63.77 -99.85,-121 -56.21,-82.41 -126.18,-184.96 -212.36,-239.93 -23.04,-14.95 -51.17,-29.3 -83.3,-42.79 -193.55,-82.41 -524.22,-129.59 -906.93,-129.59 -366.41,0 -1128.37,20.91 -1550,33.41 l -109.38,3.51 2.74,35.75 c 5.61,72.35 17.53,222.66 -50.73,296.28 -26.32,28.61 -61.77,42.49 -108.26,42.49 -122.02,0 -143.99,-106.25 -157.32,-224.61 -6.35,-55.47 -10.4,-92.2 -40.04,-96.01 -49.76,-6.25 -194.09,23.45 -199.66,24.72 l -16.5,3.41 2.29,16.81 c 0.3,2.82 37.7,291.89 -136.81,324.6 -35.84,6.54 -64.16,-2.05 -88.48,-26.66 -79.93,-81.44 -77.39,-297.94 -77.39,-300.19 l 0.19,-10.65 -9.18,-5.27 c -147.8,-86.53 -595.51,-87.5 -614.5,-87.5 h -21.43 l 3.46,21.18 c 7.67,46.49 -16.058,108.99 -42.531,140.15 -10.929,12.89 -21.969,20.21 -30.367,20.21 -26.711,0 -74.711,-51.86 -100.051,-88.77 l -19.136,-27.64 -12.692,31.25 c -0.34,0.88 -32.82,79.39 -92.09,79.39 z M 2321.85,2085.69 c -56.99,0 -91.75,9.95 -109.28,31.34 -7.32,8.78 -14.84,24.21 -10.35,47.07 5.56,27.84 15.62,68.36 26.12,111.43 17.58,71.09 46.68,189.05 42.97,213.38 l -1.32,1.37 c -17.48,18.05 -58.4,60.64 -240.43,88.07 -146.87,22.27 -734.08,138.2 -981.74,193.75 -259.808,58.61 -421.429,387.22 -455.316,528.13 -31.305,130.77 5.809,310.15 58.687,377.16 17.09,21.68 35.789,32.71 55.672,32.71 56.637,0 93.309,-44.53 111.758,-74.91 25.399,31.84 70.953,80.77 112.211,80.77 19.68,0 39.801,-11.52 58.059,-33.11 28.319,-33.3 53.899,-93.55 52.589,-148.34 87.15,1.27 436.96,10.16 567.38,77.34 0.44,47.75 7.57,233.4 87.84,315.14 32.67,33.2 74.02,45.7 121.05,36.92 183.25,-34.29 174.07,-280.08 167.96,-348.15 37.26,-7.43 129.79,-24.41 168.61,-21.28 5.03,8.98 8.74,40.71 11.37,64.24 10.8,96.1 28.86,256.85 193.41,256.85 56.45,0 101.81,-18.08 134.96,-54 78.18,-84.58 66.46,-243.47 60.36,-321.68 l 71.38,-2.25 c 421.44,-12.5 1183.06,-33.51 1548.93,-33.51 378.12,0 703.42,46.2 892.92,126.77 30.17,12.69 56.35,26.16 77.78,39.93 79.79,50.99 147.46,150.11 201.95,229.9 51.08,74.8 87.9,128.89 125.64,135.84 l 6.01,0.58 c 7.22,0 18.06,-2.55 27.78,-14.46 55.76,-68.25 40.13,-467.96 -12.7,-728.02 -48.34,-236.14 -151.22,-540.23 -366.94,-648.14 -141.41,-70.61 -252.64,-101.18 -297.75,-111.73 20.85,-54.48 70.85,-204.79 34.42,-313.47 -38.82,-117.2 -155.91,-129.89 -204.49,-129.89 -20.12,0 -34.33,1.96 -39.46,2.93 -29.73,4.78 -97.46,15.62 -124.56,64.55 -15.08,27.25 -14.45,60.75 1.96,99.52 39.06,92.97 39.16,152.54 26.46,177.15 -4.69,8.89 -10.94,13.87 -19.87,15.91 -1.86,0.3 -13.04,1.46 -73.19,1.46 -257.28,0 -1088.77,-20.4 -1535.65,-31.34 -168.75,-4.11 -280.37,-6.84 -293.7,-6.84 -6.49,-7.91 -8.35,-65.71 -9.62,-103.91 -2.98,-91.79 -6.25,-195.79 -72.61,-204.68 -9.32,-1.18 -19.92,-2.73 -31.49,-4.3 -47.02,-6.83 -111.57,-16.2 -165.77,-16.2"
         style="fill:#70c72d;fill-opacity:1;fill-rule:nonzero;stroke:none"
         id="path4647"
         inkscape:connector-curvature="0" /><path
         d="m 2642.01,3520.44 -32.71,16.02 c 13.57,27.35 133.84,267.88 226.66,296.29 16.84,5.08 32.96,3.71 46.73,-4.2 68.01,-38.77 141.06,-147.65 172.41,-198.23 47.26,77.34 149.61,230.66 207.76,224.89 57.42,-5.86 153.96,-174.5 199.12,-259.38 39.8,63.58 129.94,190.15 199.37,161.15 52.59,-21.79 85.94,-86.63 110.3,-134.1 7.23,-13.96 15.97,-30.85 21.58,-38.56 9.92,6.84 28.32,26.46 42.29,41.21 40.04,42.37 85.4,90.43 127.64,90.43 45.55,0 81.88,-52.93 114.01,-99.61 14.45,-20.91 34.13,-49.41 42.97,-52.44 0.14,0 0.14,0 0.24,0 11.57,0 51.61,35.24 75.54,56.25 41.89,36.9 81.4,71.68 112.21,71.68 34.23,0 58.59,-32.81 84.52,-67.69 19.48,-26.16 39.6,-53.41 60.25,-60.24 17.73,-6.06 30.42,4.78 59.18,34.96 21.1,22.07 47.32,49.61 85.06,67.09 59.03,27.25 90.53,-3.43 115.92,-28.04 14.4,-14.25 27.98,-27.62 46.43,-31.34 29.98,-5.96 60.26,26.27 87.06,54.79 16.75,17.68 31.16,33 46.39,40.62 41.21,20.5 147.8,-43.94 191.65,-72.55 l -15.82,-32.62 -3.95,2.14 c -66.7,43.66 -141.17,77.05 -155.72,70.6 -9.37,-4.78 -22.95,-19.14 -36.08,-33.19 -31.59,-33.59 -70.95,-75.11 -120.7,-65.34 -29.01,5.86 -47.9,24.41 -64.75,40.82 -24.27,23.74 -38.82,37.9 -75.24,21.2 -31.5,-14.55 -54.01,-38.29 -73.93,-59.18 -27.34,-28.71 -55.76,-58.21 -96.97,-44.43 -31.59,10.53 -55.23,42.27 -77.98,73.14 -18.46,24.89 -39.45,53.02 -55.32,53.02 -17.19,0 -58.16,-36.12 -88.14,-62.59 -51.51,-45.41 -84.18,-72.85 -111.33,-63.48 -20.31,6.64 -38.47,33 -61.32,66.21 -24.37,35.35 -57.72,83.79 -84.18,83.79 -26.62,0 -71.54,-47.55 -101.27,-78.91 -37.41,-39.64 -59.92,-63.57 -82.47,-51.95 -13.33,6.54 -22.42,23.34 -39.99,57.61 -21.78,42.39 -51.71,100.5 -92,117.2 -39.69,16.41 -125.19,-94.04 -170.8,-173.83 l -16.7,-29.21 -15.23,29.89 c -64.94,126.75 -154.25,265.63 -185.3,268.75 -0.35,0.09 -0.79,0.09 -1.13,0.09 -30.27,0 -120.8,-119.71 -187.3,-233.39 l -15.87,-27.06 -15.63,27.26 c -0.97,1.55 -95.45,165.82 -174.85,211.12 -3.08,1.77 -8.3,3.82 -18.02,0.99 -65.96,-20.31 -170.07,-207.33 -204.59,-277.65"
         style="fill:#70c72d;fill-opacity:1;fill-rule:nonzero;stroke:none"
         id="path4649"
         inkscape:connector-curvature="0" /><path
         d="m 1273.41,2884.03 c -207.23,0 -244.92,178.89 -245.26,180.86 -1.96,9.86 4.49,19.32 14.21,21.28 9.71,1.86 19.33,-4.5 21.33,-14.16 1.52,-7.23 38.04,-174.32 252.35,-149.02 186.76,21.97 183.83,119.24 183.69,120.22 -0.39,10.05 7.22,18.64 17.28,19.13 9.96,0.89 18.51,-7.22 19.14,-17.18 0.35,-5.38 4.4,-132.24 -215.82,-158.2 -16.55,-1.97 -32.17,-2.93 -46.92,-2.93"
         style="fill:#231f20;fill-opacity:1;fill-rule:nonzero;stroke:none"
         id="path4651"
         inkscape:connector-curvature="0" /><path
         d="m 1911.35,3670.64 c 0,-65.13 -48.78,-118.06 -108.94,-118.06 -60.1,0 -108.88,52.93 -108.88,118.06 0,65.23 48.78,117.98 108.88,117.98 60.16,0 108.94,-52.75 108.94,-117.98"
         style="fill:#ffffff;fill-opacity:1;fill-rule:nonzero;stroke:none"
         id="path4653"
         inkscape:connector-curvature="0" /><path
         d="m 1862.91,3694.87 c 0,-45.12 -35.11,-81.75 -78.61,-81.75 -43.46,0 -78.76,36.63 -78.76,81.75 0,45.1 35.3,81.63 78.76,81.63 43.5,0 78.61,-36.53 78.61,-81.63"
         style="fill:#231f20;fill-opacity:1;fill-rule:nonzero;stroke:none"
         id="path4655"
         inkscape:connector-curvature="0" /><path
         d="m 2468.23,3643.4 c 0,-65.24 -48.78,-117.98 -108.88,-117.98 -60.26,0 -109.04,52.74 -109.04,117.98 0,65.24 48.78,118.06 109.04,118.06 60.1,0 108.88,-52.82 108.88,-118.06"
         style="fill:#ffffff;fill-opacity:1;fill-rule:nonzero;stroke:none"
         id="path4657"
         inkscape:connector-curvature="0" /><path
         d="m 2419.8,3667.62 c 0,-45.13 -35.21,-81.64 -78.62,-81.64 -43.6,0 -78.71,36.51 -78.71,81.64 0,45.02 35.11,81.64 78.71,81.64 43.41,0 78.62,-36.62 78.62,-81.64"
         style="fill:#231f20;fill-opacity:1;fill-rule:nonzero;stroke:none"
         id="path4659"
         inkscape:connector-curvature="0" /><path
         d="m 749.293,3573.76 c 0,-21.68 -13.43,-39.35 -30.184,-39.35 -16.746,0 -30.265,17.67 -30.265,39.35 0,21.79 13.519,39.36 30.265,39.36 16.754,0 30.184,-17.57 30.184,-39.36"
         style="fill:#231f20;fill-opacity:1;fill-rule:nonzero;stroke:none"
         id="path4661"
         inkscape:connector-curvature="0" /><path
         d="m 924.922,3582.85 c 0,-21.68 -13.668,-39.35 -30.32,-39.35 -16.7,0 -30.27,17.67 -30.27,39.35 0,21.68 13.57,39.36 30.27,39.36 16.652,0 30.32,-17.68 30.32,-39.36"
         style="fill:#231f20;fill-opacity:1;fill-rule:nonzero;stroke:none"
         id="path4663"
         inkscape:connector-curvature="0" /><path
         d="m 3127.95,3331.67 c 0,-31.83 -70.41,-57.52 -157.37,-57.52 -86.92,0 -157.33,25.69 -157.33,57.52 0,31.75 70.41,57.52 157.33,57.52 86.96,0 157.37,-25.77 157.37,-57.52"
         style="fill:#70c72d;fill-opacity:1;fill-rule:nonzero;stroke:none"
         id="path4665"
         inkscape:connector-curvature="0" /><path
         d="m 3545.43,3398.28 c 0,-31.73 -70.41,-57.52 -157.37,-57.52 -86.92,0 -157.33,25.79 -157.33,57.52 0,31.73 70.41,57.43 157.33,57.43 86.96,0 157.37,-25.7 157.37,-57.43"
         style="fill:#70c72d;fill-opacity:1;fill-rule:nonzero;stroke:none"
         id="path4667"
         inkscape:connector-curvature="0" /><path
         d="m 3914.72,3252.96 c 0,-31.74 -70.46,-57.41 -157.37,-57.41 -86.92,0 -157.33,25.67 -157.33,57.41 0,31.75 70.41,57.53 157.33,57.53 86.91,0 157.37,-25.78 157.37,-57.53"
         style="fill:#70c72d;fill-opacity:1;fill-rule:nonzero;stroke:none"
         id="path4669"
         inkscape:connector-curvature="0" /><path
         d="m 4241.53,3368.01 c 0,-31.75 -70.42,-57.52 -157.33,-57.52 -86.96,0 -157.37,25.77 -157.37,57.52 0,31.74 70.41,57.52 157.37,57.52 86.91,0 157.33,-25.78 157.33,-57.52"
         style="fill:#70c72d;fill-opacity:1;fill-rule:nonzero;stroke:none"
         id="path4671"
         inkscape:connector-curvature="0" /><path
         d="m 4701.44,3237.83 c 0,-31.74 -70.41,-57.51 -157.33,-57.51 -86.96,0 -157.37,25.77 -157.37,57.51 0,31.84 70.41,57.52 157.37,57.52 86.92,0 157.33,-25.68 157.33,-57.52"
         style="fill:#70c72d;fill-opacity:1;fill-rule:nonzero;stroke:none"
         id="path4673"
         inkscape:connector-curvature="0" /><path
         d="m 4925.41,3407.46 c 0,-31.84 -70.41,-57.62 -157.37,-57.62 -86.82,0 -157.23,25.78 -157.23,57.62 0,31.64 70.41,57.32 157.23,57.32 86.96,0 157.37,-25.68 157.37,-57.32"
         style="fill:#70c72d;fill-opacity:1;fill-rule:nonzero;stroke:none"
         id="path4675"
         inkscape:connector-curvature="0" /><path
         d="m 3533.42,3153.16 c 0,-31.74 -70.46,-57.52 -157.37,-57.52 -86.92,0 -157.38,25.78 -157.38,57.52 0,31.75 70.46,57.53 157.38,57.53 86.91,0 157.37,-25.78 157.37,-57.53"
         style="fill:#70c72d;fill-opacity:1;fill-rule:nonzero;stroke:none"
         id="path4677"
         inkscape:connector-curvature="0" /><path
         d="m 4314.03,3147.1 c 0,-31.73 -70.41,-57.41 -157.22,-57.41 -86.96,0 -157.37,25.68 -157.37,57.41 0,31.75 70.41,57.43 157.37,57.43 86.81,0 157.22,-25.68 157.22,-57.43"
         style="fill:#70c72d;fill-opacity:1;fill-rule:nonzero;stroke:none"
         id="path4679"
         inkscape:connector-curvature="0" /></g></g></svg>