<?xml version="1.0" encoding="UTF-8" standalone="no"?>
<!-- Created with Inkscape (http://www.inkscape.org/) -->

<svg
   xmlns:dc="http://purl.org/dc/elements/1.1/"
   xmlns:cc="http://creativecommons.org/ns#"
   xmlns:rdf="http://www.w3.org/1999/02/22-rdf-syntax-ns#"
   xmlns:svg="http://www.w3.org/2000/svg"
   xmlns="http://www.w3.org/2000/svg"
   xmlns:sodipodi="http://sodipodi.sourceforge.net/DTD/sodipodi-0.dtd"
   xmlns:inkscape="http://www.inkscape.org/namespaces/inkscape"
   version="1.1"
   id="svg16720"
   xml:space="preserve"
   width="720.7442"
   height="643.34363"
   viewBox="0 0 720.7442 643.34363"
   sodipodi:docname="sprites.svg"
   inkscape:version="0.92.4 (5da689c313, 2019-01-14)"><metadata
     id="metadata16726"><rdf:RDF><cc:Work
         rdf:about=""><dc:format>image/svg+xml</dc:format><dc:type
           rdf:resource="http://purl.org/dc/dcmitype/StillImage" /><dc:title></dc:title></cc:Work></rdf:RDF></metadata><defs
     id="defs16724"><clipPath
       clipPathUnits="userSpaceOnUse"
       id="clipPath16750"><path
         d="M 4388.56,2768.4 C 4707.8,2090.37 4382.07,1265.56 3660.92,926.012 2939.98,586.559 2096.62,860.93 1777.38,1539 c -319.24,677.93 6.49,1502.83 727.54,1842.29 721.14,339.5 1564.45,65.13 1883.64,-612.89 z"
         id="path16748"
         inkscape:connector-curvature="0" /></clipPath><clipPath
       clipPathUnits="userSpaceOnUse"
       id="clipPath16774"><path
         d="M 3437.39,3048.43 C 3339.24,2318.1 2602.33,1814.44 1791.49,1923.47 980.645,2032.36 402.816,2712.59 501.055,3442.91 599.105,4173.13 1335.92,4676.7 2146.76,4567.71 2957.6,4458.83 3535.43,3778.6 3437.39,3048.43 Z"
         id="path16772"
         inkscape:connector-curvature="0" /></clipPath></defs><sodipodi:namedview
     pagecolor="#ffffff"
     bordercolor="#666666"
     borderopacity="1"
     objecttolerance="10"
     gridtolerance="10"
     guidetolerance="10"
     inkscape:pageopacity="0"
     inkscape:pageshadow="2"
     inkscape:window-width="1920"
     inkscape:window-height="1136"
     id="namedview16722"
     showgrid="false"
     inkscape:zoom="1.0799673"
     inkscape:cx="360.39948"
     inkscape:cy="321.64984"
     inkscape:window-x="0"
     inkscape:window-y="36"
     inkscape:window-maximized="1"
     inkscape:current-layer="g16728" /><g
     id="g16728"
     inkscape:groupmode="layer"
     inkscape:label="ink_ext_XXXXXX"
     transform="matrix(1.3333333,0,0,-1.3333333,-55.353846,737.4471)"><g
       id="g16730"
       transform="matrix(-0.1,0,0,0.1,623.58896,0)"><path
         d="m 2928.65,3233.63 c 0,0 -169.24,1607.81 848.73,1821.68 1018.02,213.82 1442.82,-1292.53 945.41,-1887.06 0,0 904.73,293.21 1015.33,-545.75 124.51,-944.63 -1252.44,-722.51 -1329.2,-720.71"
         style="fill:#c3d2ef;fill-opacity:1;fill-rule:nonzero;stroke:none"
         id="path16732"
         inkscape:connector-curvature="0" /><path
         d="m 2928.65,3233.63 c 0,0 -169.24,1607.81 848.73,1821.68 1018.02,213.82 1442.82,-1292.53 945.41,-1887.06 0,0 904.73,293.21 1015.33,-545.75 124.51,-944.63 -1252.44,-722.51 -1329.2,-720.71"
         style="fill:none;stroke:#442c1a;stroke-width:150;stroke-linecap:round;stroke-linejoin:round;stroke-miterlimit:10;stroke-dasharray:none;stroke-opacity:1"
         id="path16734"
         inkscape:connector-curvature="0" /><path
         d="M 3910.97,1186.61 4638.56,956.582 4248.42,1661.02"
         style="fill:#fbe4c6;fill-opacity:1;fill-rule:nonzero;stroke:none"
         id="path16736"
         inkscape:connector-curvature="0" /><path
         d="M 3910.97,1186.61 4638.56,956.582 4248.42,1661.02"
         style="fill:none;stroke:#442c1a;stroke-width:150;stroke-linecap:round;stroke-linejoin:round;stroke-miterlimit:10;stroke-dasharray:none;stroke-opacity:1"
         id="path16738"
         inkscape:connector-curvature="0" /><path
         d="M 4388.56,2768.4 C 4707.8,2090.37 4382.07,1265.56 3660.92,926.012 2939.98,586.559 2096.62,860.93 1777.38,1539 c -319.24,677.93 6.49,1502.83 727.54,1842.29 721.14,339.5 1564.45,65.13 1883.64,-612.89"
         style="fill:#eddd2c;fill-opacity:1;fill-rule:nonzero;stroke:none"
         id="path16740"
         inkscape:connector-curvature="0" /><path
         d="M 4388.56,2768.4 C 4707.8,2090.37 4382.07,1265.56 3660.92,926.012 2939.98,586.559 2096.62,860.93 1777.38,1539 c -319.24,677.93 6.49,1502.83 727.54,1842.29 721.14,339.5 1564.45,65.13 1883.64,-612.89 z"
         style="fill:none;stroke:#442c1a;stroke-width:150;stroke-linecap:round;stroke-linejoin:round;stroke-miterlimit:10;stroke-dasharray:none;stroke-opacity:1"
         id="path16742"
         inkscape:connector-curvature="0" /><g
         id="g16744"><g
           id="g16746"
           clip-path="url(#clipPath16750)"><path
             d="M 4666.05,2933.87 2459.8,723.91 2220.15,963.121 4426.4,3173.13 4666.05,2933.87"
             style="fill:#442c1a;fill-opacity:1;fill-rule:nonzero;stroke:none"
             id="path16752"
             inkscape:connector-curvature="0" /><path
             d="M 5136.02,2578.99 2929.82,368.879 2690.17,608.09 l 2206.2,2210.16 239.65,-239.26"
             style="fill:#442c1a;fill-opacity:1;fill-rule:nonzero;stroke:none"
             id="path16754"
             inkscape:connector-curvature="0" /></g></g><path
         d="M 4388.56,2768.4 C 4707.8,2090.37 4382.07,1265.56 3660.92,926.012 2939.98,586.559 2096.62,860.93 1777.38,1539 c -319.24,677.93 6.49,1502.83 727.54,1842.29 721.14,339.5 1564.45,65.13 1883.64,-612.89 z"
         style="fill:none;stroke:#442c1a;stroke-width:150;stroke-linecap:round;stroke-linejoin:round;stroke-miterlimit:10;stroke-dasharray:none;stroke-opacity:1"
         id="path16756"
         inkscape:connector-curvature="0" /><path
         d="M 4388.56,2768.4 C 4707.8,2090.37 4382.07,1265.56 3660.92,926.012 2939.98,586.559 2096.62,860.93 1777.38,1539 c -319.24,677.93 6.49,1502.83 727.54,1842.29 721.14,339.5 1564.45,65.13 1883.64,-612.89 z"
         style="fill:none;stroke:#442c1a;stroke-width:150;stroke-linecap:round;stroke-linejoin:round;stroke-miterlimit:10;stroke-dasharray:none;stroke-opacity:1"
         id="path16758"
         inkscape:connector-curvature="0" /><path
         d="m 1137.88,2245.69 c 0,0 -418.614,-302.2 -200.884,-690.43 226.364,-403.27 672.804,-51.41 672.804,-51.41 0,0 238.96,-395.81 632.28,-263.14 393.26,132.52 379.68,459.18 379.68,459.18 0,0 331.59,-181.25 632.18,34.72 353.61,254.15 228.61,668.55 228.61,668.55 0,0 439.8,-25.73 588.29,276.96 178.8,364.69 -225.54,665.08 -225.54,665.08 0,0 312.3,304.74 21.82,623.78 -310.15,340.63 -793.01,-151.95 -703.95,-68.55"
         style="fill:#fbe4c6;fill-opacity:1;fill-rule:nonzero;stroke:none"
         id="path16760"
         inkscape:connector-curvature="0" /><path
         d="m 1137.88,2245.69 c 0,0 -418.614,-302.2 -200.884,-690.43 226.364,-403.27 672.804,-51.41 672.804,-51.41 0,0 238.96,-395.81 632.28,-263.14 393.26,132.52 379.68,459.18 379.68,459.18 0,0 331.59,-181.25 632.18,34.72 353.61,254.15 228.61,668.55 228.61,668.55 0,0 439.8,-25.73 588.29,276.96 178.8,364.69 -225.54,665.08 -225.54,665.08 0,0 312.3,304.74 21.82,623.78 -310.15,340.63 -793.01,-151.95 -703.95,-68.55"
         style="fill:none;stroke:#442c1a;stroke-width:150;stroke-linecap:round;stroke-linejoin:round;stroke-miterlimit:10;stroke-dasharray:none;stroke-opacity:1"
         id="path16762"
         inkscape:connector-curvature="0" /><path
         d="M 3437.39,3048.43 C 3339.24,2318.1 2602.33,1814.44 1791.49,1923.47 980.645,2032.36 402.816,2712.59 501.055,3442.91 599.105,4173.13 1335.92,4676.7 2146.76,4567.71 2957.6,4458.83 3535.43,3778.6 3437.39,3048.43"
         style="fill:#f9d8a4;fill-opacity:1;fill-rule:nonzero;stroke:none"
         id="path16764"
         inkscape:connector-curvature="0" /><path
         d="M 3437.39,3048.43 C 3339.24,2318.1 2602.33,1814.44 1791.49,1923.47 980.645,2032.36 402.816,2712.59 501.055,3442.91 599.105,4173.13 1335.92,4676.7 2146.76,4567.71 2957.6,4458.83 3535.43,3778.6 3437.39,3048.43 Z"
         style="fill:none;stroke:#442c1a;stroke-width:150;stroke-linecap:round;stroke-linejoin:round;stroke-miterlimit:10;stroke-dasharray:none;stroke-opacity:1"
         id="path16766"
         inkscape:connector-curvature="0" /><g
         id="g16768"><g
           id="g16770"
           clip-path="url(#clipPath16774)"><path
             d="m 1544.42,2697.45 c -41.46,-308.74 -353.03,-521.68 -695.955,-475.68 -342.867,46.04 -587.11,333.78 -545.649,642.43 41.551,308.74 353.02,521.77 695.852,475.73 342.872,-46.05 587.252,-333.79 545.752,-642.48"
             style="fill:#f57a8f;fill-opacity:1;fill-rule:nonzero;stroke:none"
             id="path16776"
             inkscape:connector-curvature="0" /><path
             d="m 3647.54,2672.4 c -41.5,-308.84 -353.02,-521.78 -695.8,-475.68 -342.82,45.99 -587.15,333.64 -545.6,642.48 41.4,308.64 353.03,521.68 695.85,475.58 342.77,-46.04 586.96,-333.74 545.55,-642.38"
             style="fill:#f57a8f;fill-opacity:1;fill-rule:nonzero;stroke:none"
             id="path16778"
             inkscape:connector-curvature="0" /></g></g><path
         d="M 3437.39,3048.43 C 3339.24,2318.1 2602.33,1814.44 1791.49,1923.47 980.645,2032.36 402.816,2712.59 501.055,3442.91 599.105,4173.13 1335.92,4676.7 2146.76,4567.71 2957.6,4458.83 3535.43,3778.6 3437.39,3048.43 Z"
         style="fill:none;stroke:#442c1a;stroke-width:150;stroke-linecap:round;stroke-linejoin:round;stroke-miterlimit:10;stroke-dasharray:none;stroke-opacity:1"
         id="path16780"
         inkscape:connector-curvature="0" /><path
         d="m 1549.16,3194.71 c 4.54,-185.84 -86.82,-338.67 -204.4,-341.55 -117.33,-2.88 -216.21,145.41 -220.75,331.11 -4.54,185.54 86.91,338.42 204.25,341.4 117.48,2.78 216.45,-145.46 220.9,-330.96"
         style="fill:#442c1a;fill-opacity:1;fill-rule:nonzero;stroke:none"
         id="path16782"
         inkscape:connector-curvature="0" /><path
         d="m 2780.36,3254.58 c 4.54,-185.65 -87.06,-338.58 -204.5,-341.46 -117.23,-2.73 -216.11,145.32 -220.7,331.06 -4.49,185.59 86.82,338.62 204.35,341.35 117.43,2.84 216.31,-145.41 220.85,-330.95"
         style="fill:#442c1a;fill-opacity:1;fill-rule:nonzero;stroke:none"
         id="path16784"
         inkscape:connector-curvature="0" /><path
         d="M 867.605,5176.94 1229.43,4104.82"
         style="fill:#f9d8a4;fill-opacity:1;fill-rule:nonzero;stroke:none"
         id="path16786"
         inkscape:connector-curvature="0" /><path
         d="M 867.605,5176.94 1229.43,4104.82"
         style="fill:none;stroke:#442c1a;stroke-width:150;stroke-linecap:round;stroke-linejoin:round;stroke-miterlimit:10;stroke-dasharray:none;stroke-opacity:1"
         id="path16788"
         inkscape:connector-curvature="0" /><path
         d="M 2740.81,5123.87 2449.35,4170.45"
         style="fill:#f9d8a4;fill-opacity:1;fill-rule:nonzero;stroke:none"
         id="path16790"
         inkscape:connector-curvature="0" /><path
         d="M 2740.81,5123.87 2449.35,4170.45"
         style="fill:none;stroke:#442c1a;stroke-width:150;stroke-linecap:round;stroke-linejoin:round;stroke-miterlimit:10;stroke-dasharray:none;stroke-opacity:1"
         id="path16792"
         inkscape:connector-curvature="0" /><path
         d="m 1060.14,5170.25 c -18.26,-136.18 -143.363,-231.59 -279.593,-213.28 -136.082,18.26 -231.59,143.41 -213.231,279.49 18.258,136.14 143.461,231.59 279.442,213.28 136.277,-18.31 231.642,-143.4 213.382,-279.49"
         style="fill:#f0d241;fill-opacity:1;fill-rule:nonzero;stroke:none"
         id="path16794"
         inkscape:connector-curvature="0" /><path
         d="m 1060.14,5170.25 c -18.26,-136.18 -143.363,-231.59 -279.593,-213.28 -136.082,18.26 -231.59,143.41 -213.231,279.49 18.258,136.14 143.461,231.59 279.442,213.28 136.277,-18.31 231.642,-143.4 213.382,-279.49 z"
         style="fill:none;stroke:#442c1a;stroke-width:150;stroke-linecap:round;stroke-linejoin:round;stroke-miterlimit:10;stroke-dasharray:none;stroke-opacity:1"
         id="path16796"
         inkscape:connector-curvature="0" /><path
         d="m 3023.67,5172.45 c -19.19,-136.04 -144.92,-230.57 -280.96,-211.43 -135.89,19.1 -230.62,144.93 -211.43,280.86 19.14,136.09 144.93,230.76 280.96,211.53 135.94,-19.14 230.67,-144.97 211.43,-280.96"
         style="fill:#f0d241;fill-opacity:1;fill-rule:nonzero;stroke:none"
         id="path16798"
         inkscape:connector-curvature="0" /><path
         d="m 3023.67,5172.45 c -19.19,-136.04 -144.92,-230.57 -280.96,-211.43 -135.89,19.1 -230.62,144.93 -211.43,280.86 19.14,136.09 144.93,230.76 280.96,211.53 135.94,-19.14 230.67,-144.97 211.43,-280.96 z"
         style="fill:none;stroke:#442c1a;stroke-width:150;stroke-linecap:round;stroke-linejoin:round;stroke-miterlimit:10;stroke-dasharray:none;stroke-opacity:1"
         id="path16800"
         inkscape:connector-curvature="0" /><path
         d="m 1598.96,2741.2 787.5,12.5 c 0,0 -188.28,-529 -387.5,-487.5 -300,62.5 -400,475 -400,475"
         style="fill:#f24f73;fill-opacity:1;fill-rule:nonzero;stroke:none"
         id="path16802"
         inkscape:connector-curvature="0" /><path
         d="m 1598.96,2741.2 787.5,12.5 c 0,0 -188.28,-529 -387.5,-487.5 -300,62.5 -400,475 -400,475 z"
         style="fill:none;stroke:#442c1a;stroke-width:150;stroke-linecap:round;stroke-linejoin:round;stroke-miterlimit:10;stroke-dasharray:none;stroke-opacity:1"
         id="path16804"
         inkscape:connector-curvature="0" /></g></g></svg>